﻿// EVENT 0796
Name "修羅レジェンドゲット"

ChangeVariable(11,11,0,2,1,64)
If(1,11,1,157,2)
 RunCommonEvent(824)
 EndEventProcessing()
 0()
EndIf()
ChangeVariable(11,11,0,2,1,7)
If(1,11,0,1,0)
 RunCommonEvent(815)
 EndEventProcessing()
 0()
EndIf()
If(1,11,0,2,0)
 RunCommonEvent(818)
 EndEventProcessing()
 0()
EndIf()
If(1,11,0,3,0)
 RunCommonEvent(806)
 EndEventProcessing()
 0()
EndIf()
If(1,11,0,4,0)
 RunCommonEvent(812)
 EndEventProcessing()
 0()
EndIf()
If(1,11,0,5,0)
 RunCommonEvent(803)
 EndEventProcessing()
 0()
EndIf()
If(1,11,0,6,0)
 RunCommonEvent(809)
 EndEventProcessing()
 0()
EndIf()
If(1,11,0,7,0)
 RunCommonEvent(821)
 EndEventProcessing()
 0()
EndIf()
0()
