// EVENT 5557
Name "Kyoryuu 2"

PictureDisplay(5,"80_kyoryuu_st02",0,0,0,0,100,100,0,0)
PictureMove(5,null,0,0,0,0,100,100,255,0,30,true)
ShowMessageFace("kyoryuu_fc1",0,0,2,1)
ShowMessage("\\n<Giga>")
ShowMessage("You want to play...?")
ShowMessageFace("",0,0,2,2)
ShowMessage("\\n<Luka>")
ShowMessage("P-please...")
ShowMessageFace("kyoryuu_fc1",1,0,2,3)
ShowMessage("\\n<Giga>")
ShowMessage("Now I'll suck...")
ShowMessageFace("",0,0,2,4)
ShowMessage("Giga picks me up...")
241(bytes(0x04,0x08,0x6f,0x3a,0x0d,0x52,0x50,0x47,0x3a,0x3a,0x42,0x47,0x4d,0x08,0x3a,0x0a,0x40,0x6e,0x61,0x6d,0x65,0x49,0x22,0x09,0x65,0x72,0x6f,0x31,0x06,0x3a,0x06,0x45,0x54,0x3a,0x0c,0x40,0x76,0x6f,0x6c,0x75,0x6d,0x65,0x69,0x69,0x3a,0x0b,0x40,0x70,0x69,0x74,0x63,0x68,0x69,0x69))
245(bytes(0x04,0x08,0x6f,0x3a,0x0d,0x52,0x50,0x47,0x3a,0x3a,0x42,0x47,0x53,0x08,0x3a,0x0a,0x40,0x6e,0x61,0x6d,0x65,0x49,0x22,0x10,0x6d,0x6f,0x6e,0x5f,0x68,0x76,0x6f,0x69,0x63,0x65,0x35,0x06,0x3a,0x06,0x45,0x54,0x3a,0x0c,0x40,0x76,0x6f,0x6c,0x75,0x6d,0x65,0x69,0x55,0x3a,0x0b,0x40,0x70,0x69,0x74,0x63,0x68,0x69,0x69))
PictureDisplay(5,"ev_kyoryuu_st11",0,0,0,0,100,100,255,0)
PictureDisplay(6,"ev_kyoryuu_ct03",0,0,0,0,100,100,255,0)
ShowMessageFace("",0,0,2,5)
ShowMessage("And sucks me into her mouth!")
ShowMessageFace("kyoryuu_fc1",1,0,2,6)
ShowMessage("\\n<Giga>")
ShowMessage("Mmmm...")
ShowMessageFace("",0,0,2,7)
ShowMessage("\\n<Luka>")
ShowMessage("Ah, aaaaaah...!!")
ShowMessageFace("",0,0,2,8)
ShowMessage("Her warm, sticky saliva washes over my body as she sucks on me inside her mouth.")
ShowMessageFace("",0,0,2,9)
ShowMessage("At the same time, her gigantic tongue pushes against my body as it runs back and forth over me, licking me clean...")
ShowMessageFace("kyoryuu_fc1",1,0,2,10)
ShowMessage("\\n<Giga>")
ShowMessage("Mmm...Nnn...")
ShowMessageFace("",0,0,2,11)
ShowMessage("\\n<Luka>")
ShowMessage("Ah, auuuu...")
ShowMessageFace("",0,0,2,12)
ShowMessage("More sticky saliva covers me as she starts to salivate.")
ShowMessageFace("",0,0,2,13)
ShowMessage("Before long, she starts to play with my groin with the tip of her tongue.")
ShowMessageFace("",0,0,2,14)
ShowMessage("Reacting to her powerful licks, my penis starts to get erect.")
ShowMessageFace("kyoryuu_fc1",1,0,2,15)
ShowMessage("\\n<Giga>")
ShowMessage("Penis... I'll lick it...")
ShowMessageFace("",0,0,2,16)
ShowMessage("Feeling my penis get erect with her huge tongue, she starts to focus solely on it.")
ShowMessageFace("",0,0,2,17)
ShowMessage("My ears fill with the wet sounds of her huge mouth as she licks me, her gigantic tongue eagerly licking my penis.")
ShowMessageFace("kyoryuu_fc1",1,0,2,18)
ShowMessage("\\n<Giga>")
ShowMessage("Nnnn... You taste good...")
ShowMessageFace("",0,0,2,19)
ShowMessage("\\n<Luka>")
ShowMessage("Auuuu...!!")
ShowMessageFace("",0,0,2,20)
ShowMessage("I tremble inside her mouth as her unrelenting tongue keeps tasting me.")
ShowMessageFace("",0,0,2,21)
ShowMessage("I struggle as hard as I can but my hands and feet just pointlessly sink into her soft tongue.")
ShowMessageFace("kyoryuu_fc1",1,0,2,22)
ShowMessage("\\n<Giga>")
ShowMessage("Mmmm...")
ShowMessageFace("",0,0,2,23)
ShowMessage("\\n<Luka>")
ShowMessage("Aaaaaah...!")
ShowMessageFace("",0,0,2,24)
ShowMessage("Her strong tongue licks me over and over, with no signs of stopping.")
ShowMessageFace("",0,0,2,25)
ShowMessage("Despite the huge tongue, she deftly controls it, gently licking at my comparatively small penis.")
ShowMessageFace("kyoryuu_fc1",1,0,2,26)
ShowMessage("\\n<Giga>")
ShowMessage("Your penis tastes good... Nnn...")
ShowMessageFace("",0,0,2,27)
ShowMessage("\\n<Luka>")
ShowMessage("Fuaaaaa...")
ShowMessageFace("",0,0,2,28)
ShowMessage("Before I had noticed, I was giving in to the sensations, letting her huge mouth toss me around as her tongue keeps on licking me...")
ShowMessageFace("",0,0,2,29)
ShowMessage("\\n<Luka>")
ShowMessage("Ah, ah... That feels good...")
ShowMessageFace("",0,0,2,30)
ShowMessage("My waist starts to ache as I feel an ejaculation about to break through.")
ShowMessageFace("",0,0,2,31)
ShowMessage("Expecting the orgasm, I unconsciously push forward into her tongue as pre-come starts to leak out.")
ShowMessageFace("kyoryuu_fc1",1,0,2,32)
ShowMessage("\\n<Giga>")
ShowMessage("Ah, the filling is coming out... The tip tastes so good...")
ShowMessageFace("",0,0,2,33)
ShowMessage("Her tongue starts to focus on the tip of my penis, eagerly licking and sucking up each drop of pre-come that comes leaking out.")
ShowMessageFace("",0,0,2,34)
ShowMessage("Unable to endure it any longer, I relax my body as her tongue keeps me pinned down in her mouth.")
ShowMessageFace("",0,0,2,35)
ShowMessage("\\n<Luka>")
ShowMessage("Ah, aaaaaaah!!")
RunCommonEvent(104)
PictureDisplay(5,"ev_kyoryuu_st12",0,0,0,0,100,100,255,0)
PictureDisplay(6,"ev_kyoryuu_ct04",0,0,0,0,100,100,255,0)
RunCommonEvent(105)
ShowMessageFace("",0,0,2,36)
ShowMessage("My penis twitches as I explode inside her mouth, spraying my semen all over inside her.")
ShowMessageFace("kyoryuu_fc1",1,0,2,37)
ShowMessage("\\n<Giga>")
ShowMessage("So much filling... Mmmm...")
ShowMessageFace("",0,0,2,38)
ShowMessage("\\n<Luka>")
ShowMessage("Ah, aaaaah...")
ShowMessageFace("",0,0,2,39)
ShowMessage("I feebly shake my waist as her powerful tongue licks up all the semen off my penis, still extra sensitive after my orgasm.")
ShowMessageFace("kyoryuu_fc1",1,0,2,40)
ShowMessage("\\n<Giga>")
ShowMessage("Nnn... *Suck*")
ShowMessageFace("",0,0,2,41)
ShowMessage("She suddenly starts to salivate, covering my body in her warm saliva.")
ShowMessageFace("",0,0,2,42)
ShowMessage("It's almost like I'm dipped into a warm pool of water...")
ShowMessageFace("",0,0,2,43)
ShowMessage("\\n<Luka>")
ShowMessage("Ugh... Auuu...")
ShowMessageFace("kyoryuu_fc1",1,0,2,44)
ShowMessage("\\n<Giga>")
ShowMessage("*Suck* *Suck*")
ShowMessageFace("",0,0,2,45)
ShowMessage("Suddenly, a powerful suction pulls on my body as the inside of her mouth swiftly moves while holding me inside it.")
ShowMessageFace("",0,0,2,46)
ShowMessage("Her mouth narrows as she starts to suck hard on my body, while still licking me with her tongue at the same time...")
ShowMessageFace("",0,0,2,47)
ShowMessage("It's almost like I'm a piece of candy and she's just enjoying the taste as she plays with me in her mouth.")
ShowMessageFace("",0,0,2,48)
ShowMessage("\\n<Luka>")
ShowMessage("Ah, auuuu...!!")
ShowMessageFace("kyoryuu_fc1",1,0,2,49)
ShowMessage("\\n<Giga>")
ShowMessage("Mmmmn... Delicious... *Suck*")
ShowMessageFace("",0,0,2,50)
ShowMessage("Attacked head to toe with powerful stimulation, I moan as her warm saliva washes over me with every suck.")
ShowMessageFace("",0,0,2,51)
ShowMessage("A large amount of saliva washes over my crotch as I'm rubbed all over by the inside of her mouth...")
ShowMessageFace("",0,0,2,52)
ShowMessage("\\n<Luka>")
ShowMessage("Auu... That feels good...")
ShowMessageFace("",0,0,2,53)
ShowMessage("I relax and give myself over to the pleasure as she tosses me around and sucks on me.")
ShowMessageFace("",0,0,2,54)
ShowMessage("I immerse myself in pleasure as her giant tongue plays with me like I was a piece of candy.")
ShowMessageFace("",0,0,2,55)
ShowMessage("I quickly explode inside her again...")
RunCommonEvent(104)
PictureDisplay(6,"ev_kyoryuu_ct05",0,0,0,0,100,100,255,0)
RunCommonEvent(105)
ShowMessageFace("",0,0,2,56)
ShowMessage("As soon as I do, she starts eagerly sucking even harder on my whole body.")
ShowMessageFace("",0,0,2,57)
ShowMessage("\\n<Luka>")
ShowMessage("Auuu... Amazing...")
ShowMessageFace("kyoryuu_fc1",1,0,2,58)
ShowMessage("\\n<Giga>")
ShowMessage("Delicious... Mmmnnn...")
ShowMessageFace("",0,0,2,59)
ShowMessage("Giga's giant tongue starts licking my penis again, eager to lap up all of the semen I just shot out.")
ShowMessageFace("",0,0,2,60)
ShowMessage("As she does so, her mouth presses on me from all sides and the sucking continues...")
ShowMessageFace("kyoryuu_fc1",1,0,2,61)
ShowMessage("\\n<Giga>")
ShowMessage("That tastes good... Shoot out more...")
ShowMessageFace("",0,0,2,62)
ShowMessage("\\n<Luka>")
ShowMessage("Auu... That feels good... Aaaaaah!!")
RunCommonEvent(104)
PictureDisplay(6,"ev_kyoryuu_ct06",0,0,0,0,100,100,255,0)
RunCommonEvent(105)
ShowMessageFace("",0,0,2,63)
ShowMessage("I sigh in ecstasy as her giant tongue forces me to another height. Overcome by bliss, I don't even notice my body beginning to be dissolved away...")
ShowMessageFace("",0,0,2,64)
ShowMessage("\\n<Luka>")
ShowMessage("Ah, auuu...")
ShowMessageFace("",0,0,2,65)
ShowMessage("Giga keeps sucking on me like that, forcing me to orgasm after orgasm. As time goes on, more and more of my body dissolves away inside her mouth.")
ShowMessageFace("",0,0,2,66)
ShowMessage("She treats me like candy until the very end. Enjoying my taste until there's nothing left...")
ShowMessageFace("kyoryuu_fc1",1,0,2,67)
ShowMessage("\\n<Giga>")
ShowMessage("Nnn... Mmmmn...")
ShowMessageFace("",0,0,2,68)
ShowMessage("\\n<Luka>")
ShowMessage("Auu...")
ShowMessageFace("",0,0,2,69)
ShowMessage("The last of my life melts away inside her mouth, no longer giving her the delicious taste she was enjoying...")
221()
PictureClear(5)
PictureClear(6)
246(2)
ShowMessageFace("kyoryuu_fc1",1,0,2,70)
ShowMessage("\\n<Giga>")
ShowMessage("...Ptui.")
ShowMessageFace("",0,0,2,71)
ShowMessage("All of a sudden my body lands on the cold floor, covered in saliva.")
ShowMessageFace("kyoryuu_fc1",1,0,2,72)
ShowMessage("\\n<Giga>")
ShowMessage("...I won't eat.")
ShowMessageFace("",0,0,2,73)
ShowMessage("\\n<Luka>")
ShowMessage("........")
ShowMessageFace("",0,0,2,74)
ShowMessage("Fortunately, she didn't swallow me. With my whole body covered in saliva, I sigh in relief...")
ShowMessageFace("",0,0,2,75)
ShowMessage("......")
RunCommonEvent(3998)
0()
