// EVENT 0327
Name "Canaan Sisters Recruitment Processing"

PictureDisplay(5,"80_dorothy_st02",0,0,0,0,100,100,255,0)
ShowMessageFace("dorothy_fc1",1,0,2,1)
ShowMessage("\\n<Dorothy>Looking forward to working with you...")
ChangeSwitch(2187,2187,0)
PictureClear(5)
355("add_actor_ex(238)")
249(bytes(0x04,0x08,0x6f,0x3a,0x0c,0x52,0x50,0x47,0x3a,0x3a,0x4d,0x45,0x08,0x3a,0x0a,0x40,0x6e,0x61,0x6d,0x65,0x49,0x22,0x0c,0x66,0x61,0x6e,0x66,0x61,0x6c,0x65,0x06,0x3a,0x06,0x45,0x54,0x3a,0x0b,0x40,0x70,0x69,0x74,0x63,0x68,0x69,0x69,0x3a,0x0c,0x40,0x76,0x6f,0x6c,0x75,0x6d,0x65,0x69,0x69))
ShowMessageFace("",0,0,2,2)
ShowMessage("Dorothy has joined the party!")
Wait(60)
PictureDisplay(5,"80_rafi_st02",0,0,0,0,100,100,255,0)
ShowMessageFace("rafi_fc1",1,0,2,3)
ShowMessage("\\n<Raffia>I'll dissolve your enemies for you...")
PictureClear(5)
355("add_actor_ex(239)")
249(bytes(0x04,0x08,0x6f,0x3a,0x0c,0x52,0x50,0x47,0x3a,0x3a,0x4d,0x45,0x08,0x3a,0x0a,0x40,0x6e,0x61,0x6d,0x65,0x49,0x22,0x0c,0x66,0x61,0x6e,0x66,0x61,0x6c,0x65,0x06,0x3a,0x06,0x45,0x54,0x3a,0x0b,0x40,0x70,0x69,0x74,0x63,0x68,0x69,0x69,0x3a,0x0c,0x40,0x76,0x6f,0x6c,0x75,0x6d,0x65,0x69,0x69))
ShowMessageFace("",0,0,2,4)
ShowMessage("Raffia has joined the party!")
Wait(60)
PictureDisplay(5,"80_dina_st02",0,0,0,0,100,100,255,0)
ShowMessageFace("dina_fc1",1,0,2,5)
ShowMessage("\\n<Deana>We'll work for our pay...")
PictureClear(5)
355("add_actor_ex(240)")
249(bytes(0x04,0x08,0x6f,0x3a,0x0c,0x52,0x50,0x47,0x3a,0x3a,0x4d,0x45,0x08,0x3a,0x0a,0x40,0x6e,0x61,0x6d,0x65,0x49,0x22,0x0c,0x66,0x61,0x6e,0x66,0x61,0x6c,0x65,0x06,0x3a,0x06,0x45,0x54,0x3a,0x0b,0x40,0x70,0x69,0x74,0x63,0x68,0x69,0x69,0x3a,0x0c,0x40,0x76,0x6f,0x6c,0x75,0x6d,0x65,0x69,0x69))
ShowMessageFace("",0,0,2,6)
ShowMessage("Deana has joined the party!")
Wait(60)
EndEventProcessing()
0()
