﻿// EVENT 5823
Name "Rクィーンマーメイド"

If(0,443,0)
 PictureDisplay(5,"80_queenmermaid_st01",0,0,0,0,100,100,255,0)
 0()
EndIf()
242(1)
250(bytes(0x04,0x08,0x6f,0x3a,0x0c,0x52,0x50,0x47,0x3a,0x3a,0x53,0x45,0x08,0x3a,0x0a,0x40,0x6e,0x61,0x6d,0x65,0x49,0x22,0x0a,0x7a,0x69,0x68,0x6f,0x75,0x06,0x3a,0x06,0x45,0x54,0x3a,0x0b,0x40,0x70,0x69,0x74,0x63,0x68,0x69,0x69,0x3a,0x0c,0x40,0x76,0x6f,0x6c,0x75,0x6d,0x65,0x69,0x55))
Wait(60)
ShowMessageFace("",0,0,2,1)
ShowMessage("その時――城内に、五時の鐘が鳴り響いた。")
241(bytes(0x04,0x08,0x6f,0x3a,0x0d,0x52,0x50,0x47,0x3a,0x3a,0x42,0x47,0x4d,0x08,0x3a,0x0a,0x40,0x6e,0x61,0x6d,0x65,0x49,0x22,0x09,0x65,0x72,0x6f,0x31,0x06,0x3a,0x06,0x45,0x54,0x3a,0x0c,0x40,0x76,0x6f,0x6c,0x75,0x6d,0x65,0x69,0x69,0x3a,0x0b,0x40,0x70,0x69,0x74,0x63,0x68,0x69,0x69))
ShowMessageFace("queenmermaid_fc1",0,0,2,2)
ShowMessage("【ローラ】")
ShowMessage("ルカ、あなたの明鏡止水はともかく……")
ShowMessage("水そのものを操る技術は、非常に未熟ね。")
ShowMessageFace("",0,0,2,3)
ShowMessage("【ルカ】")
ShowMessage("うん、そんな戦い方をした事がないから……")
ShowMessageFace("queenmermaid_fc1",0,0,2,4)
ShowMessage("【ローラ】")
ShowMessage("今日、罰を受けるのはあなたのようね……")
ShowMessage("さあ、お尻を出しなさい。")
ShowMessageFace("",0,0,2,5)
ShowMessage("【ルカ】")
ShowMessage("えっ……？")
ShowMessageFace("ningyohime_fc1",4,0,2,6)
ShowMessage("【エル】")
ShowMessage("あ～あ、お母さんのオシオキだ。")
ShowMessage("あれ、痛いんだよね～♪")
ShowMessageFace("",0,0,2,7)
ShowMessage("こうして僕は、思わぬお仕置きを受ける事となった――")
221()
Wait(60)
PictureDisplay(5,"ev_queenmermaid_hc1",0,0,0,0,100,100,255,0)
222()
ShowMessageFace("queenmermaid_fc1",0,0,2,8)
ShowMessage("【ローラ】")
ShowMessage("悪い子ね、反省しなさい……")
ShowMessageFace("",0,0,2,9)
ShowMessage("【ルカ】")
ShowMessage("あぅぅぅぅっ……！！")
ShowMessageFace("",0,0,2,10)
ShowMessage("ローラの手が、何度も何度も僕のお尻を叩く。")
ShowMessage("まるで子供のようにお仕置きされ、責めたてられているのだ――")
ShowMessageFace("ningyohime_fc1",4,0,2,11)
ShowMessage("【エル】")
ShowMessage("ねぇねぇ、痛いでしょ？")
ShowMessage("あははっ、罰だから仕方ないよね～♪")
ShowMessageFace("",0,0,2,12)
ShowMessage("【ルカ】")
ShowMessage("こ、こんなぁ……")
ShowMessageFace("queenmermaid_fc1",0,0,2,13)
ShowMessage("【ローラ】")
ShowMessage("動かないで……")
ShowMessageFace("",0,0,2,14)
ShowMessage("さらに激しく尻を叩かれ、僕は体をびくんと震わせた。")
ShowMessageFace("queenmermaid_fc1",0,0,2,15)
ShowMessage("【ローラ】")
ShowMessage("あと百回よ……")
ShowMessage("自分の未熟さを、反省しなさい……")
ShowMessageFace("",0,0,2,16)
ShowMessage("【ルカ】")
ShowMessage("あぅぅぅっ……")
ShowMessageFace("",0,0,2,17)
ShowMessage("こうして僕は、延々とお尻を叩かれ――")
ShowMessage("無慈悲で理不尽な罰を受け続けたのである。")
221()
PictureClear(5)
242(1)
246(1)
ShowMessageFace("",0,0,2,18)
ShowMessage("・・・・・・・・")
221()
Wait(120)
If(0,443,0)
 EndEventProcessing()
 0()
EndIf()
RunCommonEvent(541)
0()
