﻿// EVENT 0068
Name "Skill: Play 281-290"

ChangeVariable(11,11,0,2,1,5)
If(1,100,0,281,0)
 If(1,11,0,1,0)
  ShowMessageFace("succubuses_fc1",0,0,2,1)
  ShowMessage("\\n<Harem>And then, that girl...")
  ShowMessageFace("",0,0,2,2)
  ShowMessage("The Harem are having girl talk...")
  EndEventProcessing()
  0()
 EndIf()
 If(1,11,0,2,0)
  ShowMessageFace("succubuses_fc1",0,0,2,3)
  ShowMessage("\\n<Harem>Ufufu...♪")
  355("interrupt_skill(3296)")
  EndEventProcessing()
  0()
 EndIf()
 If(1,11,0,3,0)
  ShowMessageFace("succubuses_fc1",0,0,2,4)
  ShowMessage("\\n<Harem>Let's dance, everyone♪")
  ShowMessageFace("",0,0,2,5)
  ShowMessage("The Harem are dancing a cheerful dance!\n...But nothing happened.")
  EndEventProcessing()
  0()
 EndIf()
 If(1,11,0,4,0)
  ShowMessageFace("succubuses_fc1",0,0,2,6)
  ShowMessage("\\n<Harem>This is a service♪")
  ShowMessageFace("",0,0,2,7)
  ShowMessage("The Harem presents a gift!")
  250(bytes(0x04,0x08,0x6f,0x3a,0x0c,0x52,0x50,0x47,0x3a,0x3a,0x53,0x45,0x08,0x3a,0x0a,0x40,0x6e,0x61,0x6d,0x65,0x49,0x22,0x0a,0x49,0x74,0x65,0x6d,0x31,0x06,0x3a,0x06,0x45,0x54,0x3a,0x0b,0x40,0x70,0x69,0x74,0x63,0x68,0x69,0x69,0x3a,0x0c,0x40,0x76,0x6f,0x6c,0x75,0x6d,0x65,0x69,0x55))
  ChangeInventory_Item(342,0,0,1)
  ShowMessageFace("",0,0,2,8)
  ShowMessage("You obtain some \\ii[342]!")
  EndEventProcessing()
  0()
 EndIf()
 If(1,11,0,5,0)
  ShowMessageFace("succubuses_fc1",0,0,2,9)
  ShowMessage("\\n<Harem>Ufufu, this is a demon's gaze...♪")
  355("interrupt_skill(2561)")
  EndEventProcessing()
  0()
 EndIf()
 0()
EndIf()
If(1,100,0,282,0)
 If(1,11,0,1,0)
  ShowMessageFace("maycubbus_fc1",0,0,2,10)
  ShowMessage("\\n<Mei>Okay, please do your best...")
  ShowMessageFace("",0,0,2,11)
  ShowMessage("Mei is cheering for everyone!\n...But nobody heard her.")
  EndEventProcessing()
  0()
 EndIf()
 If(1,11,0,2,0)
  ShowMessageFace("maycubbus_fc1",0,0,2,12)
  ShowMessage("\\n<Mei>I shall become your master.")
  ShowMessageFace("",0,0,2,13)
  ShowMessage("Mei made a bold declaration!\n...But no one was listening to her.")
  EndEventProcessing()
  0()
 EndIf()
 If(1,11,0,3,0)
  ShowMessageFace("maycubbus_fc1",2,0,2,14)
  ShowMessage("\\n<Mei>Excuse me, but I'm going to sleep...")
  313(0,282,0,11)
  ShowMessageFace("",0,0,2,15)
  ShowMessage("Mei fell asleep...")
  EndEventProcessing()
  0()
 EndIf()
 If(1,11,0,4,0)
  ShowMessageFace("maycubbus_fc1",0,0,2,16)
  ShowMessage("\\n<Mei>Please have this...")
  ShowMessageFace("",0,0,2,17)
  ShowMessage("Mei presents a gift!")
  250(bytes(0x04,0x08,0x6f,0x3a,0x0c,0x52,0x50,0x47,0x3a,0x3a,0x53,0x45,0x08,0x3a,0x0a,0x40,0x6e,0x61,0x6d,0x65,0x49,0x22,0x0a,0x49,0x74,0x65,0x6d,0x31,0x06,0x3a,0x06,0x45,0x54,0x3a,0x0b,0x40,0x70,0x69,0x74,0x63,0x68,0x69,0x69,0x3a,0x0c,0x40,0x76,0x6f,0x6c,0x75,0x6d,0x65,0x69,0x55))
  ChangeInventory_Item(375,0,0,1)
  ShowMessageFace("",0,0,2,18)
  ShowMessage("You obtain a \\ii[375]!")
  EndEventProcessing()
  0()
 EndIf()
 If(1,11,0,5,0)
  ShowMessageFace("maycubbus_fc1",0,0,2,19)
  ShowMessage("\\n<Mei>I'll clean this up...")
  355("interrupt_skill(2367)")
  EndEventProcessing()
  0()
 EndIf()
 0()
EndIf()
If(1,100,0,283,0)
 If(1,11,0,1,0)
  ShowMessageFace("maccubus_fc1",5,0,2,20)
  ShowMessage("\\n<Melissa>Ueeeh!")
  ShowMessageFace("",0,0,2,21)
  ShowMessage("Melissa is pretending to cry!\n...But no one paid any attention.")
  EndEventProcessing()
  0()
 EndIf()
 If(1,11,0,2,0)
  ShowMessageFace("maccubus_fc1",1,0,2,22)
  ShowMessage("\\n<Melissa>Congratulations!")
  ShowMessageFace("",0,0,2,23)
  ShowMessage("Melissa popped a party cracker!\n...But no one paid any attention.")
  EndEventProcessing()
  0()
 EndIf()
 If(1,11,0,3,0)
  ShowMessageFace("maccubus_fc1",5,0,2,24)
  ShowMessage("\\n<Melissa>Don't come any closer!")
  355("interrupt_skill(1437)")
  EndEventProcessing()
  0()
 EndIf()
 If(1,11,0,4,0)
  ShowMessageFace("maccubus_fc1",1,0,2,25)
  ShowMessage("\\n<Melissa>Here, by all means.")
  ShowMessageFace("",0,0,2,26)
  ShowMessage("Melissa presents a gift!")
  250(bytes(0x04,0x08,0x6f,0x3a,0x0c,0x52,0x50,0x47,0x3a,0x3a,0x53,0x45,0x08,0x3a,0x0a,0x40,0x6e,0x61,0x6d,0x65,0x49,0x22,0x0a,0x49,0x74,0x65,0x6d,0x31,0x06,0x3a,0x06,0x45,0x54,0x3a,0x0b,0x40,0x70,0x69,0x74,0x63,0x68,0x69,0x69,0x3a,0x0c,0x40,0x76,0x6f,0x6c,0x75,0x6d,0x65,0x69,0x55))
  ChangeInventory_Item(358,0,0,1)
  ShowMessageFace("",0,0,2,27)
  ShowMessage("You obtain a \\ii[358]!")
  EndEventProcessing()
  0()
 EndIf()
 If(1,11,0,5,0)
  ShowMessageFace("maccubus_fc1",1,0,2,28)
  ShowMessage("\\n<Melissa>Ufufu...")
  355("interrupt_skill(3296)")
  EndEventProcessing()
  0()
 EndIf()
 0()
EndIf()
If(1,100,0,284,0)
 If(1,11,0,1,0)
  ShowMessageFace("minccubus_fc1",2,0,2,29)
  ShowMessage("\\n<Serra>Ehehe...♪")
  ShowMessageFace("",0,0,2,30)
  ShowMessage("Serra is doodling on the ground...")
  EndEventProcessing()
  0()
 EndIf()
 If(1,11,0,2,0)
  ShowMessageFace("minccubus_fc1",3,0,2,31)
  ShowMessage("\\n<Serra>Gyah!")
  355("interrupt_skill(3293)")
  EndEventProcessing()
  0()
 EndIf()
 If(1,11,0,3,0)
  ShowMessageFace("minccubus_fc1",2,0,2,32)
  ShowMessage("\\n<Serra>Do your best! ♪")
  355("interrupt_skill(3300)")
  EndEventProcessing()
  0()
 EndIf()
 If(1,11,0,4,0)
  ShowMessageFace("minccubus_fc1",2,0,2,33)
  ShowMessage("\\n<Serra>Here, drink this♪")
  ShowMessageFace("",0,0,2,34)
  ShowMessage("Serra presents a gift!")
  250(bytes(0x04,0x08,0x6f,0x3a,0x0c,0x52,0x50,0x47,0x3a,0x3a,0x53,0x45,0x08,0x3a,0x0a,0x40,0x6e,0x61,0x6d,0x65,0x49,0x22,0x0a,0x49,0x74,0x65,0x6d,0x31,0x06,0x3a,0x06,0x45,0x54,0x3a,0x0b,0x40,0x70,0x69,0x74,0x63,0x68,0x69,0x69,0x3a,0x0c,0x40,0x76,0x6f,0x6c,0x75,0x6d,0x65,0x69,0x55))
  ChangeInventory_Item(342,0,0,1)
  ShowMessageFace("",0,0,2,35)
  ShowMessage("You obtain some \\ii[342]!")
  EndEventProcessing()
  0()
 EndIf()
 If(1,11,0,5,0)
  ShowMessageFace("minccubus_fc1",3,0,2,36)
  ShowMessage("\\n<Serra>No!")
  355("interrupt_skill(1437)")
  EndEventProcessing()
  0()
 EndIf()
 0()
EndIf()
If(1,100,0,285,0)
 If(1,11,0,1,0)
  ShowMessageFace("renccubus_fc1",3,0,2,37)
  ShowMessage("\\n<Nina>Ufufu...♪")
  355("interrupt_skill(3296)")
  EndEventProcessing()
  0()
 EndIf()
 If(1,11,0,2,0)
  ShowMessageFace("renccubus_fc1",2,0,2,38)
  ShowMessage("\\n<Nina>Ahaha...♪")
  ShowMessageFace("",0,0,2,39)
  ShowMessage("Nina is dancing and singing happily...")
  EndEventProcessing()
  0()
 EndIf()
 If(1,11,0,3,0)
  ShowMessageFace("renccubus_fc1",2,0,2,40)
  ShowMessage("\\n<Nina>Eii!")
  355("interrupt_skill(3307)")
  EndEventProcessing()
  0()
 EndIf()
 If(1,11,0,4,0)
  ShowMessageFace("renccubus_fc1",2,0,2,41)
  ShowMessage("\\n<Nina>This is fresh milk squeezed from our farm♪")
  ShowMessageFace("",0,0,2,42)
  ShowMessage("Nina presents a gift!")
  250(bytes(0x04,0x08,0x6f,0x3a,0x0c,0x52,0x50,0x47,0x3a,0x3a,0x53,0x45,0x08,0x3a,0x0a,0x40,0x6e,0x61,0x6d,0x65,0x49,0x22,0x0a,0x49,0x74,0x65,0x6d,0x31,0x06,0x3a,0x06,0x45,0x54,0x3a,0x0b,0x40,0x70,0x69,0x74,0x63,0x68,0x69,0x69,0x3a,0x0c,0x40,0x76,0x6f,0x6c,0x75,0x6d,0x65,0x69,0x55))
  ChangeInventory_Item(342,0,0,1)
  ShowMessageFace("",0,0,2,43)
  ShowMessage("You obtain some \\ii[342]!")
  EndEventProcessing()
  0()
 EndIf()
 If(1,11,0,5,0)
  ShowMessageFace("renccubus_fc1",4,0,2,44)
  ShowMessage("\\n<Nina>Pervert!")
  355("interrupt_skill(1437)")
  EndEventProcessing()
  0()
 EndIf()
 0()
EndIf()
If(1,100,0,286,0)
 If(1,11,0,1,0)
  ShowMessageFace("witchs_fc1",1,0,2,45)
  ShowMessage("\\n<Witch>Ufufu...")
  355("interrupt_skill(3296)")
  EndEventProcessing()
  0()
 EndIf()
 If(1,11,0,2,0)
  ShowMessageFace("witchs_fc1",0,0,2,46)
  ShowMessage("\\n<Witch>With this mysterious seed... Eii!")
  355("interrupt_skill(3299)")
  EndEventProcessing()
  0()
 EndIf()
 If(1,11,0,3,0)
  ShowMessageFace("witchs_fc1",1,0,2,47)
  ShowMessage("\\n<Witch>I suppose I should unwind myself once in a while...♪")
  ShowMessageFace("",0,0,2,48)
  ShowMessage("Witch is singing cheerfully and dancing...")
  EndEventProcessing()
  0()
 EndIf()
 If(1,11,0,4,0)
  ShowMessageFace("witchs_fc1",0,0,2,49)
  ShowMessage("\\n<Witch>If you eat this, you will master magic... Maybe?")
  ShowMessageFace("",0,0,2,50)
  ShowMessage("Witch presents a gift!")
  250(bytes(0x04,0x08,0x6f,0x3a,0x0c,0x52,0x50,0x47,0x3a,0x3a,0x53,0x45,0x08,0x3a,0x0a,0x40,0x6e,0x61,0x6d,0x65,0x49,0x22,0x0a,0x49,0x74,0x65,0x6d,0x31,0x06,0x3a,0x06,0x45,0x54,0x3a,0x0b,0x40,0x70,0x69,0x74,0x63,0x68,0x69,0x69,0x3a,0x0c,0x40,0x76,0x6f,0x6c,0x75,0x6d,0x65,0x69,0x55))
  ChangeInventory_Item(304,0,0,1)
  ShowMessageFace("",0,0,2,51)
  ShowMessage("You obtain a \\ii[304]!")
  EndEventProcessing()
  0()
 EndIf()
 If(1,11,0,5,0)
  ShowMessageFace("witchs_fc1",0,0,2,52)
  ShowMessage("\\n<Witch>I have devised a new spell... Ultra Fire!")
  355("interrupt_skill(3306)")
  EndEventProcessing()
  0()
 EndIf()
 0()
EndIf()
If(1,100,0,287,0)
 If(1,11,0,1,0)
  ShowMessageFace("succubus_fc1",1,0,2,53)
  ShowMessage("\\n<Succubus>Smile♪")
  ShowMessageFace("",0,0,2,54)
  ShowMessage("Succubus flashes a sweet smile!\n...But nothing happened.")
  EndEventProcessing()
  0()
 EndIf()
 If(1,11,0,2,0)
  ShowMessageFace("succubus_fc1",0,0,2,55)
  ShowMessage("\\n<Succubus>Sometimes, I also play like this...")
  355("interrupt_skill(3295)")
  EndEventProcessing()
  0()
 EndIf()
 If(1,11,0,3,0)
  ShowMessageFace("succubus_fc1",0,0,2,56)
  ShowMessage("\\n<Succubus>Look into my eyes...")
  355("interrupt_skill(2561)")
  EndEventProcessing()
  0()
 EndIf()
 If(1,11,0,4,0)
  ShowMessageFace("succubus_fc1",0,0,2,57)
  ShowMessage("\\n<Succubus>Here, this is a present.")
  ShowMessageFace("",0,0,2,58)
  ShowMessage("Succubus presents a gift!")
  250(bytes(0x04,0x08,0x6f,0x3a,0x0c,0x52,0x50,0x47,0x3a,0x3a,0x53,0x45,0x08,0x3a,0x0a,0x40,0x6e,0x61,0x6d,0x65,0x49,0x22,0x0a,0x49,0x74,0x65,0x6d,0x31,0x06,0x3a,0x06,0x45,0x54,0x3a,0x0b,0x40,0x70,0x69,0x74,0x63,0x68,0x69,0x69,0x3a,0x0c,0x40,0x76,0x6f,0x6c,0x75,0x6d,0x65,0x69,0x55))
  ChangeInventory_Item(319,0,0,3)
  ShowMessageFace("",0,0,2,59)
  ShowMessage("You obtain 3 \\ii[319]!")
  EndEventProcessing()
  0()
 EndIf()
 If(1,11,0,5,0)
  ShowMessageFace("succubus_fc1",0,0,2,60)
  ShowMessage("\\n<Succubus>Fufu...")
  355("interrupt_skill(3296)")
  EndEventProcessing()
  0()
 EndIf()
 0()
EndIf()
If(1,100,0,288,0)
 If(1,11,0,1,0)
  ShowMessageFace("d_succubus_fc1",0,0,2,61)
  ShowMessage("\\n<Natasha>Let's dance♪")
  ShowMessageFace("",0,0,2,62)
  ShowMessage("Natasha is dancing a cheerful dance!\n...But nothing happened.")
  EndEventProcessing()
  0()
 EndIf()
 If(1,11,0,2,0)
  ShowMessageFace("d_succubus_fc1",0,0,2,63)
  ShowMessage("\\n<Natasha>Fufufufu...")
  355("interrupt_skill(3297)")
  EndEventProcessing()
  0()
 EndIf()
 If(1,11,0,3,0)
  ShowMessageFace("d_succubus_fc1",0,0,2,64)
  ShowMessage("\\n<Natasha>Isn't this also kind of fun...?")
  355("interrupt_skill(2561)")
  EndEventProcessing()
  0()
 EndIf()
 If(1,11,0,4,0)
  ShowMessageFace("d_succubus_fc1",0,0,2,65)
  ShowMessage("\\n<Natasha>Hey, you can have this.\nPlease don't ask me about where I found it...")
  ShowMessageFace("",0,0,2,66)
  ShowMessage("Natasha presents a gift!")
  250(bytes(0x04,0x08,0x6f,0x3a,0x0c,0x52,0x50,0x47,0x3a,0x3a,0x53,0x45,0x08,0x3a,0x0a,0x40,0x6e,0x61,0x6d,0x65,0x49,0x22,0x0a,0x49,0x74,0x65,0x6d,0x31,0x06,0x3a,0x06,0x45,0x54,0x3a,0x0b,0x40,0x70,0x69,0x74,0x63,0x68,0x69,0x69,0x3a,0x0c,0x40,0x76,0x6f,0x6c,0x75,0x6d,0x65,0x69,0x55))
  ChangeInventory_Item(319,0,0,1)
  ShowMessageFace("",0,0,2,67)
  ShowMessage("You obtain a \\ii[319]!")
  EndEventProcessing()
  0()
 EndIf()
 If(1,11,0,5,0)
  ShowMessageFace("d_succubus_fc1",0,0,2,68)
  ShowMessage("\\n<Natasha>Fufufufu...")
  355("interrupt_skill(3298)")
  EndEventProcessing()
  0()
 EndIf()
 0()
EndIf()
If(1,100,0,289,0)
 If(1,11,0,1,0)
  ShowMessageFace("maidscyulla_fc1",1,0,2,69)
  ShowMessage("\\n<Ran>Pardon my tentacles...")
  355("interrupt_skill(2776)")
  EndEventProcessing()
  0()
 EndIf()
 If(1,11,0,2,0)
  ShowMessageFace("maidscyulla_fc1",1,0,2,70)
  ShowMessage("\\n<Ran>I'll let you enjoy my dance...♪")
  ShowMessageFace("",0,0,2,71)
  ShowMessage("Ran is dancing a cheerful dance!\nBut nothing happened...")
  EndEventProcessing()
  0()
 EndIf()
 If(1,11,0,3,0)
  ShowMessageFace("maidscyulla_fc1",1,0,2,72)
  ShowMessage("\\n<Ran>When you're a maid, appearances are important...")
  ShowMessageFace("",0,0,2,73)
  ShowMessage("Ran is tidying her appearance...")
  EndEventProcessing()
  0()
 EndIf()
 If(1,11,0,4,0)
  ShowMessageFace("maidscyulla_fc1",1,0,2,74)
  ShowMessage("\\n<Ran>I hope you appreciate my cooking...")
  ShowMessageFace("",0,0,2,75)
  ShowMessage("Ran presents a gift!")
  250(bytes(0x04,0x08,0x6f,0x3a,0x0c,0x52,0x50,0x47,0x3a,0x3a,0x53,0x45,0x08,0x3a,0x0a,0x40,0x6e,0x61,0x6d,0x65,0x49,0x22,0x0a,0x49,0x74,0x65,0x6d,0x31,0x06,0x3a,0x06,0x45,0x54,0x3a,0x0b,0x40,0x70,0x69,0x74,0x63,0x68,0x69,0x69,0x3a,0x0c,0x40,0x76,0x6f,0x6c,0x75,0x6d,0x65,0x69,0x55))
  ChangeInventory_Item(364,0,0,1)
  ShowMessageFace("",0,0,2,76)
  ShowMessage("You obtain an \\ii[364]!")
  EndEventProcessing()
  0()
 EndIf()
 If(1,11,0,5,0)
  ShowMessageFace("maidscyulla_fc1",1,0,2,77)
  ShowMessage("\\n<Ran>For my master...")
  355("interrupt_skill(3294)")
  EndEventProcessing()
  0()
 EndIf()
 0()
EndIf()
If(1,100,0,290,0)
 If(1,11,0,1,0)
  ShowMessageFace("madaminsect_fc1",0,0,2,78)
  ShowMessage("\\n<Sylvia>Isn't this parasol lovely...?")
  ShowMessageFace("",0,0,2,79)
  ShowMessage("Sylvia is twirling her parasol around...")
  EndEventProcessing()
  0()
 EndIf()
 If(1,11,0,2,0)
  ShowMessageFace("madaminsect_fc1",0,0,2,80)
  ShowMessage("\\n<Sylvia>I will become the chief of Lady's Village!")
  ShowMessageFace("",0,0,2,81)
  ShowMessage("Sylvia made a bold declaration!\n...But no one was listening to her.")
  EndEventProcessing()
  0()
 EndIf()
 If(1,11,0,3,0)
  ShowMessageFace("madaminsect_fc1",0,0,2,82)
  ShowMessage("\\n<Sylvia>The weather is nice...")
  ShowMessageFace("",0,0,2,83)
  ShowMessage("Sylvia is in a daze...")
  EndEventProcessing()
  0()
 EndIf()
 If(1,11,0,4,0)
  ShowMessageFace("madaminsect_fc1",0,0,2,84)
  ShowMessage("\\n<Sylvia>Please accept this...")
  ShowMessageFace("",0,0,2,85)
  ShowMessage("Sylvia presents a gift!")
  250(bytes(0x04,0x08,0x6f,0x3a,0x0c,0x52,0x50,0x47,0x3a,0x3a,0x53,0x45,0x08,0x3a,0x0a,0x40,0x6e,0x61,0x6d,0x65,0x49,0x22,0x0a,0x49,0x74,0x65,0x6d,0x31,0x06,0x3a,0x06,0x45,0x54,0x3a,0x0b,0x40,0x70,0x69,0x74,0x63,0x68,0x69,0x69,0x3a,0x0c,0x40,0x76,0x6f,0x6c,0x75,0x6d,0x65,0x69,0x55))
  ChangeInventory_Item(345,0,0,1)
  ShowMessageFace("",0,0,2,86)
  ShowMessage("You obtain a \\ii[345]!")
  EndEventProcessing()
  0()
 EndIf()
 If(1,11,0,5,0)
  ShowMessageFace("madaminsect_fc1",0,0,2,87)
  ShowMessage("\\n<Sylvia>I like playing with fire...")
  355("interrupt_skill(3295)")
  EndEventProcessing()
  0()
 EndIf()
 0()
EndIf()
0()
