﻿// EVENT 0097
Name "Skill: Play 571-580"

ChangeVariable(11,11,0,2,1,5)
If(1,100,0,571,0)
 If(1,11,0,1,0)
  ShowMessageFace("mob_kaihei_fc1",0,0,2,1)
  ShowMessage("\\n<Milio>Hustle♪ Hustle♪")
  355("interrupt_skill(2047)")
  EndEventProcessing()
  0()
 EndIf()
 If(1,11,0,2,0)
  ShowMessageFace("mob_kaihei_fc1",0,0,2,2)
  ShowMessage("\\n<Milio>Marine pose!")
  ShowMessageFace("",0,0,2,3)
  ShowMessage("Milio struck the Marine pose!\n...But nobody was watching.")
  EndEventProcessing()
  0()
 EndIf()
 If(1,11,0,3,0)
  ShowMessageFace("mob_kaihei_fc1",0,0,2,4)
  ShowMessage("\\n<Milio>Lalalalaaa♪")
  ShowMessageFace("",0,0,2,5)
  ShowMessage("Milio is dancing and singing happily...")
  EndEventProcessing()
  0()
 EndIf()
 If(1,11,0,4,0)
  ShowMessageFace("mob_kaihei_fc1",0,0,2,6)
  ShowMessage("\\n<Milio>Eat this♪")
  ShowMessageFace("",0,0,2,7)
  ShowMessage("Milio presents a gift!")
  250(bytes(0x04,0x08,0x6f,0x3a,0x0c,0x52,0x50,0x47,0x3a,0x3a,0x53,0x45,0x08,0x3a,0x0a,0x40,0x6e,0x61,0x6d,0x65,0x49,0x22,0x0a,0x49,0x74,0x65,0x6d,0x31,0x06,0x3a,0x06,0x45,0x54,0x3a,0x0b,0x40,0x70,0x69,0x74,0x63,0x68,0x69,0x69,0x3a,0x0c,0x40,0x76,0x6f,0x6c,0x75,0x6d,0x65,0x69,0x55))
  ChangeInventory_Item(424,0,0,1)
  ShowMessageFace("",0,0,2,8)
  ShowMessage("You obtain some \\ii[424]!")
  EndEventProcessing()
  0()
 EndIf()
 If(1,11,0,5,0)
  ShowMessageFace("mob_kaihei_fc1",0,0,2,9)
  ShowMessage("\\n<Milio>Like this!")
  355("interrupt_skill(1833)")
  EndEventProcessing()
  0()
 EndIf()
 0()
EndIf()
If(1,100,0,572,0)
 If(1,11,0,1,0)
  ShowMessageFace("mob_murabito3_fc1",1,0,2,10)
  ShowMessage("\\n<Lara>Hmmmm, what should I do...")
  ShowMessageFace("",0,0,2,11)
  ShowMessage("Lara is thinking about tonight's menu...")
  EndEventProcessing()
  0()
 EndIf()
 If(1,11,0,2,0)
  ShowMessageFace("mob_murabito3_fc1",5,0,2,12)
  ShowMessage("\\n<Lara>Ufufu...")
  ShowMessageFace("",0,0,2,13)
  ShowMessage("Lara flashes a sweet smile!\n...But nothing happened.")
  EndEventProcessing()
  0()
 EndIf()
 If(1,11,0,3,0)
  ShowMessageFace("mob_murabito3_fc1",0,0,2,14)
  ShowMessage("\\n<Lara>Umm...this is a present.")
  ShowMessageFace("",0,0,2,15)
  ShowMessage("Lara presents a gift!")
  250(bytes(0x04,0x08,0x6f,0x3a,0x0c,0x52,0x50,0x47,0x3a,0x3a,0x53,0x45,0x08,0x3a,0x0a,0x40,0x6e,0x61,0x6d,0x65,0x49,0x22,0x0a,0x49,0x74,0x65,0x6d,0x31,0x06,0x3a,0x06,0x45,0x54,0x3a,0x0b,0x40,0x70,0x69,0x74,0x63,0x68,0x69,0x69,0x3a,0x0c,0x40,0x76,0x6f,0x6c,0x75,0x6d,0x65,0x69,0x55))
  ChangeInventory_Item(380,0,0,1)
  ShowMessageFace("",0,0,2,16)
  ShowMessage("You obtain a \\ii[380]!")
  EndEventProcessing()
  0()
 EndIf()
 If(1,11,0,4,0)
  ShowMessageFace("mob_murabito3_fc1",0,0,2,17)
  ShowMessage("\\n<Lara>Umm...this is a present.")
  ShowMessageFace("",0,0,2,18)
  ShowMessage("Lara presents a gift!")
  250(bytes(0x04,0x08,0x6f,0x3a,0x0c,0x52,0x50,0x47,0x3a,0x3a,0x53,0x45,0x08,0x3a,0x0a,0x40,0x6e,0x61,0x6d,0x65,0x49,0x22,0x0a,0x49,0x74,0x65,0x6d,0x31,0x06,0x3a,0x06,0x45,0x54,0x3a,0x0b,0x40,0x70,0x69,0x74,0x63,0x68,0x69,0x69,0x3a,0x0c,0x40,0x76,0x6f,0x6c,0x75,0x6d,0x65,0x69,0x55))
  ChangeInventory_Item(389,0,0,1)
  ShowMessageFace("",0,0,2,19)
  ShowMessage("You obtain some \\ii[389]!")
  EndEventProcessing()
  0()
 EndIf()
 If(1,11,0,5,0)
  ShowMessageFace("mob_murabito3_fc1",0,0,2,20)
  ShowMessage("\\n<Lara>Wah, my feet are...")
  355("interrupt_skill(3293)")
  EndEventProcessing()
  0()
 EndIf()
 0()
EndIf()
If(1,100,0,573,0)
 If(1,11,0,1,0)
  ShowMessageFace("mob_sensi1_fc1",0,0,2,21)
  ShowMessage("\\n<Julia>Haaa!")
  355("interrupt_skill(3294)")
  EndEventProcessing()
  0()
 EndIf()
 If(1,11,0,2,0)
  ShowMessageFace("mob_sensi1_fc1",0,0,2,22)
  ShowMessage("\\n<Julia>Come on, let's go!")
  ShowMessageFace("",0,0,2,23)
  ShowMessage("Julia is running around her surroundings!")
  EndEventProcessing()
  0()
 EndIf()
 If(1,11,0,3,0)
  ShowMessageFace("mob_sensi1_fc1",0,0,2,24)
  ShowMessage("\\n<Julia>My body is going numb...\nIs this because of the herb salad I ate this morning...?")
  313(0,573,0,12)
  ShowMessageFace("",0,0,2,25)
  ShowMessage("Julia has become paralyzed!")
  EndEventProcessing()
  0()
 EndIf()
 If(1,11,0,4,0)
  ShowMessageFace("mob_sensi1_fc1",0,0,2,26)
  ShowMessage("\\n<Julia>Here, you should eat this to get stronger.")
  ShowMessageFace("",0,0,2,27)
  ShowMessage("Julia presents a gift!")
  250(bytes(0x04,0x08,0x6f,0x3a,0x0c,0x52,0x50,0x47,0x3a,0x3a,0x53,0x45,0x08,0x3a,0x0a,0x40,0x6e,0x61,0x6d,0x65,0x49,0x22,0x0a,0x49,0x74,0x65,0x6d,0x31,0x06,0x3a,0x06,0x45,0x54,0x3a,0x0b,0x40,0x70,0x69,0x74,0x63,0x68,0x69,0x69,0x3a,0x0c,0x40,0x76,0x6f,0x6c,0x75,0x6d,0x65,0x69,0x55))
  ChangeInventory_Item(405,0,0,1)
  ShowMessageFace("",0,0,2,28)
  ShowMessage("You obtain a \\ii[405]!")
  EndEventProcessing()
  0()
 EndIf()
 If(1,11,0,5,0)
  ShowMessageFace("mob_sensi1_fc1",0,0,2,29)
  ShowMessage("\\n<Julia>Daraaa!!")
  355("interrupt_skill(3292)")
  EndEventProcessing()
  0()
 EndIf()
 0()
EndIf()
If(1,100,0,574,0)
 If(1,11,0,1,0)
  ShowMessageFace("mob_miko1_fc1",1,0,2,30)
  ShowMessage("\\n<Satsuki>Please do your best!")
  355("interrupt_skill(3300)")
  EndEventProcessing()
  0()
 EndIf()
 If(1,11,0,2,0)
  ShowMessageFace("mob_miko1_fc1",5,0,2,31)
  ShowMessage("\\n<Satsuki>Haa...haa...")
  355("interrupt_skill(3295)")
  EndEventProcessing()
  0()
 EndIf()
 If(1,11,0,3,0)
  ShowMessageFace("mob_miko1_fc1",5,0,2,32)
  ShowMessage("\\n<Satsuki>Mufufu...")
  313(0,574,0,24)
  ShowMessageFace("",0,0,2,33)
  ShowMessage("Satsuki is thinking about lewd things...\nSatsuki has become horny!")
  EndEventProcessing()
  0()
 EndIf()
 If(1,11,0,4,0)
  ShowMessageFace("mob_miko1_fc1",2,0,2,34)
  ShowMessage("\\n<Satsuki>This is a present♪")
  ShowMessageFace("",0,0,2,35)
  ShowMessage("Satsuki presents a gift!")
  250(bytes(0x04,0x08,0x6f,0x3a,0x0c,0x52,0x50,0x47,0x3a,0x3a,0x53,0x45,0x08,0x3a,0x0a,0x40,0x6e,0x61,0x6d,0x65,0x49,0x22,0x0a,0x49,0x74,0x65,0x6d,0x31,0x06,0x3a,0x06,0x45,0x54,0x3a,0x0b,0x40,0x70,0x69,0x74,0x63,0x68,0x69,0x69,0x3a,0x0c,0x40,0x76,0x6f,0x6c,0x75,0x6d,0x65,0x69,0x55))
  ChangeInventory_Item(372,0,0,1)
  ShowMessageFace("",0,0,2,36)
  ShowMessage("You obtain a \\ii[372]!")
  EndEventProcessing()
  0()
 EndIf()
 If(1,11,0,5,0)
  ShowMessageFace("mob_miko1_fc1",5,0,2,37)
  ShowMessage("\\n<Satsuki>Ufufu...")
  355("interrupt_skill(3296)")
  EndEventProcessing()
  0()
 EndIf()
 0()
EndIf()
If(1,100,0,575,0)
 If(1,11,0,1,0)
  ShowMessageFace("mob_samurai_fc1",0,0,2,38)
  ShowMessage("\\n<Yayoi>Eii! Sei!")
  355("interrupt_skill(3291)")
  EndEventProcessing()
  0()
 EndIf()
 If(1,11,0,2,0)
  ShowMessageFace("mob_samurai_fc1",0,0,2,39)
  ShowMessage("\\n<Yayoi>Eii! Sei!")
  ShowMessageFace("",0,0,2,40)
  ShowMessage("Yayoi is practicing swinging her weapon...")
  EndEventProcessing()
  0()
 EndIf()
 If(1,11,0,3,0)
  ShowMessageFace("mob_samurai_fc1",0,0,2,41)
  ShowMessage("\\n<Yayoi>As long as evil crawls on this land, my glistening blade will be staring back...")
  ShowMessageFace("",0,0,2,42)
  ShowMessage("Yayoi is practicing her catchphrase...")
  EndEventProcessing()
  0()
 EndIf()
 If(1,11,0,4,0)
  ShowMessageFace("mob_samurai_fc1",1,0,2,43)
  ShowMessage("\\n<Yayoi>It may be in a bit of bad shape...but try holding it.")
  ShowMessageFace("",0,0,2,44)
  ShowMessage("Yayoi presents a gift!")
  250(bytes(0x04,0x08,0x6f,0x3a,0x0c,0x52,0x50,0x47,0x3a,0x3a,0x53,0x45,0x08,0x3a,0x0a,0x40,0x6e,0x61,0x6d,0x65,0x49,0x22,0x0a,0x49,0x74,0x65,0x6d,0x31,0x06,0x3a,0x06,0x45,0x54,0x3a,0x0b,0x40,0x70,0x69,0x74,0x63,0x68,0x69,0x69,0x3a,0x0c,0x40,0x76,0x6f,0x6c,0x75,0x6d,0x65,0x69,0x55))
  ChangeInventory_Item(361,0,0,1)
  ShowMessageFace("",0,0,2,45)
  ShowMessage("You obtain a \\ii[361]!")
  EndEventProcessing()
  0()
 EndIf()
 If(1,11,0,5,0)
  ShowMessageFace("mob_samurai_fc1",0,0,2,46)
  ShowMessage("\\n<Yayoi>Kieeeeey!")
  355("interrupt_skill(3292)")
  EndEventProcessing()
  0()
 EndIf()
 0()
EndIf()
If(1,100,0,576,0)
 If(1,11,0,1,0)
  ShowMessageFace("mob_gakusya2_fc1",1,0,2,47)
  ShowMessage("\\n<Rufa>Ah, I have to write this report...")
  ShowMessageFace("",0,0,2,48)
  ShowMessage("Rufa is writing a report...")
  EndEventProcessing()
  0()
 EndIf()
 If(1,11,0,2,0)
  ShowMessageFace("mob_gakusya2_fc1",0,0,2,49)
  ShowMessage("\\n<Rufa>Hooray!")
  ShowMessageFace("",0,0,2,50)
  ShowMessage("Rufa popped a party cracker!\n...But no one paid any attention.")
  EndEventProcessing()
  0()
 EndIf()
 If(1,11,0,3,0)
  ShowMessageFace("mob_gakusya2_fc1",1,0,2,51)
  ShowMessage("\\n<Rufa>I was up all night writing my report yesterday...")
  313(0,576,0,11)
  ShowMessageFace("",0,0,2,52)
  ShowMessage("Rufa fell asleep...")
  EndEventProcessing()
  0()
 EndIf()
 If(1,11,0,4,0)
  ShowMessageFace("mob_gakusya2_fc1",0,0,2,53)
  ShowMessage("\\n<Rufa>This is my secret weapon for the night!")
  ShowMessageFace("",0,0,2,54)
  ShowMessage("Rufa presents a gift!")
  250(bytes(0x04,0x08,0x6f,0x3a,0x0c,0x52,0x50,0x47,0x3a,0x3a,0x53,0x45,0x08,0x3a,0x0a,0x40,0x6e,0x61,0x6d,0x65,0x49,0x22,0x0a,0x49,0x74,0x65,0x6d,0x31,0x06,0x3a,0x06,0x45,0x54,0x3a,0x0b,0x40,0x70,0x69,0x74,0x63,0x68,0x69,0x69,0x3a,0x0c,0x40,0x76,0x6f,0x6c,0x75,0x6d,0x65,0x69,0x55))
  ChangeInventory_Item(427,0,0,1)
  ShowMessageFace("",0,0,2,55)
  ShowMessage("You obtain some \\ii[427]!")
  EndEventProcessing()
  0()
 EndIf()
 If(1,11,0,5,0)
  ShowMessageFace("mob_gakusya2_fc1",0,0,2,56)
  ShowMessage("\\n<Rufa>Doctor!")
  355("interrupt_skill(3206)")
  EndEventProcessing()
  0()
 EndIf()
 0()
EndIf()
If(1,100,0,577,0)
 If(1,11,0,1,0)
  ShowMessageFace("mob_mahousyouzyo_fc1",0,0,2,57)
  ShowMessage("\\n<Magical Mari-chan>Magical☆Mari-chan♪")
  ShowMessageFace("",0,0,2,58)
  ShowMessage("Magical Mari-chan struck her signature pose!\n...But nobody was watching.")
  EndEventProcessing()
  0()
 EndIf()
 If(1,11,0,2,0)
  ShowMessageFace("mob_mahousyouzyo_fc2",0,0,2,59)
  ShowMessage("\\n<Magical Mari-chan>Magical☆")
  355("interrupt_skill(3295)")
  EndEventProcessing()
  0()
 EndIf()
 If(1,11,0,3,0)
  ShowMessageFace("mob_mahousyouzyo_fc2",0,0,2,60)
  ShowMessage("\\n<Magical Mari-chan>Do your best♪ Do your best♪")
  355("interrupt_skill(3300)")
  EndEventProcessing()
  0()
 EndIf()
 If(1,11,0,4,0)
  ShowMessageFace("mob_mahousyouzyo_fc2",0,0,2,61)
  ShowMessage("\\n<Magical Mari-chan>This is a present♪")
  ShowMessageFace("",0,0,2,62)
  ShowMessage("Magical Mari-chan presents a gift!")
  250(bytes(0x04,0x08,0x6f,0x3a,0x0c,0x52,0x50,0x47,0x3a,0x3a,0x53,0x45,0x08,0x3a,0x0a,0x40,0x6e,0x61,0x6d,0x65,0x49,0x22,0x0a,0x49,0x74,0x65,0x6d,0x31,0x06,0x3a,0x06,0x45,0x54,0x3a,0x0b,0x40,0x70,0x69,0x74,0x63,0x68,0x69,0x69,0x3a,0x0c,0x40,0x76,0x6f,0x6c,0x75,0x6d,0x65,0x69,0x55))
  ChangeInventory_Item(441,0,0,1)
  ShowMessageFace("",0,0,2,63)
  ShowMessage("You obtain a \\ii[441]!")
  EndEventProcessing()
  0()
 EndIf()
 If(1,11,0,5,0)
  ShowMessageFace("mob_mahousyouzyo_fc1",0,0,2,64)
  ShowMessage("\\n<Magical Mari-chan>Magical☆Aura♪")
  355("interrupt_skill(3304)")
  EndEventProcessing()
  0()
 EndIf()
 0()
EndIf()
If(1,100,0,578,0)
 If(1,11,0,1,0)
  ShowMessageFace("mob_heisi_fc1",0,0,2,65)
  ShowMessage("\\n<Augusta>This is just training!")
  ShowMessageFace("",0,0,2,66)
  ShowMessage("Augusta is training in secret...")
  EndEventProcessing()
  0()
 EndIf()
 If(1,11,0,2,0)
  ShowMessageFace("mob_heisi_fc1",0,0,2,67)
  ShowMessage("\\n<Augusta>A good meal builds a strong body!")
  ShowMessageFace("",0,0,2,68)
  ShowMessage("Augusta is eating some food she stole...")
  EndEventProcessing()
  0()
 EndIf()
 If(1,11,0,3,0)
  ShowMessageFace("mob_heisi_fc1",0,0,2,69)
  ShowMessage("\\n<Augusta>A good week of rest builds a strong body!")
  313(0,578,0,11)
  ShowMessageFace("",0,0,2,70)
  ShowMessage("Augusta fell asleep...")
  EndEventProcessing()
  0()
 EndIf()
 If(1,11,0,4,0)
  ShowMessageFace("mob_heisi_fc1",0,0,2,71)
  ShowMessage("\\n<Augusta>This is a present for everyone!")
  ShowMessageFace("",0,0,2,72)
  ShowMessage("Augusta presents a gift!")
  250(bytes(0x04,0x08,0x6f,0x3a,0x0c,0x52,0x50,0x47,0x3a,0x3a,0x53,0x45,0x08,0x3a,0x0a,0x40,0x6e,0x61,0x6d,0x65,0x49,0x22,0x0a,0x49,0x74,0x65,0x6d,0x31,0x06,0x3a,0x06,0x45,0x54,0x3a,0x0b,0x40,0x70,0x69,0x74,0x63,0x68,0x69,0x69,0x3a,0x0c,0x40,0x76,0x6f,0x6c,0x75,0x6d,0x65,0x69,0x55))
  ChangeInventory_Item(349,0,0,1)
  ShowMessageFace("",0,0,2,73)
  ShowMessage("You obtain some \\ii[349]!")
  EndEventProcessing()
  0()
 EndIf()
 If(1,11,0,5,0)
  ShowMessageFace("mob_heisi_fc1",0,0,2,74)
  ShowMessage("\\n<Augusta>Kyaaaah!!")
  355("interrupt_skill(3292)")
  EndEventProcessing()
  0()
 EndIf()
 0()
EndIf()
If(1,100,0,579,0)
 If(1,11,0,1,0)
  ShowMessageFace("mob_sanzoku_fc1",0,0,2,75)
  ShowMessage("\\n<Magda>Deryaaaaa!")
  355("interrupt_skill(3292)")
  EndEventProcessing()
  0()
 EndIf()
 If(1,11,0,2,0)
  ShowMessageFace("mob_sanzoku_fc1",0,0,2,76)
  ShowMessage("\\n<Magda>I'll become king of the bandits!")
  ShowMessageFace("",0,0,2,77)
  ShowMessage("Magda made a bold declaration!\n...But no one was listening to her.")
  EndEventProcessing()
  0()
 EndIf()
 If(1,11,0,3,0)
  ShowMessageFace("mob_sanzoku_fc1",0,0,2,78)
  ShowMessage("\\n<Magda>Let's escape!")
  ShowMessageFace("",0,0,2,79)
  ShowMessage("Magda ran away!\nBut she didn't know the way, and soon came back...")
  EndEventProcessing()
  0()
 EndIf()
 If(1,11,0,4,0)
  ShowMessageFace("mob_sanzoku_fc1",0,0,2,80)
  ShowMessage("\\n<Magda>I got this from banditry!")
  ShowMessageFace("",0,0,2,81)
  ShowMessage("Magda presents a gift!")
  250(bytes(0x04,0x08,0x6f,0x3a,0x0c,0x52,0x50,0x47,0x3a,0x3a,0x53,0x45,0x08,0x3a,0x0a,0x40,0x6e,0x61,0x6d,0x65,0x49,0x22,0x0a,0x49,0x74,0x65,0x6d,0x31,0x06,0x3a,0x06,0x45,0x54,0x3a,0x0b,0x40,0x70,0x69,0x74,0x63,0x68,0x69,0x69,0x3a,0x0c,0x40,0x76,0x6f,0x6c,0x75,0x6d,0x65,0x69,0x55))
  ChangeInventory_Item(361,0,0,1)
  ShowMessageFace("",0,0,2,82)
  ShowMessage("You obtain a \\ii[361]!")
  EndEventProcessing()
  0()
 EndIf()
 If(1,11,0,5,0)
  ShowMessageFace("mob_sanzoku_fc1",0,0,2,83)
  ShowMessage("\\n<Magda>Now, I'll take you on seriously!")
  355("interrupt_skill(3294)")
  EndEventProcessing()
  0()
 EndIf()
 0()
EndIf()
If(1,100,0,580,0)
 If(1,11,0,1,0)
  ShowMessageFace("mob_ozyou_fc1",0,0,2,84)
  ShowMessage("\\n<Alleria>Music soothes the heart...")
  ShowMessageFace("",0,0,2,85)
  ShowMessage("Alleria plays the violin...\nNot bad, but no one was listening!")
  EndEventProcessing()
  0()
 EndIf()
 If(1,11,0,2,0)
  ShowMessageFace("mob_ozyou_fc1",0,0,2,86)
  ShowMessage("\\n<Alleria>It is nice to put aside rank once in a while...")
  ShowMessageFace("",0,0,2,87)
  ShowMessage("Alleria is dancing and singing happily...")
  EndEventProcessing()
  0()
 EndIf()
 If(1,11,0,3,0)
  ShowMessageFace("mob_ozyou_fc1",0,0,2,88)
  ShowMessage("\\n<Alleria>This is a fight, everyone...!")
  355("interrupt_skill(3300)")
  EndEventProcessing()
  0()
 EndIf()
 If(1,11,0,4,0)
  ShowMessageFace("mob_ozyou_fc1",0,0,2,89)
  ShowMessage("\\n<Alleria>Please eat this everyone...")
  ShowMessageFace("",0,0,2,90)
  ShowMessage("Alleria presents a gift!")
  250(bytes(0x04,0x08,0x6f,0x3a,0x0c,0x52,0x50,0x47,0x3a,0x3a,0x53,0x45,0x08,0x3a,0x0a,0x40,0x6e,0x61,0x6d,0x65,0x49,0x22,0x0a,0x49,0x74,0x65,0x6d,0x31,0x06,0x3a,0x06,0x45,0x54,0x3a,0x0b,0x40,0x70,0x69,0x74,0x63,0x68,0x69,0x69,0x3a,0x0c,0x40,0x76,0x6f,0x6c,0x75,0x6d,0x65,0x69,0x55))
  ChangeInventory_Item(369,0,0,1)
  ShowMessageFace("",0,0,2,91)
  ShowMessage("You obtain some \\ii[369]!")
  EndEventProcessing()
  0()
 EndIf()
 If(1,11,0,5,0)
  ShowMessageFace("mob_ozyou_fc1",0,0,2,92)
  ShowMessage("\\n<Alleria>Fufu...")
  355("interrupt_skill(3296)")
  EndEventProcessing()
  0()
 EndIf()
 0()
EndIf()
0()
