// EVENT 4031
Name "Sylph 1"

If(0,25,1)
 221()
 PictureClear(5)
 PictureClear(6)
 ShowMessageFace("",0,0,2,0)
 ShowMessage("......")
 242(2)
 Wait(120)
 241(bytes(0x04,0x08,0x6f,0x3a,0x0d,0x52,0x50,0x47,0x3a,0x3a,0x42,0x47,0x4d,0x08,0x3a,0x0a,0x40,0x6e,0x61,0x6d,0x65,0x49,0x22,0x0c,0x63,0x61,0x73,0x74,0x6c,0x65,0x36,0x06,0x3a,0x06,0x45,0x54,0x3a,0x0c,0x40,0x76,0x6f,0x6c,0x75,0x6d,0x65,0x69,0x69,0x3a,0x0b,0x40,0x70,0x69,0x74,0x63,0x68,0x69,0x69))
 EndEventProcessing()
 0()
EndIf()
PictureDisplay(5,"80_sylph_st02",0,0,0,0,100,100,255,0)
ShowMessageFace("sylph_fc1",3,0,2,1)
ShowMessage("\\n<Sylph>Hey Luka! Come play with me♪")
ShowMessageFace("",0,0,2,2)
ShowMessage("\\n<Luka>Ok, but what are we going to do?")
ShowMessageFace("sylph_fc1",3,0,2,3)
ShowMessage("\\n<Sylph>Ehehe... It's a fun game~♪")
ShowMessageFace("",0,0,2,4)
ShowMessage("While giggling, Sylph slips into my underwear.")
ShowMessage("Her hair and smooth skin tickles me as she flies past my thigh to my groin.")
ShowMessageFace("",0,0,2,5)
ShowMessage("\\n<Luka>Wah! What are you doing!?")
ShowMessageFace("sylph_fc1",3,0,2,6)
ShowMessage("\\n<Sylph>I decided to make your penis my new toy♪")
PictureDisplay(5,"ev_sylph_h1",0,0,0,0,100,100,255,0)
241(bytes(0x04,0x08,0x6f,0x3a,0x0d,0x52,0x50,0x47,0x3a,0x3a,0x42,0x47,0x4d,0x08,0x3a,0x0a,0x40,0x6e,0x61,0x6d,0x65,0x49,0x22,0x09,0x65,0x72,0x6f,0x31,0x06,0x3a,0x06,0x45,0x54,0x3a,0x0c,0x40,0x76,0x6f,0x6c,0x75,0x6d,0x65,0x69,0x69,0x3a,0x0b,0x40,0x70,0x69,0x74,0x63,0x68,0x69,0x69))
245(bytes(0x04,0x08,0x6f,0x3a,0x0d,0x52,0x50,0x47,0x3a,0x3a,0x42,0x47,0x53,0x08,0x3a,0x0a,0x40,0x6e,0x61,0x6d,0x65,0x49,0x22,0x1e,0x6d,0x6f,0x6e,0x5f,0x68,0x73,0x65,0x61,0x6e,0x30,0x31,0x5f,0x69,0x6e,0x6e,0x65,0x72,0x77,0x6f,0x72,0x6b,0x73,0x5f,0x61,0x31,0x06,0x3a,0x06,0x45,0x54,0x3a,0x0c,0x40,0x76,0x6f,0x6c,0x75,0x6d,0x65,0x69,0x55,0x3a,0x0b,0x40,0x70,0x69,0x74,0x63,0x68,0x69,0x69))
ShowMessageFace("",0,0,2,7)
ShowMessage("Sylph's tiny body clings to my penis.")
ShowMessage("My body instinctively trembles at the sudden stimulation.")
ShowMessageFace("",0,0,2,8)
ShowMessage("\\n<Luka>D-don't do that!")
ShowMessageFace("sylph_fc1",1,0,2,9)
ShowMessage("\\n<Sylph>Ehehe... I'll make you feel good♪")
ShowMessageFace("",0,0,2,10)
ShowMessage("Sylph starts to tightly hug my penis.")
ShowMessage("She gradually increases the power as she clings tighter and tighter.")
ShowMessageFace("",0,0,2,11)
ShowMessage("Sylph's soft, warm body presses into my penis.")
ShowMessageFace("",0,0,2,12)
ShowMessage("With her tiny body hugging me so tightly, I can feel every part of her touching my penis.")
ShowMessageFace("",0,0,2,13)
ShowMessage("\\n<Luka>Agh, aaah...")
ShowMessageFace("sylph_fc1",1,0,2,14)
ShowMessage("\\n<Sylph>Haha... Did that feel good? ♪\nDon't worry, I can make it even better♪")
ShowMessageFace("",0,0,2,15)
ShowMessage("While still tightly clinging to my penis, Sylph starts to slowly move her body.")
ShowMessage("With every movement she makes, her hair tickles my scrotum and thigh.")
ShowMessageFace("",0,0,2,16)
ShowMessage("Pre-come starts to leak out as the pleasure from the gentle tickling mixes with her body stroking my penis.")
ShowMessageFace("sylph_fc1",1,0,2,17)
ShowMessage("\\n<Sylph>Hehehe... You started to leak♪")
ShowMessageFace("",0,0,2,18)
ShowMessage("Sylph reaches to the tip of my penis and scoops up the pre-come with her small hand.")
ShowMessage("She takes it and starts to rub it all over my penis.")
ShowMessageFace("",0,0,2,19)
ShowMessage("With her sticky hand stroking me all over, I let out a pleasure-filled sigh.")
ShowMessageFace("",0,0,2,20)
ShowMessage("\\n<Luka>Aaaaah... That feels good...")
ShowMessageFace("sylph_fc1",1,0,2,21)
ShowMessage("\\n<Sylph>Hehehe... Your penis is twitching♪\n Well... Shall I make you come now? ♪")
ShowMessageFace("",0,0,2,22)
ShowMessage("\\n<Luka>Don't... do that...")
ShowMessageFace("sylph_fc1",1,0,2,23)
ShowMessage("\\n<Sylph>Even if you don't want to, I'm still going to force you to come♪\n I know how to force you to ejaculate♪")
ShowMessageFace("",0,0,2,24)
ShowMessage("Sylph wraps her arms and locks both of her feet around my penis, and starts to slowly tighten around me.")
ShowMessageFace("",0,0,2,25)
ShowMessage("At the same time, she presses her face into the back muscle.")
ShowMessageFace("",0,0,2,26)
ShowMessage("Tightly holding me like that, she sticks out her tongue and starts to lick up and down.")
ShowMessageFace("",0,0,2,27)
ShowMessage("\\n<Luka>Ah, aaaah...!")
ShowMessageFace("sylph_fc1",1,0,2,28)
ShowMessage("\\n<Sylph>Ehehe...If I do this, you can't endure it can you?")
ShowMessageFace("sylph_fc1",1,0,2,29)
ShowMessage("\\n<Sylph>Stop being so stubborn...\nJust let it out! ♪")
ShowMessageFace("",0,0,2,30)
ShowMessage("Sylph puts power into her arms and squeezes the top of my penis.")
ShowMessage("Like that, she starts to move her arms and legs up and down.")
ShowMessageFace("",0,0,2,31)
ShowMessage("Using her entire body to stroke me, her movements are forcing me closer to an orgasm.")
ShowMessageFace("sylph_fc1",1,0,2,32)
ShowMessage("\\n<Sylph>Ready? Horahorahora! ♪")
ShowMessageFace("",0,0,2,33)
ShowMessage("\\n<Luka>Aaaaaah!!")
ShowMessageFace("",0,0,2,34)
ShowMessage("The overpowering stimulation from her playing with me forces me over the edge.")
RunCommonEvent(104)
PictureDisplay(5,"ev_sylph_h2",0,0,0,0,100,100,255,0)
RunCommonEvent(105)
246(1)
ShowMessageFace("sylph_fc1",1,0,2,35)
ShowMessage("\\n<Sylph>Hya!!")
ShowMessageFace("",0,0,2,36)
ShowMessage("Still in my underwear, all of my semen shoots out over Sylph.")
PictureDisplay(5,"ev_sylph_h3",0,0,0,0,100,100,255,0)
ShowMessageFace("",0,0,2,37)
ShowMessage("Once my ejaculation ends, Sylph is completely covered in my semen.")
ShowMessageFace("sylph_fc1",1,0,2,38)
ShowMessage("\\n<Sylph>Well, you felt good.\n Let's play together again! ♪")
ShowMessageFace("",0,0,2,39)
ShowMessage("\\n<Luka>......")
ShowMessageFace("",0,0,2,40)
ShowMessage("Sylph's 'game' seemed more like a prank to me.")
ShowMessage("Next time, I'll try to avoid Sylph and her 'fun'.")
221()
PictureClear(5)
ShowMessageFace("",0,0,2,41)
ShowMessage("......")
242(2)
Wait(120)
241(bytes(0x04,0x08,0x6f,0x3a,0x0d,0x52,0x50,0x47,0x3a,0x3a,0x42,0x47,0x4d,0x08,0x3a,0x0a,0x40,0x6e,0x61,0x6d,0x65,0x49,0x22,0x0c,0x63,0x61,0x73,0x74,0x6c,0x65,0x36,0x06,0x3a,0x06,0x45,0x54,0x3a,0x0c,0x40,0x76,0x6f,0x6c,0x75,0x6d,0x65,0x69,0x69,0x3a,0x0b,0x40,0x70,0x69,0x74,0x63,0x68,0x69,0x69))
0()
