// EVENT 4151
Name "Phoenix Girl 1"

If(0,25,1)
 221()
 PictureClear(5)
 PictureClear(6)
 ShowMessageFace("",0,0,2,0)
 ShowMessage("......")
 242(2)
 Wait(120)
 241(bytes(0x04,0x08,0x6f,0x3a,0x0d,0x52,0x50,0x47,0x3a,0x3a,0x42,0x47,0x4d,0x08,0x3a,0x0a,0x40,0x6e,0x61,0x6d,0x65,0x49,0x22,0x0c,0x63,0x61,0x73,0x74,0x6c,0x65,0x36,0x06,0x3a,0x06,0x45,0x54,0x3a,0x0c,0x40,0x76,0x6f,0x6c,0x75,0x6d,0x65,0x69,0x69,0x3a,0x0b,0x40,0x70,0x69,0x74,0x63,0x68,0x69,0x69))
 EndEventProcessing()
 0()
EndIf()
PictureDisplay(5,"80_phoenix_st04",0,0,0,0,100,100,255,0)
ShowMessageFace("phoenix_fc1",3,0,2,1)
ShowMessage("\\n<Mini>What? You want me to lick your penis?")
ShowMessageFace("",0,0,2,2)
ShowMessage("\\n<Luka>Y-yeah...")
PictureDisplay(5,"80_phoenix_st02",0,0,0,0,100,100,255,0)
ShowMessageFace("phoenix_fc1",1,0,2,3)
ShowMessage("\\n<Mini>All right! I'd love to lick your penis!\nI've always wanted to drink semen right from the penis!")
ShowMessageFace("",0,0,2,4)
ShowMessage("Mini scrambles to unzip my pants, happy and laughing.")
241(bytes(0x04,0x08,0x6f,0x3a,0x0d,0x52,0x50,0x47,0x3a,0x3a,0x42,0x47,0x4d,0x08,0x3a,0x0a,0x40,0x6e,0x61,0x6d,0x65,0x49,0x22,0x09,0x65,0x72,0x6f,0x31,0x06,0x3a,0x06,0x45,0x54,0x3a,0x0c,0x40,0x76,0x6f,0x6c,0x75,0x6d,0x65,0x69,0x69,0x3a,0x0b,0x40,0x70,0x69,0x74,0x63,0x68,0x69,0x69))
PictureDisplay(5,"ev_phoenix_ha1",0,0,0,0,100,100,0,0)
PictureMove(5,null,0,0,0,0,100,100,255,0,30,true)
ShowMessageFace("",0,0,2,5)
ShowMessage("She exposes my already erect penis.")
ShowMessage("Mini smiles in pure joy as she looks at my cock.")
ShowMessageFace("phoenix_fc1",1,0,2,6)
ShowMessage("\\n<Mini>Your penis looks so tasty!\nDid it get so big because it wanted me to lick it?")
PictureDisplay(5,"ev_phoenix_ha2",0,0,0,0,100,100,255,0)
ShowMessageFace("phoenix_fc1",1,0,2,7)
ShowMessage("\\n<Mini>Nnn... *Kiss*")
ShowMessageFace("",0,0,2,8)
ShowMessage("Mini brings the tip of my penis close to her mouth, and kisses it.")
ShowMessage("As she kisses it, her eyes narrow in satisfaction.")
ShowMessageFace("",0,0,2,9)
ShowMessage("\\n<Luka>Ah, unnngh...")
ShowMessageFace("",0,0,2,10)
ShowMessage("Her small lips get wet with her saliva, causing me to moan as she presses them against me.")
ShowMessageFace("phoenix_fc1",1,0,2,11)
ShowMessage("\\n<Mini>You're already moaning...\nDoes my mouth really feel that good?")
ShowMessageFace("phoenix_fc1",1,0,2,12)
ShowMessage("\\n<Mini>Nnn... *Kiss*")
ShowMessageFace("",0,0,2,13)
ShowMessage("Mini looks happy as her sweet kisses continue.")
ShowMessage("Every so often, she'll lightly suck on my tip as she kisses.")
ShowMessageFace("",0,0,2,14)
ShowMessage("At the same time, her lips rub against my back muscle.")
ShowMessage("In contact with my most sensitive parts, it feels too good to resist.")
ShowMessageFace("",0,0,2,15)
ShowMessage("\\n<Luka>Unnngh...")
ShowMessageFace("",0,0,2,16)
ShowMessage("This innocent young girl's pure joy at kissing my penis...")
ShowMessage("I feel a numbing sensation rise up through my body as I watch her.")
ShowMessageFace("",0,0,2,17)
ShowMessage("\\n<Luka>Ah... Coming...! Watch out!")
ShowMessageFace("phoenix_fc1",3,0,2,18)
ShowMessage("\\n<Mini>Nnnn...? I'm still kissing it...")
RunCommonEvent(104)
PictureDisplay(5,"ev_phoenix_ha3",0,0,0,0,100,100,255,0)
RunCommonEvent(105)
ShowMessageFace("",0,0,2,19)
ShowMessage("\\n<Luka>Aaaaah...")
ShowMessageFace("phoenix_fc1",3,0,2,20)
ShowMessage("\\n<Mini>Nnnn...! Mmmggg!")
ShowMessageFace("",0,0,2,21)
ShowMessage("My semen erupts into Mini's surprised face.")
ShowMessage("Feeling too good, I came almost on accident on her.")
ShowMessageFace("phoenix_fc1",3,0,2,22)
ShowMessage("\\n<Mini>Nnnn... *Suck*")
ShowMessageFace("",0,0,2,23)
ShowMessage("With her eyes getting wider, Mini doesn't part from my glans.")
ShowMessage("Sucking right from my urethral opening, she's trying her hardest to swallow my semen.")
ShowMessageFace("",0,0,2,24)
ShowMessage("\\n<Luka>Unnngh...")
ShowMessageFace("",0,0,2,25)
ShowMessage("Feeling my tip sucked on as I come... It's almost like my soul itself is being sucked out.")
PictureDisplay(5,"ev_phoenix_ha4",0,0,0,0,100,100,255,0)
ShowMessageFace("phoenix_fc1",0,0,2,26)
ShowMessage("\\n<Mini>...Whew. That was delicious.")
ShowMessageFace("",0,0,2,27)
ShowMessage("Mini finally parts from my tip with a satisfied laugh.")
ShowMessage("But her mouth is still covered in my semen...")
ShowMessageFace("phoenix_fc1",0,0,2,28)
ShowMessage("\\n<Mini>Coming just from being kissed a little bit...\nThat was a little surprising...♪")
ShowMessageFace("",0,0,2,29)
ShowMessage("\\n<Luka>S-Sorry...")
ShowMessageFace("",0,0,2,30)
ShowMessage("I apologize to her, feeling slightly miserable.")
ShowMessage("Coming so fast, with her only just lightly kissing me...")
245(bytes(0x04,0x08,0x6f,0x3a,0x0d,0x52,0x50,0x47,0x3a,0x3a,0x42,0x47,0x53,0x08,0x3a,0x0a,0x40,0x6e,0x61,0x6d,0x65,0x49,0x22,0x10,0x6d,0x6f,0x6e,0x5f,0x68,0x76,0x6f,0x69,0x63,0x65,0x31,0x06,0x3a,0x06,0x45,0x54,0x3a,0x0c,0x40,0x76,0x6f,0x6c,0x75,0x6d,0x65,0x69,0x55,0x3a,0x0b,0x40,0x70,0x69,0x74,0x63,0x68,0x69,0x69))
PictureDisplay(5,"ev_phoenix_ha5",0,0,0,0,100,100,255,0)
ShowMessageFace("phoenix_fc1",1,0,2,31)
ShowMessage("\\n<Mini>This weak penis just needs to come more!♪\nNnnn... *Lick* *Lick*♪")
ShowMessageFace("",0,0,2,32)
ShowMessage("\\n<Luka>Ah...! Auu!")
ShowMessageFace("",0,0,2,33)
ShowMessage("Without warning, Mini starts to lick my penis!")
ShowMessage("Her fast moving tongue crawls all over my glans.")
ShowMessageFace("phoenix_fc1",1,0,2,34)
ShowMessage("\\n<Mini>*Lick* *Lick*\nYour tip is your weak point, isn't it? *Lick*")
ShowMessageFace("",0,0,2,35)
ShowMessage("\\n<Luka>Nnngh... Ah, aaaah...!!")
ShowMessageFace("",0,0,2,36)
ShowMessage("Knowing seemingly on instinct, Mini's tongue runs all over my most sensitive spots.")
ShowMessage("Her small warm tongue runs over my urethral opening, down my back muscle, and around the neck of my penis.")
ShowMessageFace("",0,0,2,37)
ShowMessage("My entire glans is weak to her intense licking.")
ShowMessageFace("phoenix_fc1",1,0,2,38)
ShowMessage("\\n<Mini>*Lick*\n*Lick* *Lick*")
ShowMessageFace("",0,0,2,39)
ShowMessage("\\n<Luka>Ah, Auuu... Hnngghh...!")
ShowMessageFace("",0,0,2,40)
ShowMessage("My tip is covered in her saliva as she licks me.")
ShowMessage("Her rough tongue runs all over my sensitive tip...")
ShowMessageFace("",0,0,2,41)
ShowMessage("A tingling feeling slowly moves through my lower body.")
ShowMessage("My body trembles as the gentle numbness fills more and more of me.")
ShowMessageFace("",0,0,2,42)
ShowMessage("\\n<Luka>Nnngh...I'm coming already...!")
ShowMessageFace("phoenix_fc1",1,0,2,43)
ShowMessage("\\n<Mini>Then go ahead...♪\n*Lick* *Lick*")
ShowMessageFace("",0,0,2,44)
ShowMessage("Mini's eyes shine as she continues licking me.")
ShowMessage("A sweet ache runs from my penis right to my brain.")
ShowMessageFace("",0,0,2,45)
ShowMessage("\\n<Luka>Ah, aaaah...!")
RunCommonEvent(104)
PictureDisplay(5,"ev_phoenix_ha6",0,0,0,0,100,100,255,0)
RunCommonEvent(105)
ShowMessageFace("",0,0,2,46)
ShowMessage("My semen explodes onto her face again.")
ShowMessage("Despite my orgasm, Mini's tongue keeps rapidly licking me.")
ShowMessageFace("phoenix_fc1",1,0,2,47)
ShowMessage("\\n<Mini>*Lick* *Lick*")
ShowMessageFace("",0,0,2,48)
ShowMessage("\\n<Luka>Hyaaa...!\nI'm coming, so stop licking!")
ShowMessageFace("",0,0,2,49)
ShowMessage("Every time my penis pulses, Mini's tongue licks my glans, lapping it up.")
ShowMessageFace("",0,0,2,50)
ShowMessage("Each spurt of semen is eagerly licked up by Mini.")
ShowMessage("The feeling of her tongue brings about an agonized pleasure.")
ShowMessageFace("phoenix_fc1",1,0,2,51)
ShowMessage("\\n<Mini>*Lick* *Lick*")
ShowMessageFace("",0,0,2,52)
ShowMessage("Even though my waist is bucking like crazy, Mini easily keeps up.")
ShowMessage("She continues licking my glans, as if still trying to make me come.")
ShowMessageFace("",0,0,2,53)
ShowMessage("\\n<Luka>Hnnngh...! Ah, aiyeee...!!")
ShowMessageFace("",0,0,2,54)
ShowMessage("She's relentlessly licking me clean, even during my orgasm.")
ShowMessage("My body trembles at the unending pleasure.")
ShowMessageFace("",0,0,2,55)
ShowMessage("Unexpectedly, I feel another tingling rise through me.")
ShowMessage("At the same time, my penis pulses even more.")
RunCommonEvent(104)
PictureDisplay(5,"ev_phoenix_ha7",0,0,0,0,100,100,255,0)
RunCommonEvent(105)
ShowMessageFace("",0,0,2,56)
ShowMessage("\\n<Luka>Hyaaa...!!")
ShowMessageFace("",0,0,2,57)
ShowMessage("Exposed to her torturous tongue, I come for a second time in a row.")
ShowMessage("My body tenses up at the forced orgasm.")
ShowMessageFace("phoenix_fc1",1,0,2,58)
ShowMessage("\\n<Mini>You leaked again...\n*Lick* *Lick*")
ShowMessageFace("",0,0,2,59)
ShowMessage("With shining eyes, Mini eagerly licks up the semen.")
ShowMessage("It's almost like my penis is a faucet, feeding her.")
ShowMessageFace("",0,0,2,60)
ShowMessage("\\n<Luka>Ah, aaaah...!!")
ShowMessageFace("phoenix_fc1",1,0,2,61)
ShowMessage("\\n<Mini>This is delicious...\n*Suck* *Lick*")
ShowMessageFace("",0,0,2,62)
ShowMessage("She licks my overflowing semen to the last drop.")
ShowMessage("I feel a hell of licking pleasure before she's done...")
ShowMessageFace("",0,0,2,63)
ShowMessage("Then...")
246(2)
ShowMessageFace("phoenix_fc1",1,0,2,64)
ShowMessage("\\n<Mini>I'm satisfied♪\nI'll lick you again soon♪")
ShowMessageFace("",0,0,2,65)
ShowMessage("By the time all of my semen was licked up, I was left too weak to move.")
ShowMessage("Mini looks down at me with a satisfied face.")
ShowMessageFace("",0,0,2,66)
ShowMessage("\\n<Luka>......")
ShowMessageFace("",0,0,2,67)
ShowMessage("I feel like my penis was abused...")
ShowMessage("Crawling, I barely manage to leave the room.")
221()
PictureClear(5)
PictureClear(6)
ShowMessageFace("",0,0,2,68)
ShowMessage("......")
242(2)
Wait(120)
241(bytes(0x04,0x08,0x6f,0x3a,0x0d,0x52,0x50,0x47,0x3a,0x3a,0x42,0x47,0x4d,0x08,0x3a,0x0a,0x40,0x6e,0x61,0x6d,0x65,0x49,0x22,0x0c,0x63,0x61,0x73,0x74,0x6c,0x65,0x36,0x06,0x3a,0x06,0x45,0x54,0x3a,0x0c,0x40,0x76,0x6f,0x6c,0x75,0x6d,0x65,0x69,0x69,0x3a,0x0b,0x40,0x70,0x69,0x74,0x63,0x68,0x69,0x69))
0()
