// EVENT 5657
Name "Fernandez 2"

PictureDisplay(5,"80_cirqueb_st01",0,0,0,0,100,100,255,0)
ShowMessageFace("cirqueb_fc1",0,0,2,1)
ShowMessage("\\n<Fernandez>")
ShowMessage("You want to use my female genitalia...?")
ShowMessageFace("",0,0,2,2)
ShowMessage("\\n<Luka>Y-Yes... Please...")
ShowMessageFace("cirqueb_fc1",0,0,2,3)
ShowMessage("\\n<Fernandez>")
ShowMessage("I don't really mind. I'll finish you off quickly.")
ShowMessageFace("",0,0,2,4)
ShowMessage("I follow her to their room...")
221()
PictureDisplay(1,"bg195",0,0,0,0,100,100,255,0)
PictureDisplay(5,"ev_cirque_ha02",0,0,0,0,100,100,255,0)
222()
241(bytes(0x04,0x08,0x6f,0x3a,0x0d,0x52,0x50,0x47,0x3a,0x3a,0x42,0x47,0x4d,0x08,0x3a,0x0a,0x40,0x6e,0x61,0x6d,0x65,0x49,0x22,0x09,0x65,0x72,0x6f,0x31,0x06,0x3a,0x06,0x45,0x54,0x3a,0x0c,0x40,0x76,0x6f,0x6c,0x75,0x6d,0x65,0x69,0x69,0x3a,0x0b,0x40,0x70,0x69,0x74,0x63,0x68,0x69,0x69))
ShowMessageFace("cirqueb_fc1",0,0,2,5)
ShowMessage("\\n<Fernandez>")
ShowMessage("I want to finish this fast, so hurry up and stick it in.")
ShowMessage("Or would you rather I rode you instead?")
ShowMessageFace("",0,0,2,6)
ShowMessage("\\n<Luka>Err, with you on top...")
ShowMessageFace("cirqueb_fc1",0,0,2,7)
ShowMessage("\\n<Fernandez>")
ShowMessage("You want to be violated? Pervert...")
PictureDisplay(5,"ev_cirque_ha07",0,0,0,0,100,100,255,0)
ShowMessageFace("",0,0,2,8)
ShowMessage("Fernandez puts her ass on me.")
ShowMessage("Her soft, cold body comes in close contact with my own.")
ShowMessageFace("",0,0,2,9)
ShowMessage("As her vagina presses against me, I quickly get hard.")
ShowMessage("Her wet vagina is exposed in front of my eyes...")
ShowMessageFace("",0,0,2,10)
ShowMessage("My penis is going inside of her soon...")
ShowMessageFace("cirqueb_fc1",0,0,2,11)
ShowMessage("\\n<Fernandez>")
ShowMessage("It's unusual to want to stick your dick inside a zombie.")
ShowMessage("But I'll put it in since you desire it.")
ShowMessageFace("",0,0,2,12)
ShowMessage("With that, Fernandez leads me into her...")
ShowMessageFace("",0,0,2,13)
ShowMessage("\\n<Luka>A-Ahhh...")
245(bytes(0x04,0x08,0x6f,0x3a,0x0d,0x52,0x50,0x47,0x3a,0x3a,0x42,0x47,0x53,0x08,0x3a,0x0a,0x40,0x6e,0x61,0x6d,0x65,0x49,0x22,0x1e,0x6d,0x6f,0x6e,0x5f,0x68,0x73,0x65,0x61,0x6e,0x30,0x31,0x5f,0x69,0x6e,0x6e,0x65,0x72,0x77,0x6f,0x72,0x6b,0x73,0x5f,0x61,0x31,0x06,0x3a,0x06,0x45,0x54,0x3a,0x0c,0x40,0x76,0x6f,0x6c,0x75,0x6d,0x65,0x69,0x55,0x3a,0x0b,0x40,0x70,0x69,0x74,0x63,0x68,0x69,0x69))
PictureDisplay(5,"ev_cirque_ha08",0,0,0,0,100,100,255,0)
ShowMessageFace("",0,0,2,14)
ShowMessage("I slip into her.")
ShowMessage("As her ass presses harder into my body, my penis sinks deep into her vagina.")
ShowMessageFace("cirqueb_fc1",0,0,2,15)
ShowMessage("\\n<Fernandez>")
ShowMessage("How do I feel?")
ShowMessage("It might be a little cold...")
ShowMessageFace("",0,0,2,16)
ShowMessage("\\n<Luka>Ah... Hauu...")
ShowMessageFace("",0,0,2,17)
ShowMessage("Her vagina is soft, but quite cold.")
ShowMessage("But her fluids are slowly filling her up, reducing the friction.")
ShowMessageFace("",0,0,2,18)
ShowMessage("She isn't extremely tight, but her soft flesh feels amazing.")
ShowMessage("The thought of having sex with a zombie makes everything even more stimulating...")
ShowMessageFace("",0,0,2,19)
ShowMessage("\\n<Luka>You're cold, but soft...")
ShowMessage("Ahhh... And sticky...")
ShowMessageFace("cirqueb_fc1",0,0,2,20)
ShowMessage("\\n<Fernandez>")
ShowMessage("My zombie vagina still feels good, then?")
ShowMessage("I'm sure you know, but I can't get pregnant even if you come inside me.")
ShowMessageFace("",0,0,2,21)
ShowMessage("\\n<Luka>Hauu... This feels good...")
ShowMessageFace("",0,0,2,22)
ShowMessage("Her wet flesh grabs hold of me.")
ShowMessage("Surrounded by that slimy feeling, I feel entranced.")
ShowMessageFace("",0,0,2,23)
ShowMessage("\\n<Luka>Auu... I'm going to come already!")
ShowMessageFace("",0,0,2,24)
ShowMessage("Suddenly, I feel a desire to climax rise in me.")
ShowMessage("The sweet paralysis fills me as I give into it.")
ShowMessageFace("",0,0,2,25)
ShowMessage("My penis pulses in her zombie vagina.")
ShowMessage("I entrust myself over to that soft pleasure.")
ShowMessageFace("",0,0,2,26)
ShowMessage("\\n<Luka>A-Ahhh...!")
RunCommonEvent(104)
PictureDisplay(5,"ev_cirque_ha09",0,0,0,0,100,100,255,0)
RunCommonEvent(105)
246(2)
ShowMessageFace("",0,0,2,27)
ShowMessage("A huge amount of semen gushes into Fernandez's vagina.")
ShowMessage("Into a woman whose body has already ceased living...")
ShowMessageFace("cirqueb_fc1",0,0,2,28)
ShowMessage("\\n<Fernandez>")
ShowMessage("...Already?")
ShowMessage("You're fast, that's good.")
ShowMessageFace("",0,0,2,29)
ShowMessage("\\n<Luka>Hauu...")
ShowMessageFace("",0,0,2,30)
ShowMessage("I came so quickly.")
ShowMessage("The thought of having sex with a corpse makes it all so much more immoral.")
ShowMessageFace("",0,0,2,31)
ShowMessage("With Fernandez on top of me, I go limp.")
ShowMessage("Our short fellowship was over so quickly...")
221()
PictureClear(5)
PictureClear(6)
ShowMessageFace("",0,0,2,32)
ShowMessage("......")
RunCommonEvent(3998)
0()
