﻿// EVENT 0625
Name "Event: Warp 10 Floors"

ChangeSwitch(73,73,0)
If(1,123,0,9,2)
 ShowMessageFace("neris_fc1",0,0,2,1)
 ShowMessage("\\n<Neris>Hey Luka, I want an allowance♪\nGive me 1,000G and, as your reward, I'll send you up 10 floors♪")
 ShowChoices(strings("Be sent 10 floors forward","Stay where we are"),2)
 IfPlayerPicksChoice(0,"10階先まで送ってもらう")
  125(1,0,1000)
  ShowMessageFace("neris_fc1",0,0,2,2)
  ShowMessage("\\n<Neris>Then here we go♪ Eiiiii!!")
  ChangeVariable(121,121,1,0,9)
  RunCommonEvent(901)
  ChangeSwitch(73,73,1)
  EndEventProcessing()
  0()
 IfPlayerPicksChoice(1,"遠慮しておく")
  ShowMessageFace("neris_fc1",2,0,2,3)
 ShowMessage("\\n<Neris>But what about my allowance...")
  ChangeSwitch(73,73,1)
  EndEventProcessing()
  0()
 404()
 0()
Else()
 If(1,129,0,0,0)
  ShowMessageFace("neris_fc1",0,0,2,4)
  ShowMessage("\\n<Neris>Hey Luka, I want an allowance♪\nGive me 1,000G and I'll give you this equipment I picked up earlier♪")
  ShowChoices(strings("Take the equipment","Decline"),2)
  IfPlayerPicksChoice(0,null)
   ChangeVariable(129,129,0,0,1)
   125(1,0,1000)
   ShowMessageFace("neris_fc1",0,0,2,5)
   ShowMessage("\\n<Neris>Okay, here you go♪")
   RunCommonEvent(824)
   ShowMessageFace("neris_fc1",0,0,2,6)
   ShowMessage("\\n<Neris>Be careful out there♪")
   ChangeSwitch(73,73,1)
   EndEventProcessing()
   0()
  IfPlayerPicksChoice(1,null)
   ShowMessageFace("neris_fc1",2,0,2,7)
   ShowMessage("\\n<Neris>But what about my allowance...")
   ChangeSwitch(73,73,1)
   EndEventProcessing()
   0()
  404()
  0()
 EndIf()
 If(1,129,0,1,0)
  ShowMessageFace("neris_fc1",0,0,2,8)
  ShowMessage("\\n<Neris>Be careful out there♪")
  ChangeSwitch(73,73,1)
  EndEventProcessing()
  0()
 EndIf()
 0()
EndIf()
0()
