﻿// EVENT 0123
Name "Stage 3"

355("ex_choice_add(\"Mandragora's Song\",1,")
655("\"s[1059]\",1)")
655("ex_choice_add(\"Drunken Sheep\",2,")
655("\"s[1074] and s[1075]\",1)")
655("ex_choice_add(\"Spirit Humor\",3,")
655("\"s[1012] and s[1013]\",1)")
655("ex_choice_add(\"Sound of Silence\",4,")
655("\"s[1013] and s[1079]\",1)")
655("ex_choice_add(\"Amira's Life Consultation\",5,")
655("\"s[1066] and s[1540]\",1)")
355("ex_choice_add(\"Tiny Bandit Show\",6,")
655("\"s[1062] and s[1064] and s[1066] and ")
655("s[1068] and s[1072]\",1)")
655("ex_choice_add(\"Scale Bandit Recruitment\",7,")
655("\"s[1169] and s[1170] and s[1171]\",1)")
655("ex_choice_add(\"Bubble Bath\",8,")
655("\"s[1076] and s[1098] and s[1109]\",1)")
655("ex_choice_add(\"Halloween!\",9,")
655("\"s[1088] and s[1130] and s[1160]\",1)")
655("ex_choice_add(\"Thriller\",10,")
655("\"s[1133]\",1)")
655("ex_choice_add(\"Cancel\",11)")
355("ex_choice_show(0,11,[0,0])")
If(1,9,0,1,0)
 ChangeSwitch(621,621,0)
 221()
 242(1)
 Wait(60)
 211(0)
 TeleportPlayer(0,640,0,1,0,2)
 222()
 EndEventProcessing()
 0()
EndIf()
If(1,9,0,2,0)
 ChangeSwitch(622,622,0)
 221()
 242(1)
 Wait(60)
 211(0)
 TeleportPlayer(0,640,0,1,0,2)
 222()
 EndEventProcessing()
 0()
EndIf()
If(1,9,0,3,0)
 ChangeSwitch(623,623,0)
 221()
 242(1)
 Wait(60)
 211(0)
 TeleportPlayer(0,640,0,1,0,2)
 222()
 EndEventProcessing()
 0()
EndIf()
If(1,9,0,4,0)
 ChangeSwitch(624,624,0)
 221()
 242(1)
 Wait(60)
 211(0)
 TeleportPlayer(0,640,0,1,0,2)
 222()
 EndEventProcessing()
 0()
EndIf()
If(1,9,0,5,0)
 ChangeSwitch(625,625,0)
 221()
 242(1)
 Wait(60)
 211(0)
 TeleportPlayer(0,640,0,1,0,2)
 222()
 EndEventProcessing()
 0()
EndIf()
If(1,9,0,6,0)
 ChangeSwitch(626,626,0)
 221()
 242(1)
 Wait(60)
 211(0)
 TeleportPlayer(0,640,0,1,0,2)
 222()
 EndEventProcessing()
 0()
EndIf()
If(1,9,0,7,0)
 ChangeSwitch(627,627,0)
 221()
 242(1)
 Wait(60)
 211(0)
 TeleportPlayer(0,640,0,1,0,2)
 222()
 EndEventProcessing()
 0()
EndIf()
If(1,9,0,8,0)
 ChangeSwitch(628,628,0)
 221()
 242(1)
 Wait(60)
 211(0)
 TeleportPlayer(0,640,0,1,0,2)
 222()
 EndEventProcessing()
 0()
EndIf()
If(1,9,0,9,0)
 ChangeSwitch(629,629,0)
 221()
 242(1)
 Wait(60)
 211(0)
 TeleportPlayer(0,640,0,1,0,2)
 222()
 EndEventProcessing()
 0()
EndIf()
If(1,9,0,10,0)
 ChangeSwitch(630,630,0)
 221()
 242(1)
 Wait(60)
 211(0)
 TeleportPlayer(0,640,0,1,0,2)
 222()
 EndEventProcessing()
 0()
EndIf()
0()
