﻿// EVENT 2262
Name "Seduction: Beelzebub A"

355("$game_troop.lose_event_id = 3262")
ChangeVariable(26,26,0,3,3,1,4)
ChangeVariable(26,26,4,0,10)
ShowMessageFace("beelzebub_fc1",0,0,2,1)
ShowMessage("\\n<Beelzebub>You're a very strong man...\nBut can you escape from a monster fly's embrace?")
250(bytes(0x04,0x08,0x6f,0x3a,0x0c,0x52,0x50,0x47,0x3a,0x3a,0x53,0x45,0x08,0x3a,0x0a,0x40,0x6e,0x61,0x6d,0x65,0x49,0x22,0x16,0x6d,0x6f,0x6e,0x5f,0x65,0x72,0x6f,0x5f,0x6d,0x61,0x6b,0x69,0x74,0x75,0x6b,0x69,0x32,0x06,0x3a,0x06,0x45,0x54,0x3a,0x0b,0x40,0x70,0x69,0x74,0x63,0x68,0x69,0x69,0x3a,0x0c,0x40,0x76,0x6f,0x6c,0x75,0x6d,0x65,0x69,0x69))
355("battler_graphic_hide")
PictureDisplay(5,"ev_beelzebub_h01",0,0,0,0,100,100,255,0)
ShowMessageFace("",0,0,2,2)
ShowMessage("Beelzebub A's abdomen wraps around Luka's body!\nLuka's body is being tightly embraced in Beelzebub A's abdomen!")
ShowMessageFace("beelzebub_fc1",0,0,2,3)
ShowMessage("\\n<Beelzebub>Aren't my breasts soft and comfortable...?\nLike this, I'll have you writhing in pleasure...")
ChangeSwitch(98,98,0)
ChangeSwitch(96,96,0)
ShowChoices(strings("Struggle","Let her continue"),1)
IfPlayerPicksChoice(0,null)
 ShowMessageFace("",0,0,2,4)
 ShowMessage("Luka struggles violently, and escapes from the Beelzebub's restraint!")
 RunCommonEvent(1999)
 EndEventProcessing()
 0()
IfPlayerPicksChoice(1,null)
 0()
404()
ShowMessageFace("beelzebub_fc1",0,0,2,5)
ShowMessage("\\n<Beelzebub>Enjoy being buried in my breasts...")
ChangeVariable(26,26,3,0,2)
250(bytes(0x04,0x08,0x6f,0x3a,0x0c,0x52,0x50,0x47,0x3a,0x3a,0x53,0x45,0x08,0x3a,0x0a,0x40,0x6e,0x61,0x6d,0x65,0x49,0x22,0x12,0x6d,0x6f,0x6e,0x5f,0x65,0x72,0x6f,0x5f,0x6e,0x61,0x6d,0x65,0x32,0x06,0x3a,0x06,0x45,0x54,0x3a,0x0b,0x40,0x70,0x69,0x74,0x63,0x68,0x69,0x69,0x3a,0x0c,0x40,0x76,0x6f,0x6c,0x75,0x6d,0x65,0x69,0x69))
311(0,1,1,1,26,true)
ShowMessageFace("",0,0,2,6)
ShowMessage("The Beelzebub's breasts press against Luka's entire body, their softness rubbing against him!\\D")
ShowMessage("Luka takes \\V[26] damage!")
ChangeVariable(27,27,0,3,3,1,2)
If(1,27,0,0,0)
 JumpToLabel("射精1")
 0()
EndIf()
ShowMessageFace("beelzebub_fc1",0,0,2,7)
ShowMessage("\\n<Beelzebub>Hooora, I'll play with your penis...")
250(bytes(0x04,0x08,0x6f,0x3a,0x0c,0x52,0x50,0x47,0x3a,0x3a,0x53,0x45,0x08,0x3a,0x0a,0x40,0x6e,0x61,0x6d,0x65,0x49,0x22,0x12,0x6d,0x6f,0x6e,0x5f,0x65,0x72,0x6f,0x5f,0x6e,0x61,0x6d,0x65,0x32,0x06,0x3a,0x06,0x45,0x54,0x3a,0x0b,0x40,0x70,0x69,0x74,0x63,0x68,0x69,0x69,0x3a,0x0c,0x40,0x76,0x6f,0x6c,0x75,0x6d,0x65,0x69,0x69))
311(0,1,1,1,26,true)
ShowMessageFace("",0,0,2,8)
ShowMessage("Luka's penis is slowly pressured as it is squeezed between the Beelzebub's breasts!\\D")
ShowMessage("Luka takes \\V[26] damage!")
ChangeVariable(27,27,0,3,3,1,2)
If(1,27,0,0,0)
 JumpToLabel("射精1")
 0()
EndIf()
ShowMessageFace("beelzebub_fc1",0,0,2,9)
ShowMessage("\\n<Beelzebub>Are you happy? Fufufu...")
250(bytes(0x04,0x08,0x6f,0x3a,0x0c,0x52,0x50,0x47,0x3a,0x3a,0x53,0x45,0x08,0x3a,0x0a,0x40,0x6e,0x61,0x6d,0x65,0x49,0x22,0x12,0x6d,0x6f,0x6e,0x5f,0x65,0x72,0x6f,0x5f,0x6e,0x61,0x6d,0x65,0x32,0x06,0x3a,0x06,0x45,0x54,0x3a,0x0b,0x40,0x70,0x69,0x74,0x63,0x68,0x69,0x69,0x3a,0x0c,0x40,0x76,0x6f,0x6c,0x75,0x6d,0x65,0x69,0x69))
311(0,1,1,1,26,true)
ShowMessageFace("",0,0,2,10)
ShowMessage("Luka is given soft warmth as his entire body is buried in the Beelzebub's breasts!\\D")
ShowMessage("Luka takes \\V[26] damage!")
ChangeVariable(27,27,0,3,3,1,2)
If(1,27,0,0,0)
 JumpToLabel("射精1")
 0()
EndIf()
ShowMessageFace("beelzebub_fc1",0,0,2,11)
ShowMessage("\\n<Beelzebub>I'll hug you tightly for just a little...")
250(bytes(0x04,0x08,0x6f,0x3a,0x0c,0x52,0x50,0x47,0x3a,0x3a,0x53,0x45,0x08,0x3a,0x0a,0x40,0x6e,0x61,0x6d,0x65,0x49,0x22,0x12,0x6d,0x6f,0x6e,0x5f,0x65,0x72,0x6f,0x5f,0x6e,0x61,0x6d,0x65,0x32,0x06,0x3a,0x06,0x45,0x54,0x3a,0x0b,0x40,0x70,0x69,0x74,0x63,0x68,0x69,0x69,0x3a,0x0c,0x40,0x76,0x6f,0x6c,0x75,0x6d,0x65,0x69,0x69))
311(0,1,1,1,26,true)
ShowMessageFace("",0,0,2,12)
ShowMessage("The Beelzebub's breasts tightly pressure Luka's entire body as he is wrapped between her abdomen!\\D")
ShowMessage("Luka takes \\V[26] damage!")
ChangeVariable(27,27,0,3,3,1,2)
If(1,27,0,0,0)
 JumpToLabel("射精1")
 0()
EndIf()
ShowMessageFace("beelzebub_fc1",0,0,2,13)
ShowMessage("\\n<Beelzebub>It's okay to shoot out your semen like this...")
ChangeVariable(26,26,3,0,2)
250(bytes(0x04,0x08,0x6f,0x3a,0x0c,0x52,0x50,0x47,0x3a,0x3a,0x53,0x45,0x08,0x3a,0x0a,0x40,0x6e,0x61,0x6d,0x65,0x49,0x22,0x12,0x6d,0x6f,0x6e,0x5f,0x65,0x72,0x6f,0x5f,0x6e,0x61,0x6d,0x65,0x32,0x06,0x3a,0x06,0x45,0x54,0x3a,0x0b,0x40,0x70,0x69,0x74,0x63,0x68,0x69,0x69,0x3a,0x0c,0x40,0x76,0x6f,0x6c,0x75,0x6d,0x65,0x69,0x69))
311(0,1,1,1,26,true)
ShowMessageFace("",0,0,2,14)
ShowMessage("The Beelzebub's breasts squirm as they sweetly wrap around Luka's penis!\\D")
ShowMessage("Luka takes \\V[26] damage!")
ChangeVariable(27,27,0,3,3,1,2)
If(1,27,0,0,0)
 JumpToLabel("射精1")
 0()
EndIf()
DefineLabel("射精1")
ShowMessageFace("",0,0,2,15)
ShowMessage("\\n<Luka>No, I'm coming... Aaaah...")
RunCommonEvent(104)
PictureDisplay(5,"ev_beelzebub_h02",0,0,0,0,100,100,255,0)
RunCommonEvent(105)
ShowMessageFace("",0,0,2,16)
ShowMessage("I come while tasting the pleasure of being played with between the breasts lining the Beelzebub's abdomen. My semen is absorbed by the breasts covering my penis.")
ShowMessageFace("beelzebub_fc1",0,0,2,17)
ShowMessage("\\n<Beelzebub>You leaked out a lot, fufu...")
RunCommonEvent(2000)
EndEventProcessing()
0()
