﻿// EVENT 5824
Name "Rクィーンヴァンパイア"

If(0,443,0)
 PictureDisplay(5,"80_queenvanpire_st11",0,0,0,0,100,100,255,0)
 0()
EndIf()
242(1)
250(bytes(0x04,0x08,0x6f,0x3a,0x0c,0x52,0x50,0x47,0x3a,0x3a,0x53,0x45,0x08,0x3a,0x0a,0x40,0x6e,0x61,0x6d,0x65,0x49,0x22,0x0a,0x7a,0x69,0x68,0x6f,0x75,0x06,0x3a,0x06,0x45,0x54,0x3a,0x0b,0x40,0x70,0x69,0x74,0x63,0x68,0x69,0x69,0x3a,0x0c,0x40,0x76,0x6f,0x6c,0x75,0x6d,0x65,0x69,0x55))
Wait(60)
ShowMessageFace("",0,0,2,1)
ShowMessage("その時――城内に、五時の鐘が鳴り響いた。")
241(bytes(0x04,0x08,0x6f,0x3a,0x0d,0x52,0x50,0x47,0x3a,0x3a,0x42,0x47,0x4d,0x08,0x3a,0x0a,0x40,0x6e,0x61,0x6d,0x65,0x49,0x22,0x09,0x65,0x72,0x6f,0x31,0x06,0x3a,0x06,0x45,0x54,0x3a,0x0c,0x40,0x76,0x6f,0x6c,0x75,0x6d,0x65,0x69,0x69,0x3a,0x0b,0x40,0x70,0x69,0x74,0x63,0x68,0x69,0x69))
ShowMessageFace("queenvampire_fc1",0,0,2,2)
ShowMessage("【ファティマ】")
ShowMessage("むっ、もうこんな時間か……")
ShowMessage("そろそろ、腹が空いてきたな。")
ShowMessageFace("queenvampire_fc1",0,0,2,3)
ShowMessage("【ファティマ】")
ShowMessage("幸い、ここには二皿……")
ShowMessage("片方は前菜、もう片方はメインディッシュといったところか。")
ShowMessageFace("",0,0,2,4)
ShowMessage("【ルカ】")
ShowMessage("二皿って、まさか――")
ShowMessageFace("",0,0,2,5)
ShowMessage("一方で商人見習いの少年は、何のことか分からない顔をしている。")
ShowMessage("僕が制止しようとした瞬間、ファティマの目が光り――")
Wait(15)
250(bytes(0x04,0x08,0x6f,0x3a,0x0c,0x52,0x50,0x47,0x3a,0x3a,0x53,0x45,0x08,0x3a,0x0a,0x40,0x6e,0x61,0x6d,0x65,0x49,0x22,0x0e,0x6d,0x6f,0x6e,0x5f,0x66,0x6c,0x61,0x73,0x68,0x06,0x3a,0x06,0x45,0x54,0x3a,0x0b,0x40,0x70,0x69,0x74,0x63,0x68,0x69,0x69,0x3a,0x0c,0x40,0x76,0x6f,0x6c,0x75,0x6d,0x65,0x69,0x69))
224(bytes(0x04,0x08,0x75,0x3a,0x0a,0x43,0x6f,0x6c,0x6f,0x72,0x25,0x00,0x00,0x00,0x00,0x00,0xe0,0x6f,0x40,0x00,0x00,0x00,0x00,0x00,0x80,0x69,0x40,0x00,0x00,0x00,0x00,0x00,0xe0,0x6f,0x40,0x00,0x00,0x00,0x00,0x00,0xe0,0x6f,0x40),60,true)
Wait(15)
ShowMessageFace("",0,0,2,6)
ShowMessage("【ルカ】")
ShowMessage("うぅっ……")
ShowMessageFace("",0,0,2,7)
ShowMessage("魔眼の効果で、僕の体は動かなくなってしまった。")
ShowMessage("その隙に、ファティマは少年へと迫る――")
ShowMessageFace("",0,0,2,8)
ShowMessage("【少年】")
ShowMessage("えっと……なんでしょうか……？")
ShowMessageFace("queenvampire_fc1",0,0,2,9)
ShowMessage("【ファティマ】")
ShowMessage("くく……簡単な事よ。")
ShowMessage("これより、我の餌食になってもらおうというのだ。")
ShowMessageFace("",0,0,2,10)
ShowMessage("次の瞬間、呆気にとられている少年の衣服が引き裂かれ――")
245(bytes(0x04,0x08,0x6f,0x3a,0x0d,0x52,0x50,0x47,0x3a,0x3a,0x42,0x47,0x53,0x08,0x3a,0x0a,0x40,0x6e,0x61,0x6d,0x65,0x49,0x22,0x10,0x6d,0x6f,0x6e,0x5f,0x68,0x76,0x6f,0x69,0x63,0x65,0x31,0x06,0x3a,0x06,0x45,0x54,0x3a,0x0c,0x40,0x76,0x6f,0x6c,0x75,0x6d,0x65,0x69,0x55,0x3a,0x0b,0x40,0x70,0x69,0x74,0x63,0x68,0x69,0x69))
PictureDisplay(5,"ev_queenvanpire_hd1",0,0,0,0,100,100,255,0)
ShowMessageFace("",0,0,2,11)
ShowMessage("【少年】")
ShowMessage("あ……うぁぁぁぁ！！")
ShowMessageFace("",0,0,2,12)
ShowMessage("そして、少年の悲痛な叫びが響き渡った。")
ShowMessage("ファティマは無慈悲に少年を抱き、血を吸い始めたのだ――")
ShowMessageFace("",0,0,2,13)
ShowMessage("【少年】")
ShowMessage("あぐ、あぅ……あぅぅっ……！")
ShowMessageFace("queenvampire_fc1",0,0,2,14)
ShowMessage("【ファティマ】")
ShowMessage("くく……そう怯えるでない。")
ShowMessage("我が、こうやって吸ってやれば……")
ShowMessageFace("",0,0,2,15)
ShowMessage("【少年】")
ShowMessage("はぅ……あ、あぁぁぁ……")
ShowMessageFace("",0,0,2,16)
ShowMessage("少年の声は、みるみる弱々しくなり――")
ShowMessage("その体からも、力が抜けていった。")
ShowMessageFace("",0,0,2,17)
ShowMessage("ファティマの吸血で、快楽を味わっているのだ。")
ShowMessage("少年の顔は、今やすっかりとろけてしまっている――")
ShowMessageFace("queenvampire_fc1",0,0,2,18)
ShowMessage("【ファティマ】")
ShowMessage("くくく、どうだ？")
ShowMessage("我に吸われるのは、心地良かろう……")
ShowMessageFace("",0,0,2,19)
ShowMessage("【少年】")
ShowMessage("あっ、あぅぅ……あ、あぁぁ……")
ShowMessageFace("",0,0,2,20)
ShowMessage("当初は抵抗していた少年も、すっかり快楽に身を委ねてしまったようだ。")
ShowMessage("ファティマに吸われるがままになり、体を弛緩させ――")
RunCommonEvent(104)
RunCommonEvent(105)
ShowMessageFace("",0,0,2,21)
ShowMessage("そして、とうとう射精してしまった。")
ShowMessage("その体をびくびく震わせながら、精液を垂れ流している――")
ShowMessageFace("",0,0,2,22)
ShowMessage("【ルカ】")
ShowMessage("ひどい……なんて事を……")
ShowMessageFace("queenvampire_fc1",0,0,2,23)
ShowMessage("【ファティマ】")
ShowMessage("お主は、もう少し待っておれ。")
ShowMessage("すぐに、同じように啜ってやるからな……")
ShowMessageFace("",0,0,2,24)
ShowMessage("【ルカ】")
ShowMessage("ううっ……")
ShowMessageFace("",0,0,2,25)
ShowMessage("こうして僕は、少年が吸い尽くされていくところを")
ShowMessage("見ている事しか出来なかった。")
ShowMessageFace("",0,0,2,26)
ShowMessage("次は自分が同じように餌食にされる――")
ShowMessage("それを思い知らされ、恐怖と期待に晒されながら――")
221()
PictureClear(5)
242(1)
246(1)
ShowMessageFace("",0,0,2,27)
ShowMessage("こうして少年は、僕の目の前で吸い尽くされた。")
ShowMessage("そして次に、僕も同じ運命を辿ったのである――")
ShowMessageFace("",0,0,2,28)
ShowMessage("・・・・・・・・")
221()
Wait(120)
If(0,443,0)
 EndEventProcessing()
 0()
EndIf()
RunCommonEvent(541)
0()
