﻿// EVENT 3118
Name "Ustrel"

If(0,25,1)
 JumpToLabel("反省会")
 0()
EndIf()
PictureDisplay(5,"80_ustrel_st02",0,0,0,0,100,100,0,0)
PictureMove(5,null,0,0,0,0,100,100,255,0,30,true)
241(bytes(0x04,0x08,0x6f,0x3a,0x0d,0x52,0x50,0x47,0x3a,0x3a,0x42,0x47,0x4d,0x08,0x3a,0x0a,0x40,0x6e,0x61,0x6d,0x65,0x49,0x22,0x09,0x65,0x72,0x6f,0x31,0x06,0x3a,0x06,0x45,0x54,0x3a,0x0c,0x40,0x76,0x6f,0x6c,0x75,0x6d,0x65,0x69,0x69,0x3a,0x0b,0x40,0x70,0x69,0x74,0x63,0x68,0x69,0x69))
ShowMessageFace("",0,0,2,1)
ShowMessage("\\n<Luka>Urhg...")
ShowMessageFace("ustrel_fc1",1,0,2,2)
ShowMessage("\\n<Ustrel>Ufufu, you can't resist anymore.\nThen I'll squeeze out your semen...")
PictureDisplay(5,"ev_ustrel_h1",0,0,0,0,100,100,0,0)
PictureMove(5,null,0,0,0,0,100,100,255,0,30,true)
ShowMessageFace("",0,0,2,3)
ShowMessage("Ustrel approaches as I lay fallen down with no way to defend myself. One of her semen-squeezing mouths attached to her lower body approaches my penis...")
ShowMessageFace("",0,0,2,4)
ShowMessage("\\n<Luka>S...stop...!")
PictureDisplay(5,"ev_ustrel_h2",0,0,0,0,100,100,255,0)
ShowMessageFace("ustrel_fc1",1,0,2,5)
ShowMessage("\\n<Ustrel>Why do you think this mouth has fangs attached to it? Prey who acts violently gets its penis chewed off...")
ShowMessageFace("",0,0,2,6)
ShowMessage("\\n<Luka>H-hyaaaaaa!")
ShowMessageFace("ustrel_fc1",1,0,2,7)
ShowMessage("\\n<Ustrel>If you don't want that to happen, stay still and be quiet. I'll make you feel good...Ufufu.")
ShowMessageFace("",0,0,2,8)
ShowMessage("If I resist and try to struggle she'll chew my penis off... With no choice, I don't resist and just watch her sucking mouth wiggle around my crotch.")
245(bytes(0x04,0x08,0x6f,0x3a,0x0d,0x52,0x50,0x47,0x3a,0x3a,0x42,0x47,0x53,0x08,0x3a,0x0a,0x40,0x6e,0x61,0x6d,0x65,0x49,0x22,0x1e,0x6d,0x6f,0x6e,0x5f,0x68,0x73,0x65,0x61,0x6e,0x31,0x30,0x5f,0x69,0x6e,0x6e,0x65,0x72,0x77,0x6f,0x72,0x6b,0x73,0x5f,0x62,0x32,0x06,0x3a,0x06,0x45,0x54,0x3a,0x0c,0x40,0x76,0x6f,0x6c,0x75,0x6d,0x65,0x69,0x55,0x3a,0x0b,0x40,0x70,0x69,0x74,0x63,0x68,0x69,0x69))
PictureDisplay(5,"ev_ustrel_h3",0,0,0,0,100,100,255,0)
ShowMessageFace("",0,0,2,9)
ShowMessage("Then...\nUstrel shoves my penis inside her tentacle-mouth!")
ShowMessageFace("",0,0,2,10)
ShowMessage("\\n<Luka>Ah...! Aaah!")
ShowMessageFace("ustrel_fc1",1,0,2,11)
ShowMessage("\\n<Ustrel>Ufufu, I ate your penis...♪\nMy mouth feels very good, doesn't it?")
ShowMessageFace("",0,0,2,12)
ShowMessage("\\n<Luka>So good, inside... Auuuuu!")
ShowMessageFace("",0,0,2,13)
ShowMessage("Her soft elastic flesh wraps around my penis.\nThe layer of the inside of her mouth rubs against my glans and fills me with a mysterious pleasure.")
ShowMessageFace("",0,0,2,14)
ShowMessage("On top of that, the mouth shrinks around my penis.\nThe sucking movement it does is unlike anything a human could do...")
ShowMessageFace("",0,0,2,15)
ShowMessage("\\n<Luka>Ngh... Ah, aaaah...!")
ShowMessageFace("",0,0,2,16)
ShowMessage("Like this, I'll come in no time.\nI try to resist...")
ShowMessageFace("ustrel_fc1",1,0,2,17)
ShowMessage("\\n<Ustrel>...What did I say?\nIf you start resisting, I'll chew it off...")
ShowMessageFace("",0,0,2,18)
ShowMessage("\\n<Luka>Urhhg...")
ShowMessageFace("",0,0,2,19)
ShowMessage("I have no choice but to stop resisting and accept this humiliation. If I resist, a tragic thing will happen to my manhood...")
ShowMessageFace("ustrel_fc1",1,0,2,20)
ShowMessage("\\n<Ustrel>Yes, just like that, be quiet and let me suck on you. Obedient children are well rewarded...")
PictureDisplay(5,"ev_ustrel_h4",0,0,0,0,100,100,255,0)
ShowMessageFace("",0,0,2,21)
ShowMessage("A tongue stretches from another one of her tentacle-mouths.\nIt hangs over my crotch, dripping saliva all over...")
ShowMessageFace("",0,0,2,22)
ShowMessage("\\n<Luka>Hyaaa! nnngh...")
ShowMessageFace("",0,0,2,23)
ShowMessage("She licks my crotch area and covers me in saliva.\nAnother tongue comes out and starts licking my testicles.")
ShowMessageFace("",0,0,2,24)
ShowMessage("A sweet ache rises from my waist...\nOn top of that, my penis is thoroughly sucked by her mouth.")
ShowMessageFace("",0,0,2,25)
ShowMessage("\\n<Luka>Ngh... Ah, aaaah...!")
ShowMessageFace("",0,0,2,26)
ShowMessage("My hips buck up unexpectedly.\nI push my penis up inside the mouth...")
ShowMessageFace("",0,0,2,27)
ShowMessage("\\n<Luka>Ah...I'm going to come...\nI can't take this...")
ShowMessageFace("ustrel_fc1",1,0,2,28)
ShowMessage("\\n<Ustrel>Ufufu, I know...\nDid it feel so good you couldn't sit still?")
ShowMessageFace("ustrel_fc1",1,0,2,29)
ShowMessage("\\n<Ustrel>All right, I'll let you have sex with my tentacle... Please let out a lot of semen in my tentacle-mouth.")
PictureDisplay(5,"ev_ustrel_h5",0,0,0,0,100,100,255,0)
ShowMessageFace("",0,0,2,30)
ShowMessage("In the next moment, her tentacle-mouth starts sucking on my penis. A sweet sucking stimulation adds to the rubbing of the inside of her walls.")
ShowMessageFace("",0,0,2,31)
ShowMessage("Multiple tongues also start licking all over my crotch.\nHer saliva-covered tongues crawl all over my scrotum as if playing with it...")
ShowMessageFace("",0,0,2,32)
ShowMessage("\\n<Luka>Ah...It's coming out...!\nI'm going to come...!")
ShowMessageFace("ustrel_fc1",1,0,2,33)
ShowMessage("\\n<Ustrel>Fufu, are you going to come?\nThen let me suck everything out of you like this.")
ShowMessageFace("",0,0,2,34)
ShowMessage("\\n<Luka>Ngh... Aaaah...!")
ShowMessageFace("",0,0,2,35)
ShowMessage("The sensation of her mouth's sucking increases.\nIt feels like she's trying to uproot my penis.")
ShowMessageFace("",0,0,2,36)
ShowMessage("The suction coupled with the rubbing of the soft flesh on my glans... I push my waist up as I'm being sucked.")
ShowMessageFace("",0,0,2,37)
ShowMessage("\\n<Luka>Coming... Uh... Aah...")
RunCommonEvent(104)
PictureDisplay(5,"ev_ustrel_h6",0,0,0,0,100,100,255,0)
RunCommonEvent(105)
ShowMessageFace("",0,0,2,38)
ShowMessage("The sweet feeling of release washes over me as my penis starts pulsating inside her tentacle. Semen gushes out with every pulse and is swallowed by her mouth...")
ShowMessageFace("",0,0,2,39)
ShowMessage("\\n<Luka>Hnnaaa...")
ShowMessageFace("ustrel_fc1",1,0,2,40)
ShowMessage("\\n<Ustrel>Ufufu, you came...\nYour semen is very tasty...")
ShowMessageFace("ustrel_fc1",1,0,2,41)
ShowMessage("\\n<Ustrel>More, I'll squeeze out even more.\nI'll suck your penis more.")
ShowMessageFace("",0,0,2,42)
ShowMessage("\\n<Luka>Ahii...! Aaaaaah!!")
ShowMessageFace("",0,0,2,43)
ShowMessage("The sweet feeling of release suddenly turns into a forced milking. Her sucking intensifies even more, before I'm even done ejaculating.")
ShowMessageFace("",0,0,2,44)
ShowMessage("It sucks hard on my still pulsating penis...\nIt seems that she can suck out my semen faster than I can shoot it out.")
ShowMessageFace("",0,0,2,45)
ShowMessage("\\n<Luka>Ah...! Hyaaa!!")
ShowMessageFace("",0,0,2,46)
ShowMessage("I yell from the powerful vacuum sensation.\nEven after my ejaculation is over, the intense sucking doesn't stop.")
ShowMessageFace("",0,0,2,47)
ShowMessage("The soft flesh inside wraps tightly around my penis, pressing on it. All these combined sensations attack my penis.")
ShowMessageFace("ustrel_fc1",1,0,2,48)
ShowMessage("\\n<Ustrel>Ufufu, does it feel good?\nI'll suck out all your semen, shoot it all out...")
ShowMessageFace("",0,0,2,49)
ShowMessage("One of her eerie tongues runs all over my balls.\nShe licks all over my weak spots from underneath, lifting up my entire ballsack.")
ShowMessageFace("",0,0,2,50)
ShowMessage("\\n<Luka>Ngh... Aaaah...!")
ShowMessageFace("",0,0,2,51)
ShowMessage("Before the sensation of ejaculating fades, a new one hits me...")
RunCommonEvent(104)
PictureDisplay(5,"ev_ustrel_h7",0,0,0,0,100,100,255,0)
RunCommonEvent(105)
ShowMessageFace("",0,0,2,52)
ShowMessage("And I come with my whole body shaking.\nMy semen is squeezed out and sucked up by her tentacle-mouth...")
ShowMessageFace("ustrel_fc1",1,0,2,53)
ShowMessage("\\n<Ustrel>I will squeeze everything out until the last drop.\nUntil you're all dried up...Ufufu.")
ShowMessageFace("",0,0,2,54)
ShowMessage("\\n<Luka>Stop... No...!")
ShowMessageFace("",0,0,2,55)
ShowMessage("I try to move my limbs and resist...")
ShowMessageFace("ustrel_fc1",1,0,2,56)
ShowMessage("\\n<Ustrel>Ara, did you forget?\nIf you resist, I'll chew it off.")
ShowMessageFace("ustrel_fc1",1,0,2,57)
ShowMessage("\\n<Ustrel>Bleeding to death seems like a more gruesome option. You'll at least die of pleasure while I suck your semen out. Doesn't that sound better?")
ShowMessageFace("",0,0,2,58)
ShowMessage("\\n<Luka>Nnngh... No...")
ShowMessageFace("",0,0,2,59)
ShowMessage("I'm not allowed to resist anymore...\nThis relentless squeezing...and my inevitable demise.")
ShowMessageFace("",0,0,2,60)
ShowMessage("The most miserable thing about this situation is that my instincts as a man rejoice from this pleasure. In response to the sucking stimulation, my penis starts shooting semen again.")
RunCommonEvent(104)
RunCommonEvent(105)
ShowMessageFace("",0,0,2,61)
ShowMessage("I offer a lot of my semen to her sucking tentacle-mouth.\nThese forced ejaculations make me feel like I'm continuously drained...")
ShowMessageFace("ustrel_fc1",1,0,2,62)
ShowMessage("\\n<Ustrel>Ufufu, the inside of my mouth is coated in your semen... I sucked out a lot in a short amount of time, you'll be dry in no time.")
ShowMessageFace("",0,0,2,63)
ShowMessage("\\n<Luka>That's... No...")
ShowMessageFace("",0,0,2,64)
ShowMessage("Already, a feeling of weakness spreads through my body.\nI shot a great amount of semen in such a short time.")
ShowMessageFace("",0,0,2,65)
ShowMessage("If I ejaculate any more, my life will be in danger...\nYet my penis responds truthfully to the pleasure.")
ShowMessageFace("",0,0,2,66)
ShowMessage("The feeling of her undulating flesh, the intense sucking... Responding to their stimulation, I shoot my semen once more.")
RunCommonEvent(104)
RunCommonEvent(105)
ShowMessageFace("",0,0,2,67)
ShowMessage("\\n<Luka>Ah...aaah...")
ShowMessageFace("",0,0,2,68)
ShowMessage("This sweet and crazy pleasure sucks my semen inside her tentacle-mouth. But the price to pay for it is my life...")
ShowMessageFace("",0,0,2,69)
ShowMessage("The feeling of weakness takes over more of my body and I feel so weak, I can't even lift a finger anymore. My vision goes blurry and my consciousness starts to slowly fade...")
ShowMessageFace("",0,0,2,70)
ShowMessage("\\n<Luka>a...a...")
ShowMessageFace("ustrel_fc1",1,0,2,71)
ShowMessage("\\n<Ustrel>Arara, it won't be long now.\nEven though a normal man would have been dead after two or three ejaculations...")
ShowMessageFace("ustrel_fc1",1,0,2,72)
ShowMessage("\\n<Ustrel>But the next one will be your last.\nUfufu, taste the pleasure, till the end...")
ShowMessageFace("",0,0,2,73)
ShowMessage("\\n<Luka>Ah... Ngh...")
ShowMessageFace("",0,0,2,74)
ShowMessage("On the verge of being sucked dry, the merciless suction continues. In response, my penis starts pulsing happily...")
246(2)
RunCommonEvent(104)
RunCommonEvent(105)
ShowMessageFace("",0,0,2,75)
ShowMessage("All my remaining semen flows inside her tentacle.\nI'm totally exhausted, as is my semen...")
ShowMessageFace("ustrel_fc1",1,0,2,76)
ShowMessage("\\n<Ustrel>Ufufu, thank you for the meal.\nDid you feel good until the end? Ufufu...")
ShowMessageFace("",0,0,2,77)
ShowMessage("\\n<Luka>......")
ShowMessageFace("",0,0,2,78)
ShowMessage("The last thing I see is Ustrel with a satisfied smile on her face. My consciousness along with my life fades...")
221()
PictureClear(5)
DefineLabel("反省会")
ShowMessageFace("",0,0,2,79)
ShowMessage("......")
221()
242(1)
Wait(120)
355("memory_interruption")
ShowMessageFace("",0,0,2,80)
ShowMessage("You hear Ilias' voice calling out to you...\nReceive her evaluation?")
ShowChoices(strings("Receive Evaluation","Change Difficulty","Reincarnate"),3)
IfPlayerPicksChoice(0,null)
 241(bytes(0x04,0x08,0x6f,0x3a,0x0d,0x52,0x50,0x47,0x3a,0x3a,0x42,0x47,0x4d,0x08,0x3a,0x0a,0x40,0x6e,0x61,0x6d,0x65,0x49,0x22,0x0a,0x69,0x72,0x69,0x61,0x73,0x06,0x3a,0x06,0x45,0x54,0x3a,0x0c,0x40,0x76,0x6f,0x6c,0x75,0x6d,0x65,0x69,0x5f,0x3a,0x0b,0x40,0x70,0x69,0x74,0x63,0x68,0x69,0x6e))
 PictureDisplay(1,"bg001",0,0,0,0,100,100,255,0)
 222()
 PictureDisplay(5,"80_iriasu_st04",0,0,0,0,100,100,0,0)
 PictureMove(5,null,0,0,0,0,100,100,255,0,30,true)
 ShowMessageFace("iriasu_fc1",3,0,2,81)
 ShowMessage("\\n<Ilias>To think you would be squeezed out by even such a failure of a scylla... Perhaps you're a failure of a hero, too.")
 PictureDisplay(5,"80_iriasu_st01",0,0,0,0,100,100,255,0)
 ShowMessageFace("iriasu_fc1",0,0,2,82)
 ShowMessage("\\n<Ilias>Ustrel is a magical type of scylla.\nShe will use tentacle and HP-draining skills.")
 ShowMessageFace("iriasu_fc1",0,0,2,83)
 ShowMessage("\\n<Ilias>Status ailments can be easily applied to her, so it should be a relatively easy fight. You shouldn't have much difficulty fighting her.")
 ShowMessageFace("iriasu_fc1",0,0,2,84)
 ShowMessage("\\n<Ilias>Because she is a scylla, she's weak to lightning.\nSince she's also a magical enemy, she's strong against fire and ice, but weak against wind, water, and earth.")
 PictureDisplay(5,"80_iriasu_st02",0,0,0,0,100,100,255,0)
 ShowMessageFace("iriasu_fc1",1,0,2,85)
 ShowMessage("\\n<Ilias>Now go, oh brave Luka.\nI'm just pretending I'm watching over you.")
 242(1)
 221()
 PictureClear(5)
 PictureClear(1)
 Wait(60)
 0()
IfPlayerPicksChoice(1,null)
 ShowMessageFace("",0,0,2,86)
 ShowMessage("Please choose a difficulty level.")
 RunCommonEvent(110)
 0()
IfPlayerPicksChoice(2,null)
 0()
404()
RunCommonEvent(3000)
0()
