// EVENT 5481
Name "Atlach-Nacha 1"

PictureDisplay(5,"80_atlach_st02",0,0,0,0,100,100,0,0)
PictureMove(5,null,0,0,0,0,100,100,255,0,30,true)
ShowMessageFace("",0,0,2,1)
ShowMessage("\\n<Luka>P...Please...")
ShowMessageFace("atlach_fc1",0,0,2,2)
ShowMessage("\\n<Nacha>")
ShowMessage("Do you desire pleasure...?")
ShowMessage("Very well, you shall mate with me...")
241(bytes(0x04,0x08,0x6f,0x3a,0x0d,0x52,0x50,0x47,0x3a,0x3a,0x42,0x47,0x4d,0x08,0x3a,0x0a,0x40,0x6e,0x61,0x6d,0x65,0x49,0x22,0x09,0x65,0x72,0x6f,0x31,0x06,0x3a,0x06,0x45,0x54,0x3a,0x0c,0x40,0x76,0x6f,0x6c,0x75,0x6d,0x65,0x69,0x69,0x3a,0x0b,0x40,0x70,0x69,0x74,0x63,0x68,0x69,0x69))
PictureDisplay(5,"ev_atlach_h01",0,0,0,0,100,100,0,0)
PictureMove(5,null,0,0,0,0,100,100,255,0,30,true)
ShowMessageFace("",0,0,2,3)
ShowMessage("Nacha tears off my clothes, and brings me close to her.")
ShowMessage("She presses her strange lower body against mine.")
ShowMessageFace("",0,0,2,4)
ShowMessage("\\n<Luka>S-Stop...!")
ShowMessageFace("atlach_fc1",0,0,2,5)
ShowMessage("\\n<Nacha>")
ShowMessage("Do you dislike mating...?")
ShowMessage("There's no need to be afraid...")
PictureDisplay(5,"ev_atlach_h02",0,0,0,0,100,100,255,0)
PictureDisplay(6,"ev_atlach_ct01",0,0,0,0,100,100,255,0)
ShowMessageFace("",0,0,2,6)
ShowMessage("Nacha rubs a strange opening against me.")
ShowMessage("It's soft, and rubbing against my already erect penis.")
ShowMessageFace("",0,0,2,7)
ShowMessage("But the slit is closed, and doesn't allow my penis inside.")
ShowMessage("My erect penis is pressed against it, waiting to go inside.")
ShowMessageFace("",0,0,2,8)
ShowMessage("\\n<Luka>N-no... Stop this...!")
ShowMessageFace("atlach_fc1",0,0,2,9)
ShowMessage("\\n<Nacha>")
ShowMessage("Come, connect with me.")
ShowMessage("A spider's genitals feel incredible.")
ShowMessageFace("atlach_fc1",0,0,2,10)
ShowMessage("\\n<Nacha>")
ShowMessage("I'll softly wrap up your male member, and squeeze it tightly.")
ShowMessage("You may come over and over as you taste the ultimate pleasure.")
ShowMessageFace("",0,0,2,11)
ShowMessage("\\n<Luka>N-no... Ahhh...")
ShowMessageFace("",0,0,2,12)
ShowMessage("Even if I struggle, I can't break free from her.")
ShowMessage("I can only watch as my penis slowly sinks into her.")
ShowMessageFace("",0,0,2,13)
ShowMessage("As my glans pierces inside, her wet hole clamps down on it.")
ShowMessage("And...")
245(bytes(0x04,0x08,0x6f,0x3a,0x0d,0x52,0x50,0x47,0x3a,0x3a,0x42,0x47,0x53,0x08,0x3a,0x0a,0x40,0x6e,0x61,0x6d,0x65,0x49,0x22,0x1e,0x6d,0x6f,0x6e,0x5f,0x68,0x73,0x65,0x61,0x6e,0x30,0x36,0x5f,0x69,0x6e,0x6e,0x65,0x72,0x77,0x6f,0x72,0x6b,0x73,0x5f,0x61,0x36,0x06,0x3a,0x06,0x45,0x54,0x3a,0x0c,0x40,0x76,0x6f,0x6c,0x75,0x6d,0x65,0x69,0x55,0x3a,0x0b,0x40,0x70,0x69,0x74,0x63,0x68,0x69,0x69))
PictureDisplay(5,"ev_atlach_h03",0,0,0,0,100,100,255,0)
PictureDisplay(6,"ev_atlach_ct02",0,0,0,0,100,100,255,0)
ShowMessageFace("",0,0,2,14)
ShowMessage("My penis is stuck all the way inside!")
ShowMessage("At last, I'm mating with a spider monster...")
ShowMessageFace("",0,0,2,15)
ShowMessage("\\n<Luka>Ah... Hauu... Uhh...")
ShowMessageFace("",0,0,2,16)
ShowMessage("Reaching all the way inside, I feel my tip press against her deep interior.")
ShowMessage("Her tight flesh closes down on me from every direction.")
ShowMessageFace("",0,0,2,17)
ShowMessage("Her inhuman vagina feels like it's massaging me all over.")
ShowMessage("Every slight movement leaves me feeling weaker.")
ShowMessageFace("",0,0,2,18)
ShowMessage("\\n<Luka>Hauu... Uhh... That feels good...")
ShowMessageFace("atlach_fc1",0,0,2,19)
ShowMessage("\\n<Nacha>")
ShowMessage("My genitals are amazing, aren't they...?")
ShowMessageFace("",0,0,2,20)
ShowMessage("It feels slightly sticky inside of her.")
ShowMessage("As if little tiny threads were sticking to my penis.")
ShowMessageFace("",0,0,2,21)
ShowMessage("Now connected with her, the pleasure makes me feel weak.")
ShowMessage("Immersed in it, my body relaxes.")
PictureDisplay(5,"ev_atlach_h04",0,0,0,0,100,100,255,0)
ShowMessageFace("atlach_fc1",0,0,2,22)
ShowMessage("\\n<Nacha>")
ShowMessage("Please release your semen like that...")
ShowMessage("Fill me with all of it...")
ShowMessageFace("",0,0,2,23)
ShowMessage("\\n<Luka>I-I can't do that...")
ShowMessageFace("",0,0,2,24)
ShowMessage("The disgust of the thought snaps me back to reality.")
ShowMessage("I can't come with such an inhuman monster...")
ShowMessageFace("",0,0,2,25)
ShowMessage("\\n<Luka>Uh... Guh...")
ShowMessageFace("atlach_fc1",0,0,2,26)
ShowMessage("\\n<Nacha>")
ShowMessage("Ara, do you not wish to release your semen...?")
ShowMessageFace("",0,0,2,27)
ShowMessage("\\n<Luka>Uuhh...")
ShowMessageFace("",0,0,2,28)
ShowMessage("Trying to resist, I tense up my waist.")
ShowMessage("I don't want to come inside a spider monster...")
ShowMessageFace("atlach_fc1",0,0,2,29)
ShowMessage("\\n<Nacha>")
ShowMessage("In that case, I'll simply have you taste more...")
ShowMessageFace("",0,0,2,30)
ShowMessage("Nacha's breasts start to shake and move.")
ShowMessage("Suddenly, something shoots from her nipples!")
PictureDisplay(5,"ev_atlach_h05",0,0,0,0,100,100,255,0)
PictureDisplay(6,"ev_atlach_ct03",0,0,0,0,100,100,255,0)
ShowMessageFace("",0,0,2,31)
ShowMessage("Sticky threads shoot out, covering me.")
ShowMessage("In seconds, they're wrapped and coiled around me.")
ShowMessageFace("",0,0,2,32)
ShowMessage("\\n<Luka>What is this... Ah-Ahh...")
ShowMessageFace("",0,0,2,33)
ShowMessage("The moment her sticky silk touches me, a flood of ecstasy fills me.")
ShowMessage("There must be some kind of aphrodisiac mixed in...")
ShowMessageFace("",0,0,2,34)
ShowMessage("Everywhere it touches my bare skin is radiating a warmth.")
ShowMessage("Overwhelmed by it, all sense of reason is quickly slipping from me.")
ShowMessageFace("",0,0,2,35)
ShowMessage("\\n<Luka>Sto, stop... Ahh...")
ShowMessageFace("",0,0,2,36)
ShowMessage("My body is covered by her silk as we mate.")
ShowMessage("Her warm vagina continues massaging me all the while...")
ShowMessageFace("atlach_fc1",0,0,2,37)
ShowMessage("\\n<Nacha>")
ShowMessage("My Ecstasy Silk feels incredible, doesn't it?")
ShowMessage("I'll have you come like that...")
ShowMessageFace("",0,0,2,38)
ShowMessage("\\n<Luka>Ahhh... Faa...")
PictureDisplay(5,"ev_atlach_h06",0,0,0,0,100,100,255,0)
ShowMessageFace("",0,0,2,39)
ShowMessage("Even more sticky silk coils around my body.")
ShowMessage("More of that melting ecstasy fills me, the more it covers me.")
ShowMessageFace("",0,0,2,40)
ShowMessage("Immersed in it, the swelling flesh of her vagina continues to rub me.")
ShowMessage("Unable to fight it, I relax and accept it all...")
ShowMessageFace("",0,0,2,41)
ShowMessage("\\n<Luka>Faaa... That feels good...")
ShowMessageFace("atlach_fc1",0,0,2,42)
ShowMessage("\\n<Nacha>")
ShowMessage("Now, ejaculate...")
ShowMessage("Dedicate your semen to me...")
ShowMessageFace("",0,0,2,43)
ShowMessage("\\n<Luka>Faaa...")
ShowMessageFace("",0,0,2,44)
ShowMessage("Her soft flesh kneads and massages my penis.")
ShowMessage("Covered by her threads, I let myself go in that sweet feeling.")
RunCommonEvent(104)
PictureDisplay(5,"ev_atlach_h07",0,0,0,0,100,100,255,0)
PictureDisplay(6,"ev_atlach_ct04",0,0,0,0,100,100,255,0)
RunCommonEvent(105)
ShowMessageFace("",0,0,2,45)
ShowMessage("\\n<Luka>Hauuu...")
ShowMessageFace("",0,0,2,46)
ShowMessage("Pulsing, my penis unloads inside her.")
ShowMessage("Nacha smiles as she accepts it all into her.")
ShowMessageFace("atlach_fc1",0,0,2,47)
ShowMessage("\\n<Nacha>")
ShowMessage("Fufu, there's your seed...")
ShowMessage("Let's have more, shall we...")
ShowMessageFace("",0,0,2,48)
ShowMessage("\\n<Luka>Ah. Hauu...")
ShowMessageFace("",0,0,2,49)
ShowMessage("Right after my climax, her flesh begins rubbing me again.")
ShowMessage("At the same time, more of the sticky silk shoots from her nipples.")
PictureDisplay(5,"ev_atlach_h08",0,0,0,0,100,100,255,0)
ShowMessageFace("",0,0,2,50)
ShowMessage("\\n<Luka>Hyaaaa...")
ShowMessageFace("",0,0,2,51)
ShowMessage("My body is totally covered in her silk.")
ShowMessage("Filled with ecstasy, my brain is turning to mush.")
ShowMessageFace("",0,0,2,52)
ShowMessage("Stuck in this crazed state, her vagina overpowers my penis.")
ShowMessage("This crazy stimulation, forcing me to come over and over...")
ShowMessageFace("",0,0,2,53)
ShowMessage("\\n<Luka>Hyaaa... I'm coming again...")
ShowMessageFace("atlach_fc1",0,0,2,54)
ShowMessage("\\n<Nacha>")
ShowMessage("Please release all of your semen...")
ShowMessageFace("",0,0,2,55)
ShowMessage("\\n<Luka>A-Ahhh... Faa...")
RunCommonEvent(104)
PictureDisplay(5,"ev_atlach_h09",0,0,0,0,100,100,255,0)
PictureDisplay(6,"ev_atlach_ct05",0,0,0,0,100,100,255,0)
RunCommonEvent(105)
ShowMessageFace("",0,0,2,56)
ShowMessage("More semen spurts out of me.")
ShowMessage("Feeling like it's pulsing nonstop, a seemingly endless stream of semen leaks out.")
ShowMessageFace("",0,0,2,57)
ShowMessage("\\n<Luka>It's so good... I could die...")
ShowMessageFace("atlach_fc1",0,0,2,58)
ShowMessage("\\n<Nacha>")
ShowMessage("Ufufu... Maybe you will die.")
ShowMessage("Mating with me consumes a huge amount of energy, after all...")
ShowMessageFace("",0,0,2,59)
ShowMessage("\\n<Luka>N-no way... Faa...")
RunCommonEvent(104)
RunCommonEvent(105)
ShowMessageFace("",0,0,2,60)
ShowMessage("Drowning in this cocoon of ecstasy, I continue coming.")
ShowMessage("There's almost no strength left in my body to move...")
ShowMessageFace("atlach_fc1",0,0,2,61)
ShowMessage("\\n<Nacha>")
ShowMessage("Ufufu... Let me have all of your life...")
ShowMessageFace("",0,0,2,62)
ShowMessage("\\n<Luka>Ah... Auuu...")
ShowMessageFace("",0,0,2,63)
ShowMessage("I finally realize the trap I'm stuck in.")
ShowMessage("Inviting in prey, weakening them with pleasure and aphrodisiacs...")
RunCommonEvent(104)
RunCommonEvent(105)
ShowMessageFace("",0,0,2,64)
ShowMessage("\\n<Luka>Faa... Ahhh...")
ShowMessageFace("",0,0,2,65)
ShowMessage("But it's too late now.")
ShowMessage("I've lost all semblance of reason, and my body is too weak to fight it.")
ShowMessageFace("",0,0,2,66)
ShowMessage("Caught in this cocoon, I'll be squeezed to death.")
ShowMessage("Knowing my end, I realize I'm just helpless prey...")
ShowMessageFace("atlach_fc1",0,0,2,67)
ShowMessage("\\n<Nacha>")
ShowMessage("Fufu... It's almost time for you to reach heaven...")
ShowMessageFace("",0,0,2,68)
ShowMessage("\\n<Luka>Ah...aaa...")
RunCommonEvent(104)
RunCommonEvent(105)
ShowMessageFace("",0,0,2,69)
ShowMessage("My consciousness gradually fades.")
ShowMessage("Close to death, I can barely even feel the rest of my body any longer.")
ShowMessageFace("",0,0,2,70)
ShowMessage("All I can feel is my penis, rejoicing in the pleasure she's providing.")
ShowMessage("In trade for my death, I can feel this to the end.")
RunCommonEvent(104)
RunCommonEvent(105)
ShowMessageFace("",0,0,2,71)
ShowMessage("\\n<Luka>Ah...a...")
ShowMessageFace("atlach_fc1",0,0,2,72)
ShowMessage("\\n<Nacha>")
ShowMessage("Was trading your life worth mating?")
ShowMessage("You should feel honored to have partaken. Fufufu...")
RunCommonEvent(104)
RunCommonEvent(105)
ShowMessageFace("",0,0,2,73)
ShowMessage("\\n<Luka>Ah...")
ShowMessageFace("",0,0,2,74)
ShowMessage("The last drop is sucked up.")
ShowMessage("Stuck in her cocoon, I take my last breath...")
221()
PictureClear(5)
PictureClear(6)
246(2)
ShowMessageFace("",0,0,2,75)
ShowMessage("A dried up corpse is left in the white cocoon.")
ShowMessage("Simply the remains of a spider's meal.")
ShowMessageFace("",0,0,2,76)
ShowMessage("His life and semen, all drained by Nacha.")
ShowMessage("All taken for nutrients...")
ShowMessageFace("",0,0,2,77)
ShowMessage("......")
RunCommonEvent(3999)
0()
