﻿// EVENT 7252
Name "Yayoi: Match"

ChangeSwitch(96,96,0)
ChangeSwitch(98,98,0)
ShowMessageFace("mob_samurai_fc1",0,0,2,1)
ShowMessage("\\n<Yayoi>Now that the formalities are out of the way, let us battle. I'll wring out every last drop from your manhood!")
250(bytes(0x04,0x08,0x6f,0x3a,0x0c,0x52,0x50,0x47,0x3a,0x3a,0x53,0x45,0x08,0x3a,0x0a,0x40,0x6e,0x61,0x6d,0x65,0x49,0x22,0x12,0x6d,0x6f,0x6e,0x5f,0x65,0x72,0x6f,0x5f,0x6b,0x6f,0x6b,0x69,0x31,0x06,0x3a,0x06,0x45,0x54,0x3a,0x0b,0x40,0x70,0x69,0x74,0x63,0x68,0x69,0x69,0x3a,0x0c,0x40,0x76,0x6f,0x6c,0x75,0x6d,0x65,0x69,0x69))
PictureDisplay(5,"ev_mob_samurai_h1",0,0,0,0,100,100,255,0)
ChangeVariable(11,11,0,2,145,155)
311(0,1,1,1,11,true)
ShowMessageFace("",0,0,2,2)
ShowMessage("Yayoi gently grabbed Luka's penis!\nThe softness of her palms is overwhelming...\\D")
ShowMessage("Luka takes \\V[11] damage!")
ChangeVariable(27,27,0,3,3,1,2)
If(1,27,0,0,0)
 RunCommonEvent(7255)
 EndEventProcessing()
 0()
EndIf()
ShowMessageFace("mob_samurai_fc1",0,0,2,3)
ShowMessage("\\n<Yayoi>I shall start with my palms.\nPlease, try not to come from such a simple attack.")
250(bytes(0x04,0x08,0x6f,0x3a,0x0c,0x52,0x50,0x47,0x3a,0x3a,0x53,0x45,0x08,0x3a,0x0a,0x40,0x6e,0x61,0x6d,0x65,0x49,0x22,0x12,0x6d,0x6f,0x6e,0x5f,0x65,0x72,0x6f,0x5f,0x6b,0x6f,0x6b,0x69,0x31,0x06,0x3a,0x06,0x45,0x54,0x3a,0x0b,0x40,0x70,0x69,0x74,0x63,0x68,0x69,0x69,0x3a,0x0c,0x40,0x76,0x6f,0x6c,0x75,0x6d,0x65,0x69,0x69))
ChangeVariable(11,11,0,2,145,155)
311(0,1,1,1,11,true)
ShowMessageFace("",0,0,2,4)
ShowMessage("Yayoi gently strokes Luka's penis with her smooth hands using slow, gentle movements!\\D")
ShowMessage("Luka takes \\V[11] damage!")
ChangeVariable(27,27,0,3,3,1,2)
If(1,27,0,0,0)
 RunCommonEvent(7256)
 EndEventProcessing()
 0()
EndIf()
ShowMessageFace("mob_samurai_fc1",0,0,2,5)
ShowMessage("\\n<Yayoi>Fufu, such a wonderful expression...\nAre my palms that enjoyable?")
250(bytes(0x04,0x08,0x6f,0x3a,0x0c,0x52,0x50,0x47,0x3a,0x3a,0x53,0x45,0x08,0x3a,0x0a,0x40,0x6e,0x61,0x6d,0x65,0x49,0x22,0x12,0x6d,0x6f,0x6e,0x5f,0x65,0x72,0x6f,0x5f,0x6b,0x6f,0x6b,0x69,0x31,0x06,0x3a,0x06,0x45,0x54,0x3a,0x0b,0x40,0x70,0x69,0x74,0x63,0x68,0x69,0x69,0x3a,0x0c,0x40,0x76,0x6f,0x6c,0x75,0x6d,0x65,0x69,0x69))
ChangeVariable(11,11,0,2,145,155)
311(0,1,1,1,11,true)
ShowMessageFace("",0,0,2,6)
ShowMessage("With expert strokes, she stimulated the entirety of Luka's shaft! Her sublime technique brought Luka closer to climax!\\D")
ShowMessage("Luka takes \\V[11] damage!")
ChangeVariable(27,27,0,3,3,1,2)
If(1,27,0,0,0)
 RunCommonEvent(7256)
 EndEventProcessing()
 0()
EndIf()
ShowMessageFace("mob_samurai_fc1",0,0,2,7)
ShowMessage("\\n<Yayoi>Hm, you are more resilient than I thought...\nwhy don't you have a taste of something more advanced?")
250(bytes(0x04,0x08,0x6f,0x3a,0x0c,0x52,0x50,0x47,0x3a,0x3a,0x53,0x45,0x08,0x3a,0x0a,0x40,0x6e,0x61,0x6d,0x65,0x49,0x22,0x12,0x6d,0x6f,0x6e,0x5f,0x65,0x72,0x6f,0x5f,0x6b,0x6f,0x6b,0x69,0x31,0x06,0x3a,0x06,0x45,0x54,0x3a,0x0b,0x40,0x70,0x69,0x74,0x63,0x68,0x69,0x69,0x3a,0x0c,0x40,0x76,0x6f,0x6c,0x75,0x6d,0x65,0x69,0x69))
ChangeVariable(11,11,0,2,145,155)
311(0,1,1,1,11,true)
ShowMessageFace("",0,0,2,8)
ShowMessage("Yayoi smoothly stroked up and down with her hands!\nThe sublime sensation intensified!\\D")
ShowMessage("Luka takes \\V[11] damage!")
ChangeVariable(27,27,0,3,3,1,2)
If(1,27,0,0,0)
 RunCommonEvent(7256)
 EndEventProcessing()
 0()
EndIf()
ShowMessageFace("mob_samurai_fc1",0,0,2,9)
ShowMessage("\\n<Yayoi>...")
250(bytes(0x04,0x08,0x6f,0x3a,0x0c,0x52,0x50,0x47,0x3a,0x3a,0x53,0x45,0x08,0x3a,0x0a,0x40,0x6e,0x61,0x6d,0x65,0x49,0x22,0x12,0x6d,0x6f,0x6e,0x5f,0x65,0x72,0x6f,0x5f,0x6b,0x6f,0x6b,0x69,0x31,0x06,0x3a,0x06,0x45,0x54,0x3a,0x0b,0x40,0x70,0x69,0x74,0x63,0x68,0x69,0x69,0x3a,0x0c,0x40,0x76,0x6f,0x6c,0x75,0x6d,0x65,0x69,0x69))
ChangeVariable(11,11,0,2,145,155)
311(0,1,1,1,11,true)
ShowMessageFace("",0,0,2,10)
ShowMessage("Her soft hands continued to gently stroke Luka's penis!\nWith her fingers, she formed a ring around the head, and moved it up and down!\\D")
ShowMessage("Luka takes \\V[11] damage!")
ChangeVariable(27,27,0,3,3,1,2)
If(1,27,0,0,0)
 RunCommonEvent(7256)
 EndEventProcessing()
 0()
EndIf()
If(1,27,0,175,4)
 ShowMessageFace("ruka_fc1",0,0,2,11)
 ShowMessage("\\n<Luka>Aah, aah...")
 ShowMessageFace("mob_samurai_fc1",0,0,2,12)
 ShowMessage("\\n<Yayoi>These moans, they sound so sweet...\nIt's all right to let it all out in my palms, you know...")
 0()
Else()
 ShowMessageFace("mob_samurai_fc1",0,0,2,13)
 ShowMessage("\\n<Yayoi>For you to still be able to resist my techniques... It appears that I must go all-out.")
 0()
EndIf()
250(bytes(0x04,0x08,0x6f,0x3a,0x0c,0x52,0x50,0x47,0x3a,0x3a,0x53,0x45,0x08,0x3a,0x0a,0x40,0x6e,0x61,0x6d,0x65,0x49,0x22,0x12,0x6d,0x6f,0x6e,0x5f,0x65,0x72,0x6f,0x5f,0x6b,0x6f,0x6b,0x69,0x31,0x06,0x3a,0x06,0x45,0x54,0x3a,0x0b,0x40,0x70,0x69,0x74,0x63,0x68,0x69,0x69,0x3a,0x0c,0x40,0x76,0x6f,0x6c,0x75,0x6d,0x65,0x69,0x69))
ChangeVariable(11,11,0,2,145,155)
311(0,1,1,1,11,true)
ShowMessageFace("",0,0,2,14)
ShowMessage("Yayoi's strokes increased in speed!\nWith her supple fingers, Luka's penis hardened even further!\\D")
ShowMessage("Luka takes \\V[11] damage!")
ChangeVariable(27,27,0,3,3,1,2)
If(1,27,0,0,0)
 RunCommonEvent(7256)
 EndEventProcessing()
 0()
EndIf()
250(bytes(0x04,0x08,0x6f,0x3a,0x0c,0x52,0x50,0x47,0x3a,0x3a,0x53,0x45,0x08,0x3a,0x0a,0x40,0x6e,0x61,0x6d,0x65,0x49,0x22,0x12,0x6d,0x6f,0x6e,0x5f,0x65,0x72,0x6f,0x5f,0x6b,0x6f,0x6b,0x69,0x31,0x06,0x3a,0x06,0x45,0x54,0x3a,0x0b,0x40,0x70,0x69,0x74,0x63,0x68,0x69,0x69,0x3a,0x0c,0x40,0x76,0x6f,0x6c,0x75,0x6d,0x65,0x69,0x69))
ChangeVariable(11,11,0,2,145,155)
311(0,1,1,1,11,true)
ShowMessageFace("",0,0,2,15)
ShowMessage("She stimulated his glans with the flat of her palm.\nWith her other hand, she lightly stroked the undershaft!\\D")
ShowMessage("Luka takes \\V[11] damage!")
ChangeVariable(27,27,0,3,3,1,2)
If(1,27,0,0,0)
 RunCommonEvent(7256)
 EndEventProcessing()
 0()
EndIf()
ShowMessageFace("mob_samurai_fc1",0,0,2,16)
ShowMessage("\\n<Yayoi>Fufu, does it not feel heavenly?\nJust give up, and I'll show you heavenly pleasures...")
250(bytes(0x04,0x08,0x6f,0x3a,0x0c,0x52,0x50,0x47,0x3a,0x3a,0x53,0x45,0x08,0x3a,0x0a,0x40,0x6e,0x61,0x6d,0x65,0x49,0x22,0x12,0x6d,0x6f,0x6e,0x5f,0x65,0x72,0x6f,0x5f,0x6b,0x6f,0x6b,0x69,0x31,0x06,0x3a,0x06,0x45,0x54,0x3a,0x0b,0x40,0x70,0x69,0x74,0x63,0x68,0x69,0x69,0x3a,0x0c,0x40,0x76,0x6f,0x6c,0x75,0x6d,0x65,0x69,0x69))
ChangeVariable(11,11,0,2,145,155)
311(0,1,1,1,11,true)
ShowMessageFace("",0,0,2,17)
ShowMessage("Yayoi continues to skillfully stimulate Luka!\nShe massages Luka's glans with her finger-ring!\\D")
ShowMessage("Luka takes \\V[11] damage!")
ChangeVariable(27,27,0,3,3,1,2)
If(1,27,0,0,0)
 RunCommonEvent(7256)
 EndEventProcessing()
 0()
EndIf()
250(bytes(0x04,0x08,0x6f,0x3a,0x0c,0x52,0x50,0x47,0x3a,0x3a,0x53,0x45,0x08,0x3a,0x0a,0x40,0x6e,0x61,0x6d,0x65,0x49,0x22,0x12,0x6d,0x6f,0x6e,0x5f,0x65,0x72,0x6f,0x5f,0x6b,0x6f,0x6b,0x69,0x31,0x06,0x3a,0x06,0x45,0x54,0x3a,0x0b,0x40,0x70,0x69,0x74,0x63,0x68,0x69,0x69,0x3a,0x0c,0x40,0x76,0x6f,0x6c,0x75,0x6d,0x65,0x69,0x69))
ChangeVariable(11,11,0,2,145,155)
311(0,1,1,1,11,true)
ShowMessageFace("",0,0,2,18)
ShowMessage("She took her left hand off Luka's shaft and started to grab and massage his balls! Meanwhile, her right hand continues to rotate and squeeze around Luka's shaft!\\D")
ShowMessage("Luka takes \\V[11] damage!")
ChangeVariable(27,27,0,3,3,1,2)
If(1,27,0,0,0)
 RunCommonEvent(7256)
 EndEventProcessing()
 0()
EndIf()
ShowMessageFace("mob_samurai_fc1",0,0,2,19)
ShowMessage("\\n<Yayoi>Here comes the finishing blow!\nNow, let it out disgracefully all over my hand!")
250(bytes(0x04,0x08,0x6f,0x3a,0x0c,0x52,0x50,0x47,0x3a,0x3a,0x53,0x45,0x08,0x3a,0x0a,0x40,0x6e,0x61,0x6d,0x65,0x49,0x22,0x12,0x6d,0x6f,0x6e,0x5f,0x65,0x72,0x6f,0x5f,0x6b,0x6f,0x6b,0x69,0x31,0x06,0x3a,0x06,0x45,0x54,0x3a,0x0b,0x40,0x70,0x69,0x74,0x63,0x68,0x69,0x69,0x3a,0x0c,0x40,0x76,0x6f,0x6c,0x75,0x6d,0x65,0x69,0x69))
ChangeVariable(11,11,0,2,145,155)
311(0,1,1,1,11,true)
ShowMessageFace("",0,0,2,20)
ShowMessage("Yayoi continued to attack Luka's glans, but quickly increases her intensity! The tip of his penis is suffused with an unbearably pleasant sensation...\\D")
ShowMessage("Luka takes \\V[11] damage!")
ChangeVariable(27,27,0,3,3,1,2)
If(1,27,0,0,0)
 RunCommonEvent(7256)
 EndEventProcessing()
 0()
EndIf()
RunCommonEvent(7254)
EndEventProcessing()
0()
