﻿// EVENT 5093
Name "Warmer 3"

PictureDisplay(5,"80_warmer_st02",0,0,0,0,100,100,0,0)
PictureMove(5,null,0,0,0,0,100,100,255,0,30,true)
ShowMessageFace("",0,0,2,1)
ShowMessage("\\n<Luka>P-please...")
ShowMessageFace("warmer_fc1",1,0,2,2)
ShowMessage("\\n<Elma>Energy... Let me suck...")
ShowMessageFace("",0,0,2,3)
ShowMessage("\\n<Luka>...?")
ShowMessageFace("",0,0,2,4)
ShowMessage("Elma approaches me as I'm dumbfounded.\nHer eyes show no signs of rational thinking, she seems to be driven by her thirst for energy.")
ShowMessageFace("",0,0,2,5)
ShowMessage("Elma tightly clings to me and I fall over...")
ShowMessageFace("",0,0,2,6)
ShowMessage("\\n<Luka>Wh-what...Uwaaa!")
241(bytes(0x04,0x08,0x6f,0x3a,0x0d,0x52,0x50,0x47,0x3a,0x3a,0x42,0x47,0x4d,0x08,0x3a,0x0a,0x40,0x6e,0x61,0x6d,0x65,0x49,0x22,0x09,0x65,0x72,0x6f,0x31,0x06,0x3a,0x06,0x45,0x54,0x3a,0x0c,0x40,0x76,0x6f,0x6c,0x75,0x6d,0x65,0x69,0x69,0x3a,0x0b,0x40,0x70,0x69,0x74,0x63,0x68,0x69,0x69))
PictureDisplay(5,"ev_warmer_hb1",0,0,0,0,100,100,255,0)
ShowMessageFace("",0,0,2,7)
ShowMessage("Just like that, Elma holds me tight.\nHer sticky skin rubs over my entire body.")
ShowMessageFace("",0,0,2,8)
ShowMessage("On top of that, a large amount of mucus comes off her skin... I feel like my body is drowning in a sea of mucus.")
ShowMessageFace("",0,0,2,9)
ShowMessage("\\n<Luka>Aaah...What is this...")
ShowMessageFace("",0,0,2,10)
ShowMessage("Her mucus probably contains some kind of aphrodisiac.\nI feel I'm losing my strength just by being hugged and covered in Elma's slime.")
ShowMessageFace("warmer_fc1",1,0,2,11)
ShowMessage("\\n<Elma>Mate... Semen, squeeze...")
245(bytes(0x04,0x08,0x6f,0x3a,0x0d,0x52,0x50,0x47,0x3a,0x3a,0x42,0x47,0x53,0x08,0x3a,0x0a,0x40,0x6e,0x61,0x6d,0x65,0x49,0x22,0x1e,0x6d,0x6f,0x6e,0x5f,0x68,0x73,0x65,0x61,0x6e,0x30,0x39,0x5f,0x69,0x6e,0x6e,0x65,0x72,0x77,0x6f,0x72,0x6b,0x73,0x5f,0x62,0x31,0x06,0x3a,0x06,0x45,0x54,0x3a,0x0c,0x40,0x76,0x6f,0x6c,0x75,0x6d,0x65,0x69,0x55,0x3a,0x0b,0x40,0x70,0x69,0x74,0x63,0x68,0x69,0x69))
PictureDisplay(5,"ev_warmer_hb2",0,0,0,0,100,100,255,0)
ShowMessageFace("",0,0,2,12)
ShowMessage("Like that, Elma rubs her slippery waist against mine...\nAnd slides my penis inside her vagina!")
ShowMessageFace("",0,0,2,13)
ShowMessage("\\n<Luka>Ah, Auuu...!")
ShowMessageFace("",0,0,2,14)
ShowMessage("Just like her skin, Elma's vagina is slimy and slippery. Threads of mucus drip on my penis, getting it all slimy.")
ShowMessageFace("",0,0,2,15)
ShowMessage("The sticky feeling is quite pleasant.\nA large amount of mucus covers my penis and it feels like it's melting inside her.")
ShowMessageFace("warmer_fc1",1,0,2,16)
ShowMessage("\\n<Elma>Penis...inside...")
ShowMessageFace("",0,0,2,17)
ShowMessage("\\n<Luka>Aaah, amazing... So sticky...")
ShowMessageFace("",0,0,2,18)
ShowMessage("I enjoy the touch of Elma's mucus and cling to her body.\nMy whole body is covered in a sticky feeling and it feels like I'm just melting away.")
ShowMessageFace("",0,0,2,19)
ShowMessage("My penis is drowning in her mucus-filled honeypot...\nThese slimy feelings drive me into a corner in no time at all...")
ShowMessageFace("",0,0,2,20)
ShowMessage("\\n<Luka>This... Impossible...I'm already coming...!")
ShowMessageFace("",0,0,2,21)
ShowMessage("I can barely endure, and the feeling of release already takes over me. Elma just keeps clinging to me and smiles...")
ShowMessageFace("warmer_fc1",1,0,2,22)
ShowMessage("\\n<Elma>White, leaking...?\nFill me, please...")
ShowMessageFace("",0,0,2,23)
ShowMessage("Just like that, my hips start trembling.\nMy penis also starts trembling inside her mucus-filled vagina...")
ShowMessageFace("",0,0,2,24)
ShowMessage("\\n<Luka>Ah, aaaaah...!")
RunCommonEvent(104)
PictureDisplay(5,"ev_warmer_hb3",0,0,0,0,100,100,255,0)
RunCommonEvent(105)
ShowMessageFace("",0,0,2,25)
ShowMessage("I shoot my semen while clinging tightly to Elma.\nWhile tasting the slimy feeling of her vagina, the feeling of release spreads through my waist...")
PictureDisplay(5,"ev_warmer_hb4",0,0,0,0,100,100,255,0)
ShowMessageFace("",0,0,2,26)
ShowMessage("\\n<Luka>Ah...aaaah...")
ShowMessageFace("",0,0,2,27)
ShowMessage("Even after I finish ejaculating, Elma doesn't let go of my body. She looks at my face, apparently fascinated...")
ShowMessageFace("warmer_fc1",1,0,2,28)
ShowMessage("\\n<Elma>Semen, tasty... Give me more...")
PictureDisplay(5,"ev_warmer_hb5",0,0,0,0,100,100,255,0)
ShowMessageFace("",0,0,2,29)
ShowMessage("Elma's cheeks puff up...")
PictureDisplay(5,"ev_warmer_hb6",0,0,0,0,100,100,255,0)
ShowMessageFace("warmer_fc1",1,0,2,30)
ShowMessage("\\n<Elma>Nhb, ueeee...")
ShowMessageFace("",0,0,2,31)
ShowMessage("In the next moment, mucus gushes out of her mouth and splashes all over me!")
ShowMessageFace("",0,0,2,32)
ShowMessage("\\n<Luka>Ah...! Aaaaaah!!")
ShowMessageFace("",0,0,2,33)
ShowMessage("The moment her mucus covers my body, my consciousness slowly starts to fade. The fluid containing aphrodisiac takes over my entire body and clouds my reasoning.")
ShowMessageFace("",0,0,2,34)
ShowMessage("My waist bounces up and pushes into Elma's vagina.\nIt really feels like my penis is drowning in her mucus-filled vagina...")
PictureDisplay(5,"ev_warmer_hb7",0,0,0,0,100,100,255,0)
ShowMessageFace("warmer_fc1",1,0,2,35)
ShowMessage("\\n<Elma>Come... Come...")
ShowMessageFace("",0,0,2,36)
ShowMessage("\\n<Luka>Fuaaa...aaah...")
ShowMessageFace("",0,0,2,37)
ShowMessage("Elma starts moving her waist impatiently, stimulating my penis. I melt from the feeling of her vagina pulling on my glans.")
ShowMessageFace("",0,0,2,38)
ShowMessage("My reasoning is blown away and I no longer feel in control of myself. While tasting the pleasure of the mucus, I give myself over to the feeling of release...")
RunCommonEvent(104)
PictureDisplay(5,"ev_warmer_hb8",0,0,0,0,100,100,255,0)
RunCommonEvent(105)
ShowMessageFace("",0,0,2,39)
ShowMessage("And, my semen bursts inside her.\nI release a healthy amount of semen as I feel I'm ascending to heaven.")
ShowMessageFace("warmer_fc1",1,0,2,40)
ShowMessage("\\n<Elma>A lot is coming out... Penis, throbbing...")
ShowMessageFace("",0,0,2,41)
ShowMessage("\\n<Luka>Auuu...")
ShowMessageFace("",0,0,2,42)
ShowMessage("Clinging to Elma's body, I drown in the sensation of her mucus while ejaculating... My heart melts from all the pleasant sensations.")
PictureDisplay(5,"ev_warmer_hb9",0,0,0,0,100,100,255,0)
ShowMessageFace("warmer_fc1",1,0,2,43)
ShowMessage("\\n<Elma>More... Give me more...")
ShowMessageFace("",0,0,2,44)
ShowMessage("\\n<Luka>ah...uu...")
ShowMessageFace("",0,0,2,45)
ShowMessage("I'm covered in mucus and embraced by Elma.\nThe mating continues and a lot of semen is squeezed out of me...")
221()
PictureClear(5)
PictureClear(6)
246(2)
ShowMessageFace("",0,0,2,46)
ShowMessage("When the morning came, I lost consciousness.\nDespite that, Elma continued to rape me...")
ShowMessageFace("",0,0,2,47)
ShowMessage("The rape didn't end until my comrades found us and pulled her off me...")
ShowMessageFace("",0,0,2,48)
ShowMessage("......")
RunCommonEvent(3998)
0()
