﻿// EVENT 0800
Name "Legendary Get"

If(1,123,0,1,0)
 RunCommonEvent(815)
 EndEventProcessing()
 0()
EndIf()
If(1,123,0,2,0)
 RunCommonEvent(818)
 EndEventProcessing()
 0()
EndIf()
If(1,123,0,3,0)
 RunCommonEvent(806)
 EndEventProcessing()
 0()
EndIf()
If(1,123,0,4,0)
 RunCommonEvent(812)
 EndEventProcessing()
 0()
EndIf()
If(1,123,0,5,0)
 RunCommonEvent(803)
 EndEventProcessing()
 0()
EndIf()
If(1,123,0,6,0)
 RunCommonEvent(809)
 EndEventProcessing()
 0()
EndIf()
If(1,123,0,7,0)
 RunCommonEvent(821)
 EndEventProcessing()
 0()
EndIf()
If(1,123,0,8,0)
 JumpToLabel("ランダム")
 0()
EndIf()
If(1,123,0,9,1)
 ChangeVariable(11,11,0,2,1,64)
 If(1,11,0,1,0)
  RunCommonEvent(824)
  EndEventProcessing()
  0()
 Else()
  JumpToLabel("ランダム")
  0()
 EndIf()
 0()
EndIf()
DefineLabel("ランダム")
ChangeVariable(11,11,0,2,1,7)
If(1,11,0,1,0)
 RunCommonEvent(815)
 EndEventProcessing()
 0()
EndIf()
If(1,11,0,2,0)
 RunCommonEvent(818)
 EndEventProcessing()
 0()
EndIf()
If(1,11,0,3,0)
 RunCommonEvent(806)
 EndEventProcessing()
 0()
EndIf()
If(1,11,0,4,0)
 RunCommonEvent(812)
 EndEventProcessing()
 0()
EndIf()
If(1,11,0,5,0)
 RunCommonEvent(803)
 EndEventProcessing()
 0()
EndIf()
If(1,11,0,6,0)
 RunCommonEvent(809)
 EndEventProcessing()
 0()
EndIf()
If(1,11,0,7,0)
 RunCommonEvent(821)
 EndEventProcessing()
 0()
EndIf()
0()
