﻿// EVENT 5797
Name "Rベルゼバブ"

If(0,443,0)
 PictureDisplay(5,"80_beelzebub_st01",0,0,0,0,100,100,255,0)
 0()
EndIf()
242(1)
250(bytes(0x04,0x08,0x6f,0x3a,0x0c,0x52,0x50,0x47,0x3a,0x3a,0x53,0x45,0x08,0x3a,0x0a,0x40,0x6e,0x61,0x6d,0x65,0x49,0x22,0x0a,0x7a,0x69,0x68,0x6f,0x75,0x06,0x3a,0x06,0x45,0x54,0x3a,0x0b,0x40,0x70,0x69,0x74,0x63,0x68,0x69,0x69,0x3a,0x0c,0x40,0x76,0x6f,0x6c,0x75,0x6d,0x65,0x69,0x55))
Wait(60)
ShowMessageFace("",0,0,2,1)
ShowMessage("その時――城内に、五時の鐘が鳴り響いた。")
241(bytes(0x04,0x08,0x6f,0x3a,0x0d,0x52,0x50,0x47,0x3a,0x3a,0x42,0x47,0x4d,0x08,0x3a,0x0a,0x40,0x6e,0x61,0x6d,0x65,0x49,0x22,0x09,0x65,0x72,0x6f,0x31,0x06,0x3a,0x06,0x45,0x54,0x3a,0x0c,0x40,0x76,0x6f,0x6c,0x75,0x6d,0x65,0x69,0x69,0x3a,0x0b,0x40,0x70,0x69,0x74,0x63,0x68,0x69,0x69))
ShowMessageFace("beelzebub_fc1",0,0,2,2)
ShowMessage("【バーバレラ】")
ShowMessage("さて、普通の食事で腹を膨らませた後は……")
ShowMessage("男の精を頂こうかしら。")
ShowMessageFace("",0,0,2,3)
ShowMessage("【ルカ】")
ShowMessage("えっ……！？")
PictureDisplay(5,"ev_beelzebub_hd1",0,0,0,0,100,100,255,0)
ShowMessageFace("",0,0,2,4)
ShowMessage("バーバレラとストリガは、巨大な腹部に並ぶ乳房を見せつけ――")
ShowMessage("甘い淫臭を漂わせながら、迫ってきた。")
ShowMessageFace("beelzebub_fc1",0,0,2,5)
ShowMessage("【バーバレラ】")
ShowMessage("あなたの精、たっぷりと吸わせてもらうわ。")
ShowMessage("ふふふっ、ついでに生殖もしたいわねぇ……")
ShowMessageFace("beelzebub_fc2",0,0,2,6)
ShowMessage("【ストリガ】")
ShowMessage("この機会に、たっぷりと交わりましょう。")
ShowMessage("さて、誰から最初に始めますか……？")
ShowMessageFace("beelzebub_fc3",0,0,2,7)
ShowMessage("【メディア】")
ShowMessage("私は、後でいいよ。")
ShowMessage("ゆっくりと、落ち着いてしたいし……")
ShowMessageFace("beelzebub_fc1",0,0,2,8)
ShowMessage("【バーバレラ】")
ShowMessage("それじゃあ、まずは私が――")
ShowMessageFace("",0,0,2,9)
ShowMessage("【ルカ】")
ShowMessage("く、来るな……あぁぁぁっ！")
ShowMessageFace("",0,0,2,10)
ShowMessage("乳房の並んだバーバレラの腹部が、眼前にまで迫り――")
245(bytes(0x04,0x08,0x6f,0x3a,0x0d,0x52,0x50,0x47,0x3a,0x3a,0x42,0x47,0x53,0x08,0x3a,0x0a,0x40,0x6e,0x61,0x6d,0x65,0x49,0x22,0x17,0x6d,0x6f,0x6e,0x5f,0x68,0x73,0x65,0x61,0x6e,0x31,0x37,0x5f,0x73,0x69,0x67,0x6f,0x6b,0x69,0x06,0x3a,0x06,0x45,0x54,0x3a,0x0c,0x40,0x76,0x6f,0x6c,0x75,0x6d,0x65,0x69,0x55,0x3a,0x0b,0x40,0x70,0x69,0x74,0x63,0x68,0x69,0x69))
PictureDisplay(5,"ev_beelzebub_hb1",0,0,0,0,100,100,255,0)
ShowMessageFace("",0,0,2,11)
ShowMessage("【ルカ】")
ShowMessage("う……うぐっ……！！")
ShowMessageFace("",0,0,2,12)
ShowMessage("そのまま僕は、みっちりと並ぶおっぱいに埋もれてしまった。")
ShowMessage("全身に柔らかな感触が密着し、甘い温もりに身を任せてしまう――")
ShowMessageFace("beelzebub_fc1",0,0,2,13)
ShowMessage("【バーバレラ】")
ShowMessage("さあ、そのまま中に出しなさい。")
ShowMessage("乳に溺れて、情けなく果てるのよ……")
ShowMessageFace("",0,0,2,14)
ShowMessage("【ルカ】")
ShowMessage("はぅぅぅぅ……")
RunCommonEvent(104)
RunCommonEvent(105)
ShowMessageFace("",0,0,2,15)
ShowMessage("柔らかな乳房に埋もれ、僕はあっという間にイってしまった。")
ShowMessage("そして、バーバレラに精液を捧げてしまう――")
ShowMessageFace("beelzebub_fc1",1,0,2,16)
ShowMessage("【バーバレラ】")
ShowMessage("ふふっ、新鮮な精がたっぷりと……")
ShowMessage("半分は味わって、半分は生殖に使うわね。")
ShowMessageFace("beelzebub_fc2",0,0,2,17)
ShowMessage("【ストリガ】")
ShowMessage("それでは、次は私が――")
PictureDisplay(5,"ev_beelzebub_hc1",0,0,0,0,100,100,255,0)
ShowMessageFace("",0,0,2,18)
ShowMessage("【ルカ】")
ShowMessage("あぁぁぁ……")
ShowMessageFace("",0,0,2,19)
ShowMessage("続けて僕は、ストリガの腹部に抱かれていた。")
ShowMessage("体に乳房が密着すると同時に、ペニスが生殖孔に咥え込まれる。")
ShowMessageFace("",0,0,2,20)
ShowMessage("まるで、甘い抱擁を受けているかのような心地――")
ShowMessage("僕はたちまちにして、ストリガとの交尾に溺れてしまった。")
ShowMessageFace("",0,0,2,21)
ShowMessage("【ルカ】")
ShowMessage("はぅぅ……気持ちいいよぉ……")
ShowMessageFace("beelzebub_fc2",0,0,2,22)
ShowMessage("【ストリガ】")
ShowMessage("ふふっ、良い子ですね……")
ShowMessage("そのまま、子種を中にたっぷり出してしまいなさい。")
ShowMessageFace("",0,0,2,23)
ShowMessage("【ルカ】")
ShowMessage("あぅ……あぁぁぁ……")
RunCommonEvent(104)
RunCommonEvent(105)
ShowMessageFace("",0,0,2,24)
ShowMessage("そして、言われるがままに搾精腔の中へと射精する。")
ShowMessage("ストリガの中に、たっぷりと種付けしてしまったのだった――")
ShowMessageFace("beelzebub_fc1",0,0,2,25)
ShowMessage("【バーバレラ】")
ShowMessage("メディア、あなたは後でいいのよね？")
ShowMessageFace("beelzebub_fc3",0,0,2,26)
ShowMessage("【メディア】")
ShowMessage("うん……輪姦って、落ち着かないし。")
ShowMessageFace("beelzebub_fc1",1,0,2,27)
ShowMessage("【バーバレラ】")
ShowMessage("それでは、次はまた私が……")
PictureDisplay(5,"ev_beelzebub_hb2",0,0,0,0,100,100,255,0)
ShowMessageFace("",0,0,2,28)
ShowMessage("【ルカ】")
ShowMessage("う……うぅぅぅ……")
ShowMessageFace("",0,0,2,29)
ShowMessage("そしてまた、バーバレラの腹部に埋もれてしまう。")
ShowMessage("全身が柔らかなおっぱいに包まれ、僕は恍惚に浸った。")
ShowMessageFace("beelzebub_fc1",1,0,2,30)
ShowMessage("【バーバレラ】")
ShowMessage("うふふっ、いい気持ちよねぇ……")
ShowMessage("このまま、ずっとおっぱいに溺れてもいいのよ。")
ShowMessageFace("",0,0,2,31)
ShowMessage("【ルカ】")
ShowMessage("あ……あぁぁぁ……")
RunCommonEvent(104)
RunCommonEvent(105)
ShowMessageFace("",0,0,2,32)
ShowMessage("温かく柔らかなおっぱいに浸かりながら、精液を垂れ流す。")
ShowMessage("この頃には、すっかり僕は恍惚に溺れていた――")
PictureDisplay(5,"ev_beelzebub_hc2",0,0,0,0,100,100,255,0)
ShowMessageFace("beelzebub_fc2",0,0,2,33)
ShowMessage("【ストリガ】")
ShowMessage("次は私……")
ShowMessage("ほぉら、たっぷり交尾させてあげるわ。")
ShowMessageFace("",0,0,2,34)
ShowMessage("【ルカ】")
ShowMessage("はぅ……あ、うぅぅぅ……")
ShowMessageFace("",0,0,2,35)
ShowMessage("顔を乳房に挟み込まれながら、へこへこと腰を動かす。")
ShowMessage("柔らかくぬめった感触が、ペニスを溶かすように甘やかし――")
ShowMessageFace("",0,0,2,36)
ShowMessage("【ルカ】")
ShowMessage("あぁぁぁ……気持ちいいよぉ……")
RunCommonEvent(104)
RunCommonEvent(105)
ShowMessageFace("",0,0,2,37)
ShowMessage("そして、搾精腔に大量の子種を捧げてしまった。")
ShowMessage("僕の頭はすっかりとろけ、柔らかな乳房に溺れきっている――")
ShowMessageFace("beelzebub_fc2",0,0,2,38)
ShowMessage("【ストリガ】")
ShowMessage("ふふっ、たっぷり出しましたね。")
ShowMessage("それでは、ハグのご褒美を……")
PictureDisplay(5,"ev_beelzebub_hc3",0,0,0,0,100,100,255,0)
ShowMessageFace("beelzebub_fc2",0,0,2,39)
ShowMessage("【ストリガ】")
ShowMessage("……ぎゅぅぅっ♡")
ShowMessageFace("",0,0,2,40)
ShowMessage("【ルカ】")
ShowMessage("ふぁぁぁぁ……")
ShowMessageFace("",0,0,2,41)
ShowMessage("全身が、腹部で巻き取るように抱擁される。")
ShowMessage("無数のおっぱいにみっちり圧迫され、夢のような快感を味わった。")
ShowMessageFace("",0,0,2,42)
ShowMessage("【ルカ】")
ShowMessage("はぅ……あ、あぁぁぁ……")
RunCommonEvent(104)
RunCommonEvent(105)
ShowMessageFace("",0,0,2,43)
ShowMessage("そして、連続でどっぷりと精を捧げたのである。")
ShowMessage("こうして僕は、ベルゼバブ達に延々と犯され――")
PictureDisplay(5,"ev_beelzebub_hd2",0,0,0,0,100,100,255,0)
ShowMessageFace("",0,0,2,44)
ShowMessage("【ルカ】")
ShowMessage("ふぁぁぁぁ……")
ShowMessageFace("beelzebub_fc1",0,0,2,45)
ShowMessage("【バーバレラ】")
ShowMessage("ふふっ……すっかり理性を失ってしまったわね。")
ShowMessageFace("beelzebub_fc2",0,0,2,46)
ShowMessage("【ストリガ】")
ShowMessage("もうあなたは、交尾の虜……")
ShowMessage("このまま、涸れ果てるまで種付けを続けるのですよ。")
ShowMessageFace("beelzebub_fc3",0,0,2,47)
ShowMessage("【メディア】")
ShowMessage("おいしい……れろれろ……")
ShowMessageFace("",0,0,2,48)
ShowMessage("【ルカ】")
ShowMessage("あぅ……あ、あぁぁぁ……")
RunCommonEvent(104)
RunCommonEvent(105)
ShowMessageFace("",0,0,2,49)
ShowMessage("ベルゼバブ三人に、延々と体を貪られ――")
ShowMessage("何度も何度も、精液を搾取され――")
ShowMessageFace("",0,0,2,50)
ShowMessage("【ルカ】")
ShowMessage("……………………")
ShowMessageFace("",0,0,2,51)
ShowMessage("僕が動かなくなるまで、ベルゼバブの狂宴は続けられた。")
ShowMessage("交尾の糧となり、力尽きてしまったのである――")
221()
PictureClear(5)
242(1)
246(1)
ShowMessageFace("",0,0,2,52)
ShowMessage("・・・・・・・・")
221()
Wait(120)
If(0,443,0)
 EndEventProcessing()
 0()
EndIf()
RunCommonEvent(541)
0()
