﻿// EVENT 5795
Name "Rアラディア"

If(0,443,0)
 PictureDisplay(5,"80_aradia_st01",0,0,0,0,100,100,255,0)
 0()
EndIf()
242(1)
250(bytes(0x04,0x08,0x6f,0x3a,0x0c,0x52,0x50,0x47,0x3a,0x3a,0x53,0x45,0x08,0x3a,0x0a,0x40,0x6e,0x61,0x6d,0x65,0x49,0x22,0x0a,0x7a,0x69,0x68,0x6f,0x75,0x06,0x3a,0x06,0x45,0x54,0x3a,0x0b,0x40,0x70,0x69,0x74,0x63,0x68,0x69,0x69,0x3a,0x0c,0x40,0x76,0x6f,0x6c,0x75,0x6d,0x65,0x69,0x55))
Wait(60)
ShowMessageFace("",0,0,2,1)
ShowMessage("その時――城内に、五時の鐘が鳴り響いた。")
241(bytes(0x04,0x08,0x6f,0x3a,0x0d,0x52,0x50,0x47,0x3a,0x3a,0x42,0x47,0x4d,0x08,0x3a,0x0a,0x40,0x6e,0x61,0x6d,0x65,0x49,0x22,0x09,0x65,0x72,0x6f,0x31,0x06,0x3a,0x06,0x45,0x54,0x3a,0x0c,0x40,0x76,0x6f,0x6c,0x75,0x6d,0x65,0x69,0x69,0x3a,0x0b,0x40,0x70,0x69,0x74,0x63,0x68,0x69,0x69))
ShowMessageFace("aradia_fc1",0,0,2,2)
ShowMessage("【アラディア】")
ShowMessage("それでは、とっておきの食材を料理しましょうか。")
ShowMessageFace("",0,0,2,3)
ShowMessage("【ルカ】")
ShowMessage("え……？")
ShowMessageFace("",0,0,2,4)
ShowMessage("不意に、アラディアの顔が淫蕩さを増した。")
ShowMessage("そして、異様な魔術を使うと――")
ShowMessageFace("",0,0,2,5)
ShowMessage("【ルカ】")
ShowMessage("あ……あぁぁっ！！")
245(bytes(0x04,0x08,0x6f,0x3a,0x0d,0x52,0x50,0x47,0x3a,0x3a,0x42,0x47,0x53,0x08,0x3a,0x0a,0x40,0x6e,0x61,0x6d,0x65,0x49,0x22,0x17,0x6d,0x6f,0x6e,0x5f,0x68,0x73,0x65,0x61,0x6e,0x31,0x37,0x5f,0x73,0x69,0x67,0x6f,0x6b,0x69,0x06,0x3a,0x06,0x45,0x54,0x3a,0x0c,0x40,0x76,0x6f,0x6c,0x75,0x6d,0x65,0x69,0x55,0x3a,0x0b,0x40,0x70,0x69,0x74,0x63,0x68,0x69,0x69))
PictureDisplay(5,"ev_aradia_he1",0,0,0,0,100,100,255,0)
ShowMessageFace("",0,0,2,6)
ShowMessage("たちまち、周囲を埋め尽くす無数の乳房。")
ShowMessage("僕の体は、柔らかなおっぱいに埋もれてしまった――")
ShowMessageFace("",0,0,2,7)
ShowMessage("【ルカ】")
ShowMessage("な、何を……うぅぅっ……！")
ShowMessageFace("aradia_fc1",1,0,2,8)
ShowMessage("【アラディア】")
ShowMessage("メインディッシュは、あなたです……")
ShowMessage("さあ、たっぷりと白濁のソースを振る舞ってもらいましょう。")
ShowMessageFace("",0,0,2,9)
ShowMessage("【ルカ】")
ShowMessage("そんな……はぅぅぅっ！！")
ShowMessageFace("",0,0,2,10)
ShowMessage("柔らかなおっぱいの間で、全身がむにゅむにゅと圧迫される。")
ShowMessage("ペニスもぎゅっと挟み込まれ、押し潰されるような刺激を受けた。")
ShowMessageFace("",0,0,2,11)
ShowMessage("その快感に、たちまち頭の中が真っ白になり――")
ShowMessageFace("",0,0,2,12)
ShowMessage("【ルカ】")
ShowMessage("出ちゃうよぉ……あ、はぅぅぅっ！！")
RunCommonEvent(104)
RunCommonEvent(105)
ShowMessageFace("",0,0,2,13)
ShowMessage("あえなく、おっぱいの谷間にどっぷりと精液を放っていた。")
ShowMessage("あまりの気持ち良さに、体の力が抜けていく――")
ShowMessageFace("aradia_fc1",1,0,2,14)
ShowMessage("【アラディア】")
ShowMessage("ふふっ、たっぷりと発射しましたね。")
ShowMessage("ですが、この程度では足りませんよ……")
ShowMessageFace("aradia_fc1",1,0,2,15)
ShowMessage("【アラディア】")
ShowMessage("もっとたくさん、白濁を撒き散らしなさい。")
ShowMessage("私の乳房を、白いソースで染めるのです……")
ShowMessageFace("",0,0,2,16)
ShowMessage("【ルカ】")
ShowMessage("そんな……あ、あぅぅぅっ！！")
RunCommonEvent(104)
RunCommonEvent(105)
ShowMessageFace("",0,0,2,17)
ShowMessage("そのまま僕は、おっぱいに埋もれながら何度も何度も発射し――")
ShowMessage("無数の乳房を、白濁でどっぷりと染め上げたのだった。")
221()
PictureClear(5)
242(1)
246(1)
ShowMessageFace("",0,0,2,18)
ShowMessage("・・・・・・・・")
221()
Wait(120)
If(0,443,0)
 EndEventProcessing()
 0()
EndIf()
RunCommonEvent(541)
0()
