
DisplayName "Ancient Temple Ruins B1F"



EVENT   1
 PAGE   1
  250(bytes(0x04,0x08,0x6f,0x3a,0x0c,0x52,0x50,0x47,0x3a,0x3a,0x53,0x45,0x08,0x3a,0x0a,0x40,0x6e,0x61,0x6d,0x65,0x49,0x22,0x09,0x4d,0x6f,0x76,0x65,0x06,0x3a,0x06,0x45,0x54,0x3a,0x0b,0x40,0x70,0x69,0x74,0x63,0x68,0x69,0x69,0x3a,0x0c,0x40,0x76,0x6f,0x6c,0x75,0x6d,0x65,0x69,0x55))
  TeleportPlayer(0,110,30,21,0,0)
  0()



EVENT   2
 PAGE   1
  250(bytes(0x04,0x08,0x6f,0x3a,0x0c,0x52,0x50,0x47,0x3a,0x3a,0x53,0x45,0x08,0x3a,0x0a,0x40,0x6e,0x61,0x6d,0x65,0x49,0x22,0x09,0x4d,0x6f,0x76,0x65,0x06,0x3a,0x06,0x45,0x54,0x3a,0x0b,0x40,0x70,0x69,0x74,0x63,0x68,0x69,0x69,0x3a,0x0c,0x40,0x76,0x6f,0x6c,0x75,0x6d,0x65,0x69,0x55))
  TeleportPlayer(0,110,30,21,0,0)
  0()



EVENT   3
 PAGE   1
  250(bytes(0x04,0x08,0x6f,0x3a,0x0c,0x52,0x50,0x47,0x3a,0x3a,0x53,0x45,0x08,0x3a,0x0a,0x40,0x6e,0x61,0x6d,0x65,0x49,0x22,0x09,0x4d,0x6f,0x76,0x65,0x06,0x3a,0x06,0x45,0x54,0x3a,0x0b,0x40,0x70,0x69,0x74,0x63,0x68,0x69,0x69,0x3a,0x0c,0x40,0x76,0x6f,0x6c,0x75,0x6d,0x65,0x69,0x55))
  TeleportPlayer(0,110,30,21,0,0)
  0()



EVENT   4
 PAGE   1
  250(bytes(0x04,0x08,0x6f,0x3a,0x0c,0x52,0x50,0x47,0x3a,0x3a,0x53,0x45,0x08,0x3a,0x0a,0x40,0x6e,0x61,0x6d,0x65,0x49,0x22,0x09,0x4d,0x6f,0x76,0x65,0x06,0x3a,0x06,0x45,0x54,0x3a,0x0b,0x40,0x70,0x69,0x74,0x63,0x68,0x69,0x69,0x3a,0x0c,0x40,0x76,0x6f,0x6c,0x75,0x6d,0x65,0x69,0x55))
  TeleportPlayer(0,110,5,26,0,0)
  0()



EVENT   5
 PAGE   1
  250(bytes(0x04,0x08,0x6f,0x3a,0x0c,0x52,0x50,0x47,0x3a,0x3a,0x53,0x45,0x08,0x3a,0x0a,0x40,0x6e,0x61,0x6d,0x65,0x49,0x22,0x09,0x4d,0x6f,0x76,0x65,0x06,0x3a,0x06,0x45,0x54,0x3a,0x0b,0x40,0x70,0x69,0x74,0x63,0x68,0x69,0x69,0x3a,0x0c,0x40,0x76,0x6f,0x6c,0x75,0x6d,0x65,0x69,0x55))
  TeleportPlayer(0,110,5,26,0,0)
  0()



EVENT   6
 PAGE   1
  250(bytes(0x04,0x08,0x6f,0x3a,0x0c,0x52,0x50,0x47,0x3a,0x3a,0x53,0x45,0x08,0x3a,0x0a,0x40,0x6e,0x61,0x6d,0x65,0x49,0x22,0x09,0x4d,0x6f,0x76,0x65,0x06,0x3a,0x06,0x45,0x54,0x3a,0x0b,0x40,0x70,0x69,0x74,0x63,0x68,0x69,0x69,0x3a,0x0c,0x40,0x76,0x6f,0x6c,0x75,0x6d,0x65,0x69,0x55))
  TeleportPlayer(0,110,5,26,0,0)
  0()



EVENT   7
 PAGE   1
  If(12,"unlock_level < 1")
   ShowMessageFace("",0,0,2,1)
   ShowMessage("The chest is locked...")
   EndEventProcessing()
   0()
  EndIf()
  250(bytes(0x04,0x08,0x6f,0x3a,0x0c,0x52,0x50,0x47,0x3a,0x3a,0x53,0x45,0x08,0x3a,0x0a,0x40,0x6e,0x61,0x6d,0x65,0x49,0x22,0x0a,0x43,0x68,0x65,0x73,0x74,0x06,0x3a,0x06,0x45,0x54,0x3a,0x0b,0x40,0x70,0x69,0x74,0x63,0x68,0x69,0x69,0x3a,0x0c,0x40,0x76,0x6f,0x6c,0x75,0x6d,0x65,0x69,0x55))
  205(0,bytes(0x04,0x08,0x6f,0x3a,0x13,0x52,0x50,0x47,0x3a,0x3a,0x4d,0x6f,0x76,0x65,0x52,0x6f,0x75,0x74,0x65,0x09,0x3a,0x0c,0x40,0x72,0x65,0x70,0x65,0x61,0x74,0x46,0x3a,0x0f,0x40,0x73,0x6b,0x69,0x70,0x70,0x61,0x62,0x6c,0x65,0x46,0x3a,0x0a,0x40,0x77,0x61,0x69,0x74,0x54,0x3a,0x0a,0x40,0x6c,0x69,0x73,0x74,0x5b,0x0b,0x6f,0x3a,0x15,0x52,0x50,0x47,0x3a,0x3a,0x4d,0x6f,0x76,0x65,0x43,0x6f,0x6d,0x6d,0x61,0x6e,0x64,0x07,0x3a,0x0a,0x40,0x63,0x6f,0x64,0x65,0x69,0x29,0x3a,0x10,0x40,0x70,0x61,0x72,0x61,0x6d,0x65,0x74,0x65,0x72,0x73,0x5b,0x00,0x6f,0x3b,0x0a,0x07,0x3b,0x0b,0x69,0x16,0x3b,0x0c,0x5b,0x00,0x6f,0x3b,0x0a,0x07,0x3b,0x0b,0x69,0x14,0x3b,0x0c,0x5b,0x06,0x69,0x08,0x6f,0x3b,0x0a,0x07,0x3b,0x0b,0x69,0x17,0x3b,0x0c,0x5b,0x00,0x6f,0x3b,0x0a,0x07,0x3b,0x0b,0x69,0x14,0x3b,0x0c,0x5b,0x06,0x69,0x08,0x6f,0x3b,0x0a,0x07,0x3b,0x0b,0x69,0x00,0x3b,0x0c,0x5b,0x00))
  ChangeSelfSwitch("A",0)
  ChangeInventory_Item(708,0,0,1)
  0()
 PAGE   2
  // condition: self-switch A is ON
  0()



EVENT   8
 PAGE   1
  If(12,"unlock_level < 1")
   ShowMessageFace("",0,0,2,1)
   ShowMessage("The chest is locked...")
   EndEventProcessing()
   0()
  EndIf()
  250(bytes(0x04,0x08,0x6f,0x3a,0x0c,0x52,0x50,0x47,0x3a,0x3a,0x53,0x45,0x08,0x3a,0x0a,0x40,0x6e,0x61,0x6d,0x65,0x49,0x22,0x0a,0x43,0x68,0x65,0x73,0x74,0x06,0x3a,0x06,0x45,0x54,0x3a,0x0b,0x40,0x70,0x69,0x74,0x63,0x68,0x69,0x69,0x3a,0x0c,0x40,0x76,0x6f,0x6c,0x75,0x6d,0x65,0x69,0x55))
  205(0,bytes(0x04,0x08,0x6f,0x3a,0x13,0x52,0x50,0x47,0x3a,0x3a,0x4d,0x6f,0x76,0x65,0x52,0x6f,0x75,0x74,0x65,0x09,0x3a,0x0c,0x40,0x72,0x65,0x70,0x65,0x61,0x74,0x46,0x3a,0x0f,0x40,0x73,0x6b,0x69,0x70,0x70,0x61,0x62,0x6c,0x65,0x46,0x3a,0x0a,0x40,0x77,0x61,0x69,0x74,0x54,0x3a,0x0a,0x40,0x6c,0x69,0x73,0x74,0x5b,0x0b,0x6f,0x3a,0x15,0x52,0x50,0x47,0x3a,0x3a,0x4d,0x6f,0x76,0x65,0x43,0x6f,0x6d,0x6d,0x61,0x6e,0x64,0x07,0x3a,0x0a,0x40,0x63,0x6f,0x64,0x65,0x69,0x29,0x3a,0x10,0x40,0x70,0x61,0x72,0x61,0x6d,0x65,0x74,0x65,0x72,0x73,0x5b,0x00,0x6f,0x3b,0x0a,0x07,0x3b,0x0b,0x69,0x16,0x3b,0x0c,0x5b,0x00,0x6f,0x3b,0x0a,0x07,0x3b,0x0b,0x69,0x14,0x3b,0x0c,0x5b,0x06,0x69,0x08,0x6f,0x3b,0x0a,0x07,0x3b,0x0b,0x69,0x17,0x3b,0x0c,0x5b,0x00,0x6f,0x3b,0x0a,0x07,0x3b,0x0b,0x69,0x14,0x3b,0x0c,0x5b,0x06,0x69,0x08,0x6f,0x3b,0x0a,0x07,0x3b,0x0b,0x69,0x00,0x3b,0x0c,0x5b,0x00))
  ChangeSelfSwitch("A",0)
  ChangeInventoryArmor(1357,0,0,1)
  0()
 PAGE   2
  // condition: self-switch A is ON
  0()



EVENT   9
 PAGE   1
  250(bytes(0x04,0x08,0x6f,0x3a,0x0c,0x52,0x50,0x47,0x3a,0x3a,0x53,0x45,0x08,0x3a,0x0a,0x40,0x6e,0x61,0x6d,0x65,0x49,0x22,0x0a,0x43,0x68,0x65,0x73,0x74,0x06,0x3a,0x06,0x45,0x54,0x3a,0x0b,0x40,0x70,0x69,0x74,0x63,0x68,0x69,0x69,0x3a,0x0c,0x40,0x76,0x6f,0x6c,0x75,0x6d,0x65,0x69,0x55))
  205(0,bytes(0x04,0x08,0x6f,0x3a,0x13,0x52,0x50,0x47,0x3a,0x3a,0x4d,0x6f,0x76,0x65,0x52,0x6f,0x75,0x74,0x65,0x09,0x3a,0x0c,0x40,0x72,0x65,0x70,0x65,0x61,0x74,0x46,0x3a,0x0f,0x40,0x73,0x6b,0x69,0x70,0x70,0x61,0x62,0x6c,0x65,0x46,0x3a,0x0a,0x40,0x77,0x61,0x69,0x74,0x54,0x3a,0x0a,0x40,0x6c,0x69,0x73,0x74,0x5b,0x0b,0x6f,0x3a,0x15,0x52,0x50,0x47,0x3a,0x3a,0x4d,0x6f,0x76,0x65,0x43,0x6f,0x6d,0x6d,0x61,0x6e,0x64,0x07,0x3a,0x0a,0x40,0x63,0x6f,0x64,0x65,0x69,0x29,0x3a,0x10,0x40,0x70,0x61,0x72,0x61,0x6d,0x65,0x74,0x65,0x72,0x73,0x5b,0x00,0x6f,0x3b,0x0a,0x07,0x3b,0x0b,0x69,0x16,0x3b,0x0c,0x5b,0x00,0x6f,0x3b,0x0a,0x07,0x3b,0x0b,0x69,0x14,0x3b,0x0c,0x5b,0x06,0x69,0x08,0x6f,0x3b,0x0a,0x07,0x3b,0x0b,0x69,0x17,0x3b,0x0c,0x5b,0x00,0x6f,0x3b,0x0a,0x07,0x3b,0x0b,0x69,0x14,0x3b,0x0c,0x5b,0x06,0x69,0x08,0x6f,0x3b,0x0a,0x07,0x3b,0x0b,0x69,0x00,0x3b,0x0c,0x5b,0x00))
  ChangeSelfSwitch("A",0)
  ChangeInventory_Item(32,0,0,1)
  0()
 PAGE   2
  // condition: self-switch A is ON
  0()



EVENT   10
 PAGE   1
  // condition: variable 1022 >= 6
  // condition: party contains actor #41
  RunCommonEvent(317)
  ShowMessageFace("stein_fc2",0,0,2,1)
  ShowMessage("\\n<Promestein>Is this... apoptosis research data? There's no mistaking it, this is clear evidence that this laboratory studied apoptosis.")
  If(0,4,0)
   ShowMessageFace("alice_fc6",0,0,2,2)
   ShowMessage("\\n<Alice>Apoptosis?! Then, this facility is also involved with the parallel worlds?")
   0()
  EndIf()
  If(0,5,0)
   ShowMessageFace("iriasu_fc4",5,0,2,3)
   ShowMessage("\\n<Ilias>Apoptosis research data?! Then this facility is involved with the parallel worlds as well?")
   0()
  EndIf()
  ShowMessageFace("stein_fc2",0,0,2,4)
  ShowMessage("\\n<Promestein>The apoptosis research data has been mostly erased as well... Only a few parts concerning Hild were left behind.")
  ShowMessageFace("stein_fc2",0,0,2,5)
  ShowMessage("\\n<Promestein>However, what remains is largely unambiguous. Brynhildr is undoubtedly an anti-apoptosis battle machine.")
  ShowMessageFace("brunhild_fc1",0,0,2,6)
  ShowMessage("\\n<Hild>Hild is...? Really?")
  ShowMessageFace("stein_fc2",0,0,2,7)
  ShowMessage("\\n<Promestein>She uses a holy-dark fusion reactor, and she also has apoptosis body tissue built into her.")
  ShowMessageFace("stein_fc2",0,0,2,8)
  ShowMessage("\\n<Promestein>But in the end, this facility discarded her... Or, did they maintain her, but at minimal functionality...?")
  ShowMessageFace("brunhild_fc1",0,0,2,9)
  ShowMessage("\\n<Hild>Hild wasn't discarded... Master said that Hild will definitely wake up.")
  If(0,4,0)
   ShowMessageFace("alice_fc5",0,0,2,10)
   ShowMessage("\\n<Alice>Your master said that you would wake up to fight those who want to destroy the world. What an eerie coincidence...")
   0()
  EndIf()
  If(0,5,0)
   ShowMessageFace("iriasu_fc4",2,0,2,11)
   ShowMessage("\\n<Ilias>When you started up, you said that you will fight those who would destroy the world. This matches our current conundrum a bit too strongly...")
   0()
  EndIf()
  ShowMessageFace("stein_fc2",0,0,2,12)
  ShowMessage("\\n<Promestein>However, it doesn't seem as if Hild was made purely for combat. If one assumes that that is her main function, she has too many useless subfunctions.")
  ShowMessageFace("stein_fc2",0,0,2,13)
  ShowMessage("\\n<Promestein>Such advanced emotion processes are unnecessary for combat situations. Furthermore, she has a needless reproductive function.")
  ShowMessageFace("brunhild_fc1",0,0,2,14)
  ShowMessage("\\n<Hild>Hild doesn't understand complicated things...")
  ShowMessageFace("stein_fc2",0,0,2,15)
  ShowMessage("\\n<Promestein>Also, for some reason, she's stupid. Hild, 87+65 is...?")
  ShowMessageFace("brunhild_fc1",0,0,2,16)
  ShowMessage("\\n<Hild>Umm... 142?")
  ShowMessageFace("ruka_fc1",0,0,2,17)
  ShowMessage("\\n<Luka>She's not just slower than me, but also wrong... It's 152.")
  ShowMessageFace("stein_fc2",0,0,2,18)
  ShowMessage("\\n<Promestein>Correct. Her computing power is even inferior to Luka's. Another example, if you'll permit me. 25x13?")
  ShowMessageFace("ruka_fc1",0,0,2,19)
  ShowMessage("\\n<Luka>Promestein, you're really rude. ...325.")
  ShowMessageFace("brunhild_fc1",0,0,2,20)
  ShowMessage("\\n<Hild>Hild is bad with multiplication... 15, 2, umm...")
  ShowMessageFace("stein_fc2",0,0,2,21)
  ShowMessage("\\n<Promestein>Luka, you're unexpectedly fast with calculations. Although, you did run an inn, didn't you?")
  ShowMessageFace("stein_fc2",0,0,2,22)
  ShowMessage("\\n<Promestein>...How about 8965x964?")
  ShowMessageFace("ruka_fc1",0,0,2,23)
  ShowMessage("\\n<Luka>8642260.")
  ShowMessageFace("stein_fc2",2,0,2,24)
  ShowMessage("\\n<Promestein>...Eh? You answered that in under a second!")
  If(0,4,0)
   ShowMessageFace("alice_fc5",6,0,2,25)
   ShowMessage("\\n<Alice>Hey, wait a second! That's even faster than me!")
   0()
  EndIf()
  If(0,5,0)
   ShowMessageFace("iriasu_fc4",0,0,2,26)
   ShowMessage("\\n<Ilias>You've underestimated Luka, Promestein.")
   0()
  EndIf()
  ShowMessageFace("stein_fc2",2,0,2,27)
  ShowMessage("\\n<Promestein>T-then... how about this? Factor 129878627!")
  ShowMessageFace("ruka_fc1",0,0,2,28)
  ShowMessage("\\n<Luka>Don't underestimate me. I've learned bookkeeping, and I also studied simple arithmetic.")
  ShowMessageFace("ruka_fc1",0,0,2,29)
  ShowMessage("\\n<Luka>...101x233x5519, I guess.")
  ShowMessageFace("stein_fc2",2,0,2,30)
  ShowMessage("\\n<Promestein>A-again, that fast...? Impossible. To think that Luka possesses such an extraordinary ability...")
  If(0,4,0)
   ShowMessageFace("alice_fc5",6,0,2,31)
   ShowMessage("\\n<Alice>No way. To think an idiot like him is so good with calculations...")
   0()
  EndIf()
  If(0,5,0)
   ShowMessageFace("iriasu_fc4",0,0,2,32)
   ShowMessage("\\n<Ilias>When one considers that he has his mother's blood, it's natural that he has an exceptional brain. Since he was barely educated it hasn't blossomed, but...")
   0()
  EndIf()
  ShowMessageFace("brunhild_fc1",0,0,2,33)
  ShowMessage("\\n<Hild>Hild failed? Then, will Hild be taken apart...?")
  ShowMessageFace("stein_fc2",0,0,2,34)
  ShowMessage("\\n<Promestein>...Let's get back to the topic at hand. Ultimately, the true objective of Hild's development remains unknown.")
  ShowMessageFace("stein_fc2",0,0,2,35)
  ShowMessage("\\n<Promestein>It does seem like she was granted utility in combating apoptosis, but... I don't think that's all there is to it.")
  RunCommonEvent(318)
  ChangeSelfSwitch("A",0)
  0()
 PAGE   2
  // condition: self-switch A is ON
  0()