﻿


EVENT   1
 PAGE   1
  0()



EVENT   2
 PAGE   1
  0()
 PAGE   2
  // condition: switch 31 is ON
  0()
 PAGE   3
  // condition: switch 32 is ON
  0()



EVENT   3
 PAGE   1
  0()



EVENT   4
 PAGE   1
  0()



EVENT   5
 PAGE   1
  ShowMessageFace("sirousagi_fc1",0,0,2,1)
  ShowMessage("\\n<White Rabbit>The experiment is just about to begin. I'll say once more that we aren't in any danger.")
  ShowMessageFace("sirousagi_fc1",0,0,2,2)
  ShowMessage("\\n<White Rabbit>We can neither interfere nor be interfered with. This is no more than a fragment of the past.")
  ShowMessageFace("sirousagi_fc1",0,0,2,3)
  ShowMessage("\\n<White Rabbit>Which is why we can observe safely from our specially-reserved seats. Unlike the poor scientists in front of us...")
  ShowMessageFace("ruka_fc1",0,0,2,4)
  ShowMessage("\\n<Luka>............")
  205(-1,bytes(0x04,0x08,0x6f,0x3a,0x13,0x52,0x50,0x47,0x3a,0x3a,0x4d,0x6f,0x76,0x65,0x52,0x6f,0x75,0x74,0x65,0x09,0x3a,0x0c,0x40,0x72,0x65,0x70,0x65,0x61,0x74,0x46,0x3a,0x0f,0x40,0x73,0x6b,0x69,0x70,0x70,0x61,0x62,0x6c,0x65,0x46,0x3a,0x0a,0x40,0x77,0x61,0x69,0x74,0x54,0x3a,0x0a,0x40,0x6c,0x69,0x73,0x74,0x5b,0x0c,0x6f,0x3a,0x15,0x52,0x50,0x47,0x3a,0x3a,0x4d,0x6f,0x76,0x65,0x43,0x6f,0x6d,0x6d,0x61,0x6e,0x64,0x07,0x3a,0x0a,0x40,0x63,0x6f,0x64,0x65,0x69,0x09,0x3a,0x10,0x40,0x70,0x61,0x72,0x61,0x6d,0x65,0x74,0x65,0x72,0x73,0x5b,0x00,0x6f,0x3b,0x0a,0x07,0x3b,0x0b,0x69,0x09,0x3b,0x0c,0x5b,0x00,0x6f,0x3b,0x0a,0x07,0x3b,0x0b,0x69,0x09,0x3b,0x0c,0x5b,0x00,0x6f,0x3b,0x0a,0x07,0x3b,0x0b,0x69,0x09,0x3b,0x0c,0x5b,0x00,0x6f,0x3b,0x0a,0x07,0x3b,0x0b,0x69,0x09,0x3b,0x0c,0x5b,0x00,0x6f,0x3b,0x0a,0x07,0x3b,0x0b,0x69,0x09,0x3b,0x0c,0x5b,0x00,0x6f,0x3b,0x0a,0x07,0x3b,0x0b,0x69,0x00,0x3b,0x0c,0x5b,0x00))
  217()
  241(bytes(0x04,0x08,0x6f,0x3a,0x0d,0x52,0x50,0x47,0x3a,0x3a,0x42,0x47,0x4d,0x08,0x3a,0x0a,0x40,0x6e,0x61,0x6d,0x65,0x49,0x22,0x0a,0x6b,0x69,0x6b,0x69,0x32,0x06,0x3a,0x06,0x45,0x54,0x3a,0x0c,0x40,0x76,0x6f,0x6c,0x75,0x6d,0x65,0x69,0x69,0x3a,0x0b,0x40,0x70,0x69,0x74,0x63,0x68,0x69,0x69))
  ShowMessageFace("",0,0,2,5)
  ShowMessage("\\n<Assistant>Starting countdown.\nFive, four, three...")
  ShowMessageFace("",0,0,2,6)
  ShowMessage("\\n<Doctor A>............")
  ShowMessageFace("",0,0,2,7)
  ShowMessage("\\n<Doctor B>Please work...")
  ShowMessageFace("",0,0,2,8)
  ShowMessage("\\n<Assistant>Two, one...zero!")
  250(bytes(0x04,0x08,0x6f,0x3a,0x0c,0x52,0x50,0x47,0x3a,0x3a,0x53,0x45,0x08,0x3a,0x0a,0x40,0x6e,0x61,0x6d,0x65,0x49,0x22,0x0f,0x6d,0x6f,0x6e,0x5f,0x65,0x61,0x72,0x74,0x68,0x31,0x06,0x3a,0x06,0x45,0x54,0x3a,0x0b,0x40,0x70,0x69,0x74,0x63,0x68,0x69,0x69,0x3a,0x0c,0x40,0x76,0x6f,0x6c,0x75,0x6d,0x65,0x69,0x69))
  225(7,7,120,true)
  ShowMessageFace("",0,0,2,9)
  ShowMessage("\\n<Doctor A>Energy detected... Reading, over 2400Cz!\nWow, amazing...!")
  ShowMessageFace("",0,0,2,10)
  ShowMessage("\\n<Doctor B>Success! Orwell, what is the charge ratio on the summoning apparatus?!")
  ShowMessageFace("",0,0,2,11)
  ShowMessage("\\n<Assistant>Charge ratio is sufficient!\nBeginning startup of summoning ceremony...!")
  212(2,542,false)
  ShowMessageFace("",0,0,2,12)
  ShowMessage("\\n<Assistant>Summoning gate generated!\nEnergy body detected, according to Target H--")
  250(bytes(0x04,0x08,0x6f,0x3a,0x0c,0x52,0x50,0x47,0x3a,0x3a,0x53,0x45,0x08,0x3a,0x0a,0x40,0x6e,0x61,0x6d,0x65,0x49,0x22,0x0f,0x6d,0x6f,0x6e,0x5f,0x65,0x61,0x72,0x74,0x68,0x31,0x06,0x3a,0x06,0x45,0x54,0x3a,0x0b,0x40,0x70,0x69,0x74,0x63,0x68,0x69,0x69,0x3a,0x0c,0x40,0x76,0x6f,0x6c,0x75,0x6d,0x65,0x69,0x69))
  225(7,7,120,true)
  241(bytes(0x04,0x08,0x6f,0x3a,0x0d,0x52,0x50,0x47,0x3a,0x3a,0x42,0x47,0x4d,0x08,0x3a,0x0a,0x40,0x6e,0x61,0x6d,0x65,0x49,0x22,0x0a,0x6b,0x69,0x6b,0x69,0x32,0x06,0x3a,0x06,0x45,0x54,0x3a,0x0c,0x40,0x76,0x6f,0x6c,0x75,0x6d,0x65,0x69,0x69,0x3a,0x0b,0x40,0x70,0x69,0x74,0x63,0x68,0x69,0x69))
  ShowMessageFace("",0,0,2,13)
  ShowMessage("\\n<Doctor A>Wait a minute, the numbers on the console are off.\nThe Mana Cz value has dropped to zero...")
  ShowMessageFace("",0,0,2,14)
  ShowMessage("\\n<Doctor B>Something's wrong, it's dropped into the negatives!\nWh-what is this? Equipment failure?!")
  250(bytes(0x04,0x08,0x6f,0x3a,0x0c,0x52,0x50,0x47,0x3a,0x3a,0x53,0x45,0x08,0x3a,0x0a,0x40,0x6e,0x61,0x6d,0x65,0x49,0x22,0x0f,0x6d,0x6f,0x6e,0x5f,0x65,0x61,0x72,0x74,0x68,0x31,0x06,0x3a,0x06,0x45,0x54,0x3a,0x0b,0x40,0x70,0x69,0x74,0x63,0x68,0x69,0x69,0x3a,0x0c,0x40,0x76,0x6f,0x6c,0x75,0x6d,0x65,0x69,0x69))
  225(7,7,120,true)
  ShowMessageFace("",0,0,2,15)
  ShowMessage("\\n<Assistant>Energy from Target H approaching...\n...Huh? What the... It's detecting mass?!")
  ShowMessageFace("",0,0,2,16)
  ShowMessage("\\n<Assistant>The gate won't close, it's being forced open from the other side--")
  ShowMessageFace("",0,0,2,17)
  ShowMessage("\\n<Doctor A>Mass?! Not a spiritual body, but a physical one?! Cancel the experiment! Destroy the gate and push Target H back!!")
  250(bytes(0x04,0x08,0x6f,0x3a,0x0c,0x52,0x50,0x47,0x3a,0x3a,0x53,0x45,0x08,0x3a,0x0a,0x40,0x6e,0x61,0x6d,0x65,0x49,0x22,0x0f,0x6d,0x6f,0x6e,0x5f,0x65,0x61,0x72,0x74,0x68,0x31,0x06,0x3a,0x06,0x45,0x54,0x3a,0x0b,0x40,0x70,0x69,0x74,0x63,0x68,0x69,0x69,0x3a,0x0c,0x40,0x76,0x6f,0x6c,0x75,0x6d,0x65,0x69,0x69))
  225(7,7,120,true)
  ShowMessageFace("",0,0,2,18)
  ShowMessage("\\n<Assistant>...This Target H... It's not Heinrich's spirit!\nWhat on earth--")
  ShowMessageFace("",0,0,2,19)
  ShowMessage("\\n<Doctor B>What's going on?! What the hell have we summoned!?!")
  205(1,bytes(0x04,0x08,0x6f,0x3a,0x13,0x52,0x50,0x47,0x3a,0x3a,0x4d,0x6f,0x76,0x65,0x52,0x6f,0x75,0x74,0x65,0x09,0x3a,0x0c,0x40,0x72,0x65,0x70,0x65,0x61,0x74,0x46,0x3a,0x0f,0x40,0x73,0x6b,0x69,0x70,0x70,0x61,0x62,0x6c,0x65,0x46,0x3a,0x0a,0x40,0x77,0x61,0x69,0x74,0x46,0x3a,0x0a,0x40,0x6c,0x69,0x73,0x74,0x5b,0x07,0x6f,0x3a,0x15,0x52,0x50,0x47,0x3a,0x3a,0x4d,0x6f,0x76,0x65,0x43,0x6f,0x6d,0x6d,0x61,0x6e,0x64,0x07,0x3a,0x0a,0x40,0x63,0x6f,0x64,0x65,0x69,0x16,0x3a,0x10,0x40,0x70,0x61,0x72,0x61,0x6d,0x65,0x74,0x65,0x72,0x73,0x5b,0x00,0x6f,0x3b,0x0a,0x07,0x3b,0x0b,0x69,0x00,0x3b,0x0c,0x5b,0x00))
  205(3,bytes(0x04,0x08,0x6f,0x3a,0x13,0x52,0x50,0x47,0x3a,0x3a,0x4d,0x6f,0x76,0x65,0x52,0x6f,0x75,0x74,0x65,0x09,0x3a,0x0c,0x40,0x72,0x65,0x70,0x65,0x61,0x74,0x46,0x3a,0x0f,0x40,0x73,0x6b,0x69,0x70,0x70,0x61,0x62,0x6c,0x65,0x46,0x3a,0x0a,0x40,0x77,0x61,0x69,0x74,0x46,0x3a,0x0a,0x40,0x6c,0x69,0x73,0x74,0x5b,0x07,0x6f,0x3a,0x15,0x52,0x50,0x47,0x3a,0x3a,0x4d,0x6f,0x76,0x65,0x43,0x6f,0x6d,0x6d,0x61,0x6e,0x64,0x07,0x3a,0x0a,0x40,0x63,0x6f,0x64,0x65,0x69,0x16,0x3a,0x10,0x40,0x70,0x61,0x72,0x61,0x6d,0x65,0x74,0x65,0x72,0x73,0x5b,0x00,0x6f,0x3b,0x0a,0x07,0x3b,0x0b,0x69,0x00,0x3b,0x0c,0x5b,0x00))
  205(10,bytes(0x04,0x08,0x6f,0x3a,0x13,0x52,0x50,0x47,0x3a,0x3a,0x4d,0x6f,0x76,0x65,0x52,0x6f,0x75,0x74,0x65,0x09,0x3a,0x0c,0x40,0x72,0x65,0x70,0x65,0x61,0x74,0x46,0x3a,0x0f,0x40,0x73,0x6b,0x69,0x70,0x70,0x61,0x62,0x6c,0x65,0x46,0x3a,0x0a,0x40,0x77,0x61,0x69,0x74,0x46,0x3a,0x0a,0x40,0x6c,0x69,0x73,0x74,0x5b,0x07,0x6f,0x3a,0x15,0x52,0x50,0x47,0x3a,0x3a,0x4d,0x6f,0x76,0x65,0x43,0x6f,0x6d,0x6d,0x61,0x6e,0x64,0x07,0x3a,0x0a,0x40,0x63,0x6f,0x64,0x65,0x69,0x16,0x3a,0x10,0x40,0x70,0x61,0x72,0x61,0x6d,0x65,0x74,0x65,0x72,0x73,0x5b,0x00,0x6f,0x3b,0x0a,0x07,0x3b,0x0b,0x69,0x00,0x3b,0x0c,0x5b,0x00))
  205(6,bytes(0x04,0x08,0x6f,0x3a,0x13,0x52,0x50,0x47,0x3a,0x3a,0x4d,0x6f,0x76,0x65,0x52,0x6f,0x75,0x74,0x65,0x09,0x3a,0x0c,0x40,0x72,0x65,0x70,0x65,0x61,0x74,0x46,0x3a,0x0f,0x40,0x73,0x6b,0x69,0x70,0x70,0x61,0x62,0x6c,0x65,0x46,0x3a,0x0a,0x40,0x77,0x61,0x69,0x74,0x46,0x3a,0x0a,0x40,0x6c,0x69,0x73,0x74,0x5b,0x07,0x6f,0x3a,0x15,0x52,0x50,0x47,0x3a,0x3a,0x4d,0x6f,0x76,0x65,0x43,0x6f,0x6d,0x6d,0x61,0x6e,0x64,0x07,0x3a,0x0a,0x40,0x63,0x6f,0x64,0x65,0x69,0x17,0x3a,0x10,0x40,0x70,0x61,0x72,0x61,0x6d,0x65,0x74,0x65,0x72,0x73,0x5b,0x00,0x6f,0x3b,0x0a,0x07,0x3b,0x0b,0x69,0x00,0x3b,0x0c,0x5b,0x00))
  205(7,bytes(0x04,0x08,0x6f,0x3a,0x13,0x52,0x50,0x47,0x3a,0x3a,0x4d,0x6f,0x76,0x65,0x52,0x6f,0x75,0x74,0x65,0x09,0x3a,0x0c,0x40,0x72,0x65,0x70,0x65,0x61,0x74,0x46,0x3a,0x0f,0x40,0x73,0x6b,0x69,0x70,0x70,0x61,0x62,0x6c,0x65,0x46,0x3a,0x0a,0x40,0x77,0x61,0x69,0x74,0x46,0x3a,0x0a,0x40,0x6c,0x69,0x73,0x74,0x5b,0x07,0x6f,0x3a,0x15,0x52,0x50,0x47,0x3a,0x3a,0x4d,0x6f,0x76,0x65,0x43,0x6f,0x6d,0x6d,0x61,0x6e,0x64,0x07,0x3a,0x0a,0x40,0x63,0x6f,0x64,0x65,0x69,0x17,0x3a,0x10,0x40,0x70,0x61,0x72,0x61,0x6d,0x65,0x74,0x65,0x72,0x73,0x5b,0x00,0x6f,0x3b,0x0a,0x07,0x3b,0x0b,0x69,0x00,0x3b,0x0c,0x5b,0x00))
  205(8,bytes(0x04,0x08,0x6f,0x3a,0x13,0x52,0x50,0x47,0x3a,0x3a,0x4d,0x6f,0x76,0x65,0x52,0x6f,0x75,0x74,0x65,0x09,0x3a,0x0c,0x40,0x72,0x65,0x70,0x65,0x61,0x74,0x46,0x3a,0x0f,0x40,0x73,0x6b,0x69,0x70,0x70,0x61,0x62,0x6c,0x65,0x46,0x3a,0x0a,0x40,0x77,0x61,0x69,0x74,0x46,0x3a,0x0a,0x40,0x6c,0x69,0x73,0x74,0x5b,0x07,0x6f,0x3a,0x15,0x52,0x50,0x47,0x3a,0x3a,0x4d,0x6f,0x76,0x65,0x43,0x6f,0x6d,0x6d,0x61,0x6e,0x64,0x07,0x3a,0x0a,0x40,0x63,0x6f,0x64,0x65,0x69,0x17,0x3a,0x10,0x40,0x70,0x61,0x72,0x61,0x6d,0x65,0x74,0x65,0x72,0x73,0x5b,0x00,0x6f,0x3b,0x0a,0x07,0x3b,0x0b,0x69,0x00,0x3b,0x0c,0x5b,0x00))
  205(9,bytes(0x04,0x08,0x6f,0x3a,0x13,0x52,0x50,0x47,0x3a,0x3a,0x4d,0x6f,0x76,0x65,0x52,0x6f,0x75,0x74,0x65,0x09,0x3a,0x0c,0x40,0x72,0x65,0x70,0x65,0x61,0x74,0x46,0x3a,0x0f,0x40,0x73,0x6b,0x69,0x70,0x70,0x61,0x62,0x6c,0x65,0x46,0x3a,0x0a,0x40,0x77,0x61,0x69,0x74,0x46,0x3a,0x0a,0x40,0x6c,0x69,0x73,0x74,0x5b,0x07,0x6f,0x3a,0x15,0x52,0x50,0x47,0x3a,0x3a,0x4d,0x6f,0x76,0x65,0x43,0x6f,0x6d,0x6d,0x61,0x6e,0x64,0x07,0x3a,0x0a,0x40,0x63,0x6f,0x64,0x65,0x69,0x15,0x3a,0x10,0x40,0x70,0x61,0x72,0x61,0x6d,0x65,0x74,0x65,0x72,0x73,0x5b,0x00,0x6f,0x3b,0x0a,0x07,0x3b,0x0b,0x69,0x00,0x3b,0x0c,0x5b,0x00))
  212(7,547,false)
  Wait(60)
  ChangeSwitch(31,31,0)
  242(1)
  Wait(120)
  PictureDisplay(5,"80_alice8th4_st02",0,0,0,0,100,100,0,0)
  PictureMove(5,null,0,0,0,0,100,100,255,0,60,true)
  ShowMessageFace("alice8th_fc2",4,0,2,20)
  ShowMessage("\\n<Black Alice>............")
  241(bytes(0x04,0x08,0x6f,0x3a,0x0d,0x52,0x50,0x47,0x3a,0x3a,0x42,0x47,0x4d,0x08,0x3a,0x0a,0x40,0x6e,0x61,0x6d,0x65,0x49,0x22,0x12,0x64,0x75,0x6e,0x67,0x65,0x6f,0x6e,0x5f,0x6c,0x61,0x62,0x6f,0x33,0x06,0x3a,0x06,0x45,0x54,0x3a,0x0c,0x40,0x76,0x6f,0x6c,0x75,0x6d,0x65,0x69,0x69,0x3a,0x0b,0x40,0x70,0x69,0x74,0x63,0x68,0x69,0x69))
  ShowMessageFace("alice8th_fc2",4,0,2,21)
  ShowMessage("\\n<Black Alice>Where am I...?")
  ShowMessageFace("alice8th_fc2",4,0,2,22)
  ShowMessage("\\n<Black Alice>I ate Ilias...\nAnd her holy power...is in my body..")
  ShowMessageFace("alice8th_fc2",4,0,2,23)
  ShowMessage("\\n<Black Alice>But I was defeated by the hero...\nAnd just as my life was about to end...")
  Wait(30)
  ShowMessageFace("sirousagi_fc1",0,0,2,24)
  ShowMessage("\\n<White Rabbit>...What they summoned was not the hero Heinrich. What responded was the blood of Black Alice, which stained that sword.")
  ShowMessageFace("sirousagi_fc1",0,0,2,25)
  ShowMessage("\\n<White Rabbit>Moreover, it wasn't the Black Alice from five-hundred years ago that they summoned...but the Black Alice from thirty years after this time period.")
  If(0,4,0)
   ShowMessageFace("alice_fc6",0,0,2,26)
   ShowMessage("\\n<Alice>That's Black Alice?\nBut this ominous power...")
   0()
  EndIf()
  If(0,5,0)
   ShowMessageFace("iriasu_fc4",5,0,2,27)
   ShowMessage("\\n<Ilias>Impossible, that is Black Alice...?\nI can't believe it, she even possesses holy power...")
   0()
  EndIf()
  ShowMessageFace("sirousagi_fc1",0,0,2,28)
  ShowMessage("\\n<White Rabbit>Before being defeated by the hero Luka, Black Alice had absorbed the Goddess Ilias into her body.")
  ShowMessageFace("sirousagi_fc1",0,0,2,29)
  ShowMessage("\\n<White Rabbit>But she had not, in any way, fully mastered the power of holy-dark fusion. Thus, she was immediately destroyed after being defeated in battle by the hero Luka--")
  ShowMessageFace("sirousagi_fc1",0,0,2,30)
  ShowMessage("\\n<White Rabbit>--That was the course of events in the true history. However, that causality broke.")
  Wait(30)
  ShowMessageFace("alice8th_fc2",4,0,2,31)
  ShowMessage("\\n<Black Alice>Now, finally...\nThe holy and dark are mixing within me...")
  ShowMessageFace("alice8th_fc2",4,0,2,32)
  ShowMessage("\\n<Black Alice>No... This is the power of chaos...\nThe primordial power that existed before even time and space...")
  ShowMessageFace("alice8th_fc2",4,0,2,33)
  ShowMessage("\\n<Black Alice>In the very beginning, there was chaos...\nChaos divided into light and darkness...")
  ShowMessageFace("alice8th_fc2",4,0,2,34)
  ShowMessage("\\n<Black Alice>From the light came the Goddess...\nFrom the darkness came the Dark Goddess...\nEach was born with divinity...\nAnd power was divided amongst them...")
  ShowMessageFace("alice8th_fc2",4,0,2,35)
  ShowMessage("\\n<Black Alice>But I... I hold the power that originally should have been... Fu, fufufu...")
  ShowMessageFace("alice8th_fc2",4,0,2,36)
  ShowMessage("\\n<Black Alice>Ufufufufu...")
  ShowMessageFace("alice8th_fc2",4,0,2,37)
  ShowMessage("\\n<Black Alice>Fufufu... Ahahahhaha...")
  ChangeSwitch(32,32,0)
  241(bytes(0x04,0x08,0x6f,0x3a,0x0d,0x52,0x50,0x47,0x3a,0x3a,0x42,0x47,0x4d,0x08,0x3a,0x0a,0x40,0x6e,0x61,0x6d,0x65,0x49,0x22,0x11,0x73,0x63,0x65,0x6e,0x65,0x5f,0x63,0x68,0x61,0x6f,0x73,0x31,0x06,0x3a,0x06,0x45,0x54,0x3a,0x0c,0x40,0x76,0x6f,0x6c,0x75,0x6d,0x65,0x69,0x69,0x3a,0x0b,0x40,0x70,0x69,0x74,0x63,0x68,0x69,0x69))
  250(bytes(0x04,0x08,0x6f,0x3a,0x0c,0x52,0x50,0x47,0x3a,0x3a,0x53,0x45,0x08,0x3a,0x0a,0x40,0x6e,0x61,0x6d,0x65,0x49,0x22,0x0e,0x44,0x61,0x72,0x6b,0x6e,0x65,0x73,0x73,0x31,0x06,0x3a,0x06,0x45,0x54,0x3a,0x0b,0x40,0x70,0x69,0x74,0x63,0x68,0x69,0x69,0x3a,0x0c,0x40,0x76,0x6f,0x6c,0x75,0x6d,0x65,0x69,0x55))
  PictureDisplay(10,"sys_noise",0,0,0,0,100,100,0,0)
  PictureMove(10,null,0,0,0,0,100,100,255,0,30,true)
  PictureDisplay(5,"80_alice8th6_st05",0,0,0,0,100,100,255,0)
  PictureMove(10,null,0,0,0,0,100,100,0,0,30,true)
  PictureClear(10)
  ShowMessageFace("alice8th_fc4",4,0,2,38)
  ShowMessage("\\n<Black Alice>Ahahahahahaha■hahaha■hahahahaha■■ha■■■ha■■■ha■■■■■■■■■■■!!!!!")
  PictureClear(5)
  250(bytes(0x04,0x08,0x6f,0x3a,0x0c,0x52,0x50,0x47,0x3a,0x3a,0x53,0x45,0x08,0x3a,0x0a,0x40,0x6e,0x61,0x6d,0x65,0x49,0x22,0x0d,0x6d,0x6f,0x6e,0x5f,0x62,0x6f,0x6d,0x31,0x06,0x3a,0x06,0x45,0x54,0x3a,0x0b,0x40,0x70,0x69,0x74,0x63,0x68,0x69,0x69,0x3a,0x0c,0x40,0x76,0x6f,0x6c,0x75,0x6d,0x65,0x69,0x69))
  225(7,7,180,false)
  PictureDisplay(10,"sys_noise",0,0,0,0,100,100,0,0)
  PictureMove(10,null,0,0,0,0,100,100,255,0,60,true)
  211(0)
  TeleportPlayer(0,726,12,17,8,2)
  PictureMove(10,null,0,0,0,0,100,100,0,0,60,true)
  PictureClear(10)
  ShowMessageFace("alice8th_fc4",4,0,2,39)
  ShowMessage("\\n<Black Alice>■■■■■■■■■■■■■■■■■■■■■■\n■■■■■■■■■■■■■■■■■■■！！！")
  Wait(30)
  ShowMessageFace("sirousagi_fc1",0,0,2,40)
  ShowMessage("\\n<White Rabbit>--And then, a third god was born.")
  250(bytes(0x04,0x08,0x6f,0x3a,0x0c,0x52,0x50,0x47,0x3a,0x3a,0x53,0x45,0x08,0x3a,0x0a,0x40,0x6e,0x61,0x6d,0x65,0x49,0x22,0x0e,0x44,0x61,0x72,0x6b,0x6e,0x65,0x73,0x73,0x31,0x06,0x3a,0x06,0x45,0x54,0x3a,0x0b,0x40,0x70,0x69,0x74,0x63,0x68,0x69,0x69,0x3a,0x0c,0x40,0x76,0x6f,0x6c,0x75,0x6d,0x65,0x69,0x55))
  ChangeSwitch(33,33,0)
  ShowMessageFace("",0,0,2,41)
  ShowMessage("\\n<Doctor A>Uwaaah! What is this monster...?!")
  ShowMessageFace("",0,0,2,42)
  ShowMessage("\\n<Doctor B>Hyaa... My body is...\nF-fusing into the wall...")
  ShowMessageFace("",0,0,2,43)
  ShowMessage("\\n<Assistant>A-am I alive?\nMy torso■■gone, why■■I still al■■■■■■■■■■■eyaaah!!")
  PictureDisplay(5,"iv_catas1",0,0,0,0,100,100,0,0)
  PictureMove(5,null,0,0,0,0,100,100,255,0,30,true)
  ShowMessageFace("",0,0,2,44)
  ShowMessage("\\n<Doctor A>Help■■■■■■■■■■■■■■■■■■■■■■■■■\n■■■■■■■■■■■■■■■■■■■■■■■■■■■\n■■■■■■■■■■■■■■■■■■■■■■■■■■■")
  ShowMessageFace("",0,0,2,45)
  ShowMessage("\\n<Doctor B>Aa■■■■■■■■■■■■■■■■■■■■■■■■■■\n■■■■■■■■■■■■■■■■■■■■■■■■■■■\n■■■■■■■■■■■■■■■■■■■■■■■■■■■")
  ShowMessageFace("",0,0,2,46)
  ShowMessage("\\n<Assistant>■■■■■■■■■■■■■■■■■■■■■■■■■■■\n■■■■■■■■■■■■■■■■■■■■■■■■■■■\n■■■■■■■■■■■■■■■■■■■■■■■■■■■")
  PictureDisplay(6,"iv_catas2",0,0,0,0,100,100,0,0)
  PictureMove(6,null,0,0,0,0,100,100,255,0,60,true)
  ShowMessageFace("sirousagi_fc1",0,0,2,47)
  ShowMessage("\\n<White Rabbit>Thus, Remina became the center of the Great Disaster. Swallowed by the chaos, it fragmented and formed Tartarus.")
  ShowMessageFace("sirousagi_fc1",0,0,2,48)
  ShowMessage("\\n<White Rabbit>However, the damage was not limited to just Remina--")
  PictureDisplay(7,"iv_catas3",0,0,0,0,100,100,0,0)
  PictureMove(7,null,0,0,0,0,100,100,255,0,60,true)
  ShowMessageFace("alice8th_fc4",4,0,2,49)
  ShowMessage("\\n<Black Alice>■■■■■■■■■■■■■■■■■■■■■■■■■■■\n■■■■■■■■■■■■■■■■■■■■■■■■■■■\n■■■■■■■■■■■■■■■■■■■■■■■■■■■")
  ShowMessageFace("sirousagi_fc1",0,0,2,50)
  ShowMessage("\\n<White Rabbit>Black Alice's power unleashed a torrent of chaos. The overflowing chaos opened holes in space-time and rent the world asunder.")
  ShowMessageFace("sirousagi_fc1",0,0,2,51)
  ShowMessage("\\n<White Rabbit>Heaven was also struck directly, and Ilias suffered a fatal wound. Because the Ilias of the true history was confirmed to be dead, she was affected by that new causality.")
  ShowMessageFace("sirousagi_fc1",0,0,2,52)
  ShowMessage("\\n<White Rabbit>Space-time warped, and was eroded... and a chain of parallel worlds were born. The rifts in space-time became Tartarus, tunnels between worlds.")
  PictureClear(6)
  PictureDisplay(5,"iv_catas4",0,0,0,0,100,100,255,0)
  PictureMove(7,null,0,0,0,0,100,100,0,0,90,true)
  PictureClear(7)
  241(bytes(0x04,0x08,0x6f,0x3a,0x0d,0x52,0x50,0x47,0x3a,0x3a,0x42,0x47,0x4d,0x08,0x3a,0x0a,0x40,0x6e,0x61,0x6d,0x65,0x49,0x22,0x0e,0x6b,0x75,0x72,0x6f,0x61,0x6c,0x69,0x63,0x65,0x06,0x3a,0x06,0x45,0x54,0x3a,0x0c,0x40,0x76,0x6f,0x6c,0x75,0x6d,0x65,0x69,0x69,0x3a,0x0b,0x40,0x70,0x69,0x74,0x63,0x68,0x69,0x69))
  ShowMessageFace("alice8th_fc4",1,0,2,53)
  ShowMessage("\\n<Black Alice>Ufufufufu...")
  Wait(30)
  ShowMessageFace("sirousagi_fc1",0,0,2,54)
  ShowMessage("\\n<White Rabbit>...A third god, Black Alice, was born on this earth. This is the first time since the Age of the Gods that a god other than the two had been born.")
  Wait(30)
  ShowMessageFace("alice8th_fc4",1,0,2,55)
  ShowMessage("\\n<Black Alice>This world shall now be my delightful toy box.\nNow, what shall I play...?")
  ShowMessageFace("alice8th_fc4",0,0,2,56)
  ShowMessage("\\n<Black Alice>...Oh my? What's this...?")
  PictureDisplay(6,"iv_6so",0,0,0,0,100,100,0,0)
  PictureMove(6,null,0,0,0,0,100,100,255,0,60,true)
  ShowMessageFace("alice8th_fc4",1,0,2,57)
  ShowMessage("\\n<Black Alice>I feel, a world of darkness...\nOther beings who desire this world...")
  ShowMessageFace("alice8th_fc4",1,0,2,58)
  ShowMessage("\\n<Black Alice>Ufufu, they're in my world now...\nThose who've come from that dark world...")
  PictureDisplay(7,"iv_7angel",0,0,0,0,100,100,0,0)
  PictureMove(7,null,0,0,0,0,100,100,255,0,60,true)
  ShowMessageFace("alice8th_fc4",1,0,2,59)
  ShowMessage("\\n<Black Alice>Ufufu, and there are other visitors over there... Beings from a world of light are also lurking in my world...")
  ShowMessageFace("alice8th_fc4",1,0,2,60)
  ShowMessage("\\n<Black Alice>Do they also want my world too...?\nUfufu... This is turning into a very exciting party...")
  PictureClear(6)
  PictureMove(7,null,0,0,0,0,100,100,0,0,30,true)
  PictureClear(7)
  ShowMessageFace("alice8th_fc4",0,0,2,61)
  ShowMessage("\\n<Black Alice>Fufufu... Ufufufufu...")
  242(1)
  Wait(30)
  ShowMessageFace("sirousagi_fc1",0,0,2,62)
  ShowMessage("\\n<White Rabbit>...That was everything that happened on that day.\nNo point staying here any longer, let's head back to our original era--")
  PictureDisplay(6,"80_alice8th6_st01",0,0,0,0,100,100,0,0)
  PictureMove(6,null,0,0,0,0,100,100,255,0,60,false)
  241(bytes(0x04,0x08,0x6f,0x3a,0x0d,0x52,0x50,0x47,0x3a,0x3a,0x42,0x47,0x4d,0x08,0x3a,0x0a,0x40,0x6e,0x61,0x6d,0x65,0x49,0x22,0x0c,0x62,0x6f,0x73,0x73,0x30,0x2d,0x33,0x06,0x3a,0x06,0x45,0x54,0x3a,0x0c,0x40,0x76,0x6f,0x6c,0x75,0x6d,0x65,0x69,0x69,0x3a,0x0b,0x40,0x70,0x69,0x74,0x63,0x68,0x69,0x69))
  ShowMessageFace("alice8th_fc4",0,0,2,63)
  ShowMessage("\\n<Black Alice>...Please wait, Miss Rabbit.\nAnd you travelers who have crossed both time and causality...")
  PictureDisplay(6,"80_alice8th6_st05",0,0,0,0,100,100,255,0)
  ShowMessageFace("alice8th_fc4",4,0,2,64)
  ShowMessage("\\n<Black Alice>Are you going to leave without saying hello...?")
  ShowMessageFace("ruka_fc1",0,0,2,65)
  ShowMessage("\\n<Luka>No way, she can see us--")
  ShowMessageFace("sirousagi_fc1",2,0,2,66)
  ShowMessage("\\n<White Rabbit>...Oh no, she's aware of us! Let's get out of here!")
  242(1)
  250(bytes(0x04,0x08,0x6f,0x3a,0x0c,0x52,0x50,0x47,0x3a,0x3a,0x53,0x45,0x08,0x3a,0x0a,0x40,0x6e,0x61,0x6d,0x65,0x49,0x22,0x0b,0x4d,0x61,0x67,0x69,0x63,0x37,0x06,0x3a,0x06,0x45,0x54,0x3a,0x0b,0x40,0x70,0x69,0x74,0x63,0x68,0x69,0x69,0x3a,0x0c,0x40,0x76,0x6f,0x6c,0x75,0x6d,0x65,0x69,0x55))
  221()
  PictureClear(5)
  PictureClear(6)
  Wait(120)
  ChangeVariable(1075,1075,0,0,14)
  ChangeSwitch(31,31,1)
  ChangeSwitch(32,32,1)
  ChangeSwitch(33,33,1)
  TeleportPlayer(0,138,32,9,8,2)
  241(bytes(0x04,0x08,0x6f,0x3a,0x0d,0x52,0x50,0x47,0x3a,0x3a,0x42,0x47,0x4d,0x08,0x3a,0x0a,0x40,0x6e,0x61,0x6d,0x65,0x49,0x22,0x0a,0x69,0x72,0x69,0x61,0x73,0x06,0x3a,0x06,0x45,0x54,0x3a,0x0c,0x40,0x76,0x6f,0x6c,0x75,0x6d,0x65,0x69,0x69,0x3a,0x0b,0x40,0x70,0x69,0x74,0x63,0x68,0x69,0x69))
  0()



EVENT   6
 PAGE   1
  0()



EVENT   7
 PAGE   1
  0()



EVENT   8
 PAGE   1
  0()



EVENT   9
 PAGE   1
  0()



EVENT   10
 PAGE   1
  0()



EVENT   11
 PAGE   1
  0()



EVENT   12
 PAGE   1
  0()



EVENT   13
 PAGE   1
  0()



EVENT   14
 PAGE   1
  0()



EVENT   15
 PAGE   1
  0()
