﻿
DisplayName "Oxton Coast"



EVENT   1
 PAGE   1
  ChangeSwitch(31,31,1)
  ChangeSwitch(32,32,1)
  250(bytes(0x04,0x08,0x6f,0x3a,0x0c,0x52,0x50,0x47,0x3a,0x3a,0x53,0x45,0x08,0x3a,0x0a,0x40,0x6e,0x61,0x6d,0x65,0x49,0x22,0x09,0x4d,0x6f,0x76,0x65,0x06,0x3a,0x06,0x45,0x54,0x3a,0x0b,0x40,0x70,0x69,0x74,0x63,0x68,0x69,0x69,0x3a,0x0c,0x40,0x76,0x6f,0x6c,0x75,0x6d,0x65,0x69,0x55))
  TeleportPlayer(0,848,7,50,2,0)
  0()



EVENT   2
 PAGE   1
  // condition: variable 1203 >= 0
  355("keep_all_equip")
  355("set_temp_actors(819)")
  ShowMessageFace("",0,0,2,1)
  ShowMessage("\\n<Lest>...")
  ShowMessageFace("",0,0,2,2)
  ShowMessage("\\n<Woman's Voice>Hey, wake up...\nAre you okay? Wake up...")
  ShowMessageFace("rest_fc1",0,0,2,3)
  ShowMessage("\\n<Lest>Uh... Uhh...")
  222()
  241(bytes(0x04,0x08,0x6f,0x3a,0x0d,0x52,0x50,0x47,0x3a,0x3a,0x42,0x47,0x4d,0x08,0x3a,0x0a,0x40,0x6e,0x61,0x6d,0x65,0x49,0x22,0x12,0x64,0x75,0x6e,0x67,0x65,0x6f,0x6e,0x5f,0x73,0x69,0x6e,0x70,0x69,0x06,0x3a,0x06,0x45,0x54,0x3a,0x0c,0x40,0x76,0x6f,0x6c,0x75,0x6d,0x65,0x69,0x69,0x3a,0x0b,0x40,0x70,0x69,0x74,0x63,0x68,0x69,0x69))
  Wait(60)
  ShowSpeechBalloon(-1,8,true)
  PictureDisplay(5,"80_rest_st01",0,0,0,0,100,100,0,0)
  PictureMove(5,null,0,0,0,0,100,100,255,0,30,true)
  ShowMessageFace("rest_fc1",0,0,2,4)
  ShowMessage("\\n<Lest>T-This is... the coast?")
  ShowMessageFace("tarsa_fc1",0,0,2,5)
  ShowMessage("\\n<Mysterious Woman>I'm glad, you don't have any serious injury...\nYou haven't lost your memory, have you?")
  205(-1,bytes(0x04,0x08,0x6f,0x3a,0x13,0x52,0x50,0x47,0x3a,0x3a,0x4d,0x6f,0x76,0x65,0x52,0x6f,0x75,0x74,0x65,0x09,0x3a,0x0c,0x40,0x72,0x65,0x70,0x65,0x61,0x74,0x46,0x3a,0x0f,0x40,0x73,0x6b,0x69,0x70,0x70,0x61,0x62,0x6c,0x65,0x46,0x3a,0x0a,0x40,0x77,0x61,0x69,0x74,0x54,0x3a,0x0a,0x40,0x6c,0x69,0x73,0x74,0x5b,0x07,0x6f,0x3a,0x15,0x52,0x50,0x47,0x3a,0x3a,0x4d,0x6f,0x76,0x65,0x43,0x6f,0x6d,0x6d,0x61,0x6e,0x64,0x07,0x3a,0x0a,0x40,0x63,0x6f,0x64,0x65,0x69,0x17,0x3a,0x10,0x40,0x70,0x61,0x72,0x61,0x6d,0x65,0x74,0x65,0x72,0x73,0x5b,0x00,0x6f,0x3b,0x0a,0x07,0x3b,0x0b,0x69,0x00,0x3b,0x0c,0x5b,0x00))
  ShowMessageFace("rest_fc1",0,0,2,6)
  ShowMessage("\\n<Lest>Memory...?")
  PictureClear(5)
  ShowMessageFace("",0,0,2,7)
  ShowMessage("I remember seeing a black vortex in the middle of my adventure.\nJust after that, I was sucked into it.")
  ShowMessageFace("rest_fc1",0,0,2,8)
  ShowMessage("\\n<Lest>I was swallowed inside a black vortex...\nI don't remember anything after that...")
  ShowMessageFace("",0,0,2,9)
  ShowMessage("Then, I was lying here when I regained consciousness.\nBut why was I transported to the coast...?")
  PictureDisplay(5,"80_tarsa_st01",0,0,0,0,100,100,0,0)
  PictureMove(5,null,0,0,0,0,100,100,255,0,30,true)
  ShowMessageFace("tarsa_fc1",0,0,2,10)
  ShowMessage("\\n<Mysterious Woman>Indeed... You saw the black vortex, after all...\nActually, it was the same for me.")
  ShowMessageFace("rest_fc1",0,0,2,11)
  ShowMessage("\\n<Lest>The same...?\nThe black vortex got you as well?")
  ShowMessageFace("tarsa_fc1",0,0,2,12)
  ShowMessage("\\n<Mysterious Woman>Yes. When I was walking outside, I got sucked into the black vortex...")
  ShowMessageFace("tarsa_fc1",0,0,2,13)
  ShowMessage("\\n<Mysterious Woman>The next thing I knew, I found myself lying here.\nI woke up before you, but that's the only difference there is between us.")
  ShowMessageFace("rest_fc1",0,0,2,14)
  ShowMessage("\\n<Lest>I see... Which means we're both comrades who've been involved in some strange trouble.")
  ShowMessageFace("tarsa_fc1",0,0,2,15)
  ShowMessage("\\n<Tarsa>I'm Tarsa, a priestess from Comodo. And you?")
  ShowMessageFace("rest_fc1",0,0,2,16)
  ShowMessage("\\n<Lest>I'm Lest... a swordsman.\nHave you ever heard of the Almighty Swordsman?")
  ShowMessageFace("tarsa_fc1",0,0,2,17)
  ShowMessage("\\n<Tarsa>Sorry, this is the first time I've heard that title...")
  ShowMessageFace("rest_fc1",0,0,2,18)
  ShowMessage("\\n<Lest>I-I see...\nBy the way, what's Comodo?")
  ShowMessageFace("tarsa_fc1",0,0,2,19)
  ShowMessage("\\n<Tarsa>Never heard of it?\nIt's a pretty famous island though...")
  ShowMessageFace("rest_fc1",0,0,2,20)
  ShowMessage("\\n<Lest>No... I've never heard of that place.")
  ShowMessageFace("",0,0,2,21)
  ShowMessage("...Something feels wrong.\nI feel an inexplicable sense of discomfort.")
  ShowMessageFace("",0,0,2,22)
  ShowMessage("But for now, we should get out of here.\nYou never know what kind of danger there might be in strange place you know nothing about...")
  ShowMessageFace("rest_fc1",0,0,2,23)
  ShowMessage("\\n<Lest>Anyway, let's move to a safer place.\nIf someone has kidnapped us, we're not safe here.")
  ShowMessageFace("",0,0,2,24)
  ShowMessage("To be frank, I don't think we've been kidnapped.\nI don't feel any sign of anyone monitoring us.")
  ShowMessageFace("",0,0,2,25)
  ShowMessage("But for now, our priority is to keep ourselves safe.\nI have to protect Tarsa as well, not just myself.")
  ShowMessageFace("tarsa_fc1",0,0,2,26)
  ShowMessage("\\n<Tarsa>Yeah, it might be dangerous here...")
  PictureClear(5)
  Wait(30)
  205(3,bytes(0x04,0x08,0x6f,0x3a,0x13,0x52,0x50,0x47,0x3a,0x3a,0x4d,0x6f,0x76,0x65,0x52,0x6f,0x75,0x74,0x65,0x09,0x3a,0x0c,0x40,0x72,0x65,0x70,0x65,0x61,0x74,0x46,0x3a,0x0f,0x40,0x73,0x6b,0x69,0x70,0x70,0x61,0x62,0x6c,0x65,0x46,0x3a,0x0a,0x40,0x77,0x61,0x69,0x74,0x54,0x3a,0x0a,0x40,0x6c,0x69,0x73,0x74,0x5b,0x09,0x6f,0x3a,0x15,0x52,0x50,0x47,0x3a,0x3a,0x4d,0x6f,0x76,0x65,0x43,0x6f,0x6d,0x6d,0x61,0x6e,0x64,0x07,0x3a,0x0a,0x40,0x63,0x6f,0x64,0x65,0x69,0x2a,0x3a,0x10,0x40,0x70,0x61,0x72,0x61,0x6d,0x65,0x74,0x65,0x72,0x73,0x5b,0x00,0x6f,0x3b,0x0a,0x07,0x3b,0x0b,0x69,0x0f,0x3b,0x0c,0x5b,0x00,0x6f,0x3b,0x0a,0x07,0x3b,0x0b,0x69,0x2c,0x3b,0x0c,0x5b,0x00,0x6f,0x3b,0x0a,0x07,0x3b,0x0b,0x69,0x00,0x3b,0x0c,0x5b,0x00))
  ShowMessageFace("rest_fc1",0,0,2,27)
  ShowMessage("\\n<Lest>Anyway, let's find a human village.")
  ShowMessageFace("",0,0,2,28)
  ShowMessage("Thus Tarsa and I have decided to move on without knowing where we're going.\nBut for now, we need to get somewhere safe and settle down...")
  ShowMessageFace("rest_fc1",0,0,2,29)
  ShowMessage("\\n<Lest>Um, by the way...\nCould you put some clothes on...?")
  PictureDisplay(5,"80_tarsa_st01",0,0,0,0,100,100,0,0)
  PictureMove(5,null,0,0,0,0,100,100,255,0,30,true)
  ShowMessageFace("",0,0,2,30)
  ShowMessage("Tarsa's outfit is way too revealing.\nHonestly, I can't help but look at her.")
  PictureDisplay(5,"80_tarsa_st02",0,0,0,0,100,100,255,0)
  ShowMessageFace("tarsa_fc1",1,0,2,31)
  ShowMessage("\\n<Tarsa>Lest... Are you shy?\nThis is a normal outfit in Comodo.")
  ShowMessageFace("tarsa_fc1",1,0,2,32)
  ShowMessage("\\n<Tarsa>Are you the innocent type, Lest?\nI'm sorry if I've gotten you excited.")
  ShowMessageFace("rest_fc1",0,0,2,33)
  ShowMessage("\\n<Lest>No, that's not it...")
  ShowMessageFace("",0,0,2,34)
  ShowMessage("I wiped the sweat on my face with the back of my hand, and...")
  ShowMessageFace("rest_fc1",0,0,2,35)
  ShowMessage("\\n<Lest>Hm...? This is...")
  PictureDisplay(5,"iv_collabo_emb",0,0,0,0,100,100,0,0)
  PictureMove(5,null,0,0,0,0,100,100,255,0,30,true)
  ShowMessageFace("",0,0,2,36)
  ShowMessage("I notice a strange crest on the back of my hand.\nThat thing wasn't there before.")
  ShowMessageFace("rest_fc1",0,0,2,37)
  ShowMessage("\\n<Lest>What the...")
  ShowMessageFace("",0,0,2,38)
  ShowMessage("There does not seem to be anything similar on Tarsa's hand.\nI wonder what's happening to our bodies...")
  PictureMove(5,null,0,0,0,0,100,100,0,0,30,true)
  PictureClear(5)
  355("add_temp_actors(824)")
  ChangeVariable(1203,1203,0,0,1)
  241(bytes(0x04,0x08,0x6f,0x3a,0x0d,0x52,0x50,0x47,0x3a,0x3a,0x42,0x47,0x4d,0x08,0x3a,0x0a,0x40,0x6e,0x61,0x6d,0x65,0x49,0x22,0x08,0x75,0x6d,0x69,0x06,0x3a,0x06,0x45,0x54,0x3a,0x0c,0x40,0x76,0x6f,0x6c,0x75,0x6d,0x65,0x69,0x69,0x3a,0x0b,0x40,0x70,0x69,0x74,0x63,0x68,0x69,0x69))
  EndEventProcessing()
  0()
 PAGE   2
  // condition: variable 1203 >= 1
  0()



EVENT   3
 PAGE   1
  0()
 PAGE   2
  // condition: variable 1203 >= 1
  0()



EVENT   4
 PAGE   1
  // condition: switch 31 is ON
  0()



EVENT   5
 PAGE   1
  // condition: variable 1203 >= 1
  ChangeSwitch(31,31,0)
  205(4,bytes(0x04,0x08,0x6f,0x3a,0x13,0x52,0x50,0x47,0x3a,0x3a,0x4d,0x6f,0x76,0x65,0x52,0x6f,0x75,0x74,0x65,0x09,0x3a,0x0c,0x40,0x72,0x65,0x70,0x65,0x61,0x74,0x46,0x3a,0x0f,0x40,0x73,0x6b,0x69,0x70,0x70,0x61,0x62,0x6c,0x65,0x46,0x3a,0x0a,0x40,0x77,0x61,0x69,0x74,0x54,0x3a,0x0a,0x40,0x6c,0x69,0x73,0x74,0x5b,0x09,0x6f,0x3a,0x15,0x52,0x50,0x47,0x3a,0x3a,0x4d,0x6f,0x76,0x65,0x43,0x6f,0x6d,0x6d,0x61,0x6e,0x64,0x07,0x3a,0x0a,0x40,0x63,0x6f,0x64,0x65,0x69,0x31,0x3a,0x10,0x40,0x70,0x61,0x72,0x61,0x6d,0x65,0x74,0x65,0x72,0x73,0x5b,0x06,0x6f,0x3a,0x0c,0x52,0x50,0x47,0x3a,0x3a,0x53,0x45,0x08,0x3a,0x0a,0x40,0x6e,0x61,0x6d,0x65,0x49,0x22,0x0b,0x57,0x61,0x74,0x65,0x72,0x31,0x06,0x3a,0x06,0x45,0x54,0x3a,0x0b,0x40,0x70,0x69,0x74,0x63,0x68,0x69,0x69,0x3a,0x0c,0x40,0x76,0x6f,0x6c,0x75,0x6d,0x65,0x69,0x55,0x6f,0x3b,0x0a,0x07,0x3b,0x0b,0x69,0x13,0x3b,0x0c,0x5b,0x07,0x69,0xfa,0x69,0xfa,0x6f,0x3b,0x0a,0x07,0x3b,0x0b,0x69,0x16,0x3b,0x0c,0x5b,0x00,0x6f,0x3b,0x0a,0x07,0x3b,0x0b,0x69,0x00,0x3b,0x0c,0x5b,0x00))
  241(bytes(0x04,0x08,0x6f,0x3a,0x0d,0x52,0x50,0x47,0x3a,0x3a,0x42,0x47,0x4d,0x08,0x3a,0x0a,0x40,0x6e,0x61,0x6d,0x65,0x49,0x22,0x0a,0x6b,0x69,0x6b,0x69,0x32,0x06,0x3a,0x06,0x45,0x54,0x3a,0x0c,0x40,0x76,0x6f,0x6c,0x75,0x6d,0x65,0x69,0x69,0x3a,0x0b,0x40,0x70,0x69,0x74,0x63,0x68,0x69,0x69))
  PictureDisplay(5,"80_mermaid_st01",0,0,0,0,100,100,0,0)
  PictureMove(5,null,0,0,0,0,100,100,255,0,30,true)
  ShowMessageFace("mermaid_fc1",3,0,2,1)
  ShowMessage("\\n<Mermaid>Oh... It's rare to find humans here.\nSince you're here, why don't you play with me...?")
  ShowMessageFace("rest_fc1",0,0,2,2)
  ShowMessage("\\n<Lest>I'm sorry, but we don't have time to play.\nBut we'd appreciate it if you could tell us where we are...")
  ShowMessageFace("mermaid_fc1",3,0,2,3)
  ShowMessage("\\n<Mermaid>Hm, so you're lost...\nWell, that's too bad, because you're never going home again♪")
  ShowMessageFace("",0,0,2,4)
  ShowMessage("Her tone is blatantly malicious.\nThis mermaid seems to be the kind who assaults people...")
  ShowMessageFace("rest_fc1",0,0,2,5)
  ShowMessage("\\n<Lest>...She's an enemy!\nTarsa, step back.")
  ShowMessageFace("tarsa_fc1",0,0,2,6)
  ShowMessage("\\n<Tarsa>I'm a dancer, I can assist you at the very least.\nI've fought sea monsters before.")
  ShowMessageFace("mermaid_fc1",3,0,2,7)
  ShowMessage("\\n<Mermaid>My, you're both full of spirit.\nI'll have plenty of fun...♪")
  PictureClear(5)
  Battle(0,1315,false,false)
  ChangeVariable(1203,1203,0,0,2)
  ChangeSwitch(31,31,1)
  241(bytes(0x04,0x08,0x6f,0x3a,0x0d,0x52,0x50,0x47,0x3a,0x3a,0x42,0x47,0x4d,0x08,0x3a,0x0a,0x40,0x6e,0x61,0x6d,0x65,0x49,0x22,0x08,0x75,0x6d,0x69,0x06,0x3a,0x06,0x45,0x54,0x3a,0x0c,0x40,0x76,0x6f,0x6c,0x75,0x6d,0x65,0x69,0x69,0x3a,0x0b,0x40,0x70,0x69,0x74,0x63,0x68,0x69,0x69))
  ShowMessageFace("rest_fc1",0,0,2,8)
  ShowMessage("\\n<Lest>To think we would be attacked by a monster out of the blue...\nThis place seems to be more dangerous than I thought.")
  PictureDisplay(5,"80_tarsa_st01",0,0,0,0,100,100,0,0)
  PictureMove(5,null,0,0,0,0,100,100,255,0,30,true)
  ShowMessageFace("tarsa_fc1",0,0,2,9)
  ShowMessage("\\n<Tarsa>I wonder if Novissa is here as well...")
  ShowMessageFace("rest_fc1",0,0,2,10)
  ShowMessage("\\n<Lest>Novissa...?")
  ShowMessageFace("tarsa_fc1",0,0,2,11)
  ShowMessage("\\n<Tarsa>One of my acquaintances.\nWe were together when we got sucked into the black vortex.")
  ShowMessageFace("rest_fc1",0,0,2,12)
  ShowMessage("\\n<Lest>Then... it wouldn't be strange to find that person around here.\nBut for now, my priority is to escort you to a safe place.")
  ShowMessageFace("tarsa_fc1",0,0,2,13)
  ShowMessage("\\n<Tarsa>Yeah, that's fine.\nKnowing Novissa, I don't need to be worried...")
  ShowMessageFace("tarsa_fc1",0,0,2,14)
  ShowMessage("\\n<Tarsa>I'm sure Novissa is looking for me, too.\nRegardless of how strong the enemy might be...")
  ShowMessageFace("",0,0,2,15)
  ShowMessage("Novissa... must probably be quite powerful.\nAnd I can tell that this man is very special to Tarsa.")
  ShowMessageFace("",0,0,2,16)
  ShowMessage("All the more reason to bring her back to Novissa's side...")
  ShowMessageFace("rest_fc1",0,0,2,17)
  ShowMessage("\\n<Lest>...Let's go.\nThis place seems to be infested with monsters, so we have to be careful.")
  ShowMessageFace("tarsa_fc1",0,0,2,18)
  ShowMessage("\\n<Tarsa>I'm not going to be a burden.\nI'll assist you, Lest!")
  PictureClear(5)
  EndEventProcessing()
  0()
 PAGE   2
  // condition: variable 1203 >= 2
  0()



EVENT   6
 PAGE   1
  // condition: variable 1203 >= 2
  217()
  205(-1,bytes(0x04,0x08,0x6f,0x3a,0x13,0x52,0x50,0x47,0x3a,0x3a,0x4d,0x6f,0x76,0x65,0x52,0x6f,0x75,0x74,0x65,0x09,0x3a,0x0c,0x40,0x72,0x65,0x70,0x65,0x61,0x74,0x46,0x3a,0x0f,0x40,0x73,0x6b,0x69,0x70,0x70,0x61,0x62,0x6c,0x65,0x46,0x3a,0x0a,0x40,0x77,0x61,0x69,0x74,0x54,0x3a,0x0a,0x40,0x6c,0x69,0x73,0x74,0x5b,0x07,0x6f,0x3a,0x15,0x52,0x50,0x47,0x3a,0x3a,0x4d,0x6f,0x76,0x65,0x43,0x6f,0x6d,0x6d,0x61,0x6e,0x64,0x07,0x3a,0x0a,0x40,0x63,0x6f,0x64,0x65,0x69,0x18,0x3a,0x10,0x40,0x70,0x61,0x72,0x61,0x6d,0x65,0x74,0x65,0x72,0x73,0x5b,0x00,0x6f,0x3b,0x0a,0x07,0x3b,0x0b,0x69,0x00,0x3b,0x0c,0x5b,0x00))
  ShowSpeechBalloon(-1,8,false)
  Wait(90)
  ShowMessageFace("rest_fc1",0,0,2,1)
  ShowMessage("\\n<Lest>What an intricate cove...\nI really wonder if there are any humans around here.")
  PictureDisplay(5,"80_tarsa_st03",0,0,0,0,100,100,0,0)
  PictureMove(5,null,0,0,0,0,100,100,255,0,30,true)
  ShowMessageFace("tarsa_fc1",2,0,2,2)
  ShowMessage("\\n<Tarsa>This place seems to be quite far from any human habitation.\nSo this isn't Comodo's coast...?")
  ShowMessageFace("rest_fc1",0,0,2,3)
  ShowMessage("\\n<Lest>Comodo...\nIf I remember correctly, Comodo is where you live.")
  ShowMessageFace("",0,0,2,4)
  ShowMessage("She said it's a famous island, but I've never heard of it.\nSuddenly, I had a bad feeling.")
  ShowMessageFace("rest_fc1",0,0,2,5)
  ShowMessage("\\n<Lest>Um, Tarsa... You know Wylat, right?\nOr Eslar...")
  241(bytes(0x04,0x08,0x6f,0x3a,0x0d,0x52,0x50,0x47,0x3a,0x3a,0x42,0x47,0x4d,0x08,0x3a,0x0a,0x40,0x6e,0x61,0x6d,0x65,0x49,0x22,0x0a,0x6b,0x69,0x6b,0x69,0x32,0x06,0x3a,0x06,0x45,0x54,0x3a,0x0c,0x40,0x76,0x6f,0x6c,0x75,0x6d,0x65,0x69,0x69,0x3a,0x0b,0x40,0x70,0x69,0x74,0x63,0x68,0x69,0x69))
  ShowMessageFace("tarsa_fc1",2,0,2,6)
  ShowMessage("\\n<Tarsa>Are those place names?\n...I've never heard of either of them.")
  ShowMessageFace("rest_fc1",0,0,2,7)
  ShowMessage("\\n<Lest>No way...")
  ShowMessageFace("",0,0,2,8)
  ShowMessage("Both Wylat and Eslar are world-renowned great powers.\nThere isn't anyone who hasn't heard of those two countries, even in the countryside.")
  ShowMessageFace("",0,0,2,9)
  ShowMessage("And there's a strange feeling of discomfort coming from the world itself.\nIt feels like when the cogs of a mechanism aren't functioning properly...")
  ShowMessageFace("rest_fc1",0,0,2,10)
  ShowMessage("\\n<Lest>Could it be...\nDo we both come from different worlds?")
  ShowMessageFace("tarsa_fc1",2,0,2,11)
  ShowMessage("\\n<Tarsa>Huh...!?\nNo, that's not pos-")
  ShowMessageFace("rest_fc1",0,0,2,12)
  ShowMessage("\\n<Lest>But that's all I can think of...")
  ShowMessageFace("",0,0,2,13)
  ShowMessage("We both shared the knowledge of our worlds with each other and nothing matches.")
  ShowMessageFace("",0,0,2,14)
  ShowMessage("Also, we drew simple world maps on the sandy beach...\nEven those were completely different.")
  ShowMessageFace("tarsa_fc1",2,0,2,15)
  ShowMessage("\\n<Tarsa>Unbelievable...\nSomething like this...")
  ShowMessageFace("rest_fc1",0,0,2,16)
  ShowMessage("\\n<Lest>And perhaps...\nThis world is different from both mine and yours.")
  ShowMessageFace("rest_fc1",0,0,2,17)
  ShowMessage("\\n<Lest>It must be because of that black vortex.\nI think we were transported to another world through that.")
  ShowMessageFace("tarsa_fc1",2,0,2,18)
  ShowMessage("\\n<Tarsa>When you think about it... it makes sense.")
  ShowMessageFace("",0,0,2,19)
  ShowMessage("Why did we get pulled into another world?\nIs it someone's trap? Or...")
  ShowMessageFace("rest_fc1",0,0,2,20)
  ShowMessage("\\n<Lest>Either way, the priority is to ensure our safety.\nThis place is full of monsters.")
  PictureDisplay(5,"80_tarsa_st01",0,0,0,0,100,100,255,0)
  ShowMessageFace("tarsa_fc1",0,0,2,21)
  ShowMessage("\\n<Tarsa>Hehe, you're right.\nIf we want to gather information, we have to go to a human settlement...")
  PictureClear(5)
  ShowMessageFace("",0,0,2,22)
  ShowMessage("In the end, the fact that we have to get away from the coast hasn't changed.\nTarsa and I traveled on the coast, our minds full of questions...")
  241(bytes(0x04,0x08,0x6f,0x3a,0x0d,0x52,0x50,0x47,0x3a,0x3a,0x42,0x47,0x4d,0x08,0x3a,0x0a,0x40,0x6e,0x61,0x6d,0x65,0x49,0x22,0x08,0x75,0x6d,0x69,0x06,0x3a,0x06,0x45,0x54,0x3a,0x0c,0x40,0x76,0x6f,0x6c,0x75,0x6d,0x65,0x69,0x69,0x3a,0x0b,0x40,0x70,0x69,0x74,0x63,0x68,0x69,0x69))
  ChangeVariable(1203,1203,0,0,3)
  EndEventProcessing()
  0()
 PAGE   2
  // condition: variable 1203 >= 3
  0()



EVENT   7
 PAGE   1
  // condition: variable 1203 >= 3
  205(-1,bytes(0x04,0x08,0x6f,0x3a,0x13,0x52,0x50,0x47,0x3a,0x3a,0x4d,0x6f,0x76,0x65,0x52,0x6f,0x75,0x74,0x65,0x09,0x3a,0x0c,0x40,0x72,0x65,0x70,0x65,0x61,0x74,0x46,0x3a,0x0f,0x40,0x73,0x6b,0x69,0x70,0x70,0x61,0x62,0x6c,0x65,0x46,0x3a,0x0a,0x40,0x77,0x61,0x69,0x74,0x54,0x3a,0x0a,0x40,0x6c,0x69,0x73,0x74,0x5b,0x07,0x6f,0x3a,0x15,0x52,0x50,0x47,0x3a,0x3a,0x4d,0x6f,0x76,0x65,0x43,0x6f,0x6d,0x6d,0x61,0x6e,0x64,0x07,0x3a,0x0a,0x40,0x63,0x6f,0x64,0x65,0x69,0x18,0x3a,0x10,0x40,0x70,0x61,0x72,0x61,0x6d,0x65,0x74,0x65,0x72,0x73,0x5b,0x00,0x6f,0x3b,0x0a,0x07,0x3b,0x0b,0x69,0x00,0x3b,0x0c,0x5b,0x00))
  ShowMessageFace("rest_fc1",0,0,2,1)
  ShowMessage("\\n<Lest>Looks like a cave entrance.\nThis signboard is old and hard to read...")
  ShowMessageFace("tarsa_fc1",0,0,2,2)
  ShowMessage("\\n<Tarsa>It looks like it says \"Cave to Grand Noah\"...")
  ShowMessageFace("rest_fc1",0,0,2,3)
  ShowMessage("\\n<Lest>Grand Noah... Sounds like the name of a very large city.\nIf we go through this cave, will we be able to reach that city?")
  ShowMessageFace("tarsa_fc1",0,0,2,4)
  ShowMessage("\\n<Tarsa>I think so.\nLet's get in there!")
  ChangeVariable(1203,1203,0,0,4)
  EndEventProcessing()
  0()
 PAGE   2
  // condition: variable 1203 >= 4
  0()



EVENT   8
 PAGE   1
  250(bytes(0x04,0x08,0x6f,0x3a,0x0c,0x52,0x50,0x47,0x3a,0x3a,0x53,0x45,0x08,0x3a,0x0a,0x40,0x6e,0x61,0x6d,0x65,0x49,0x22,0x0a,0x43,0x68,0x65,0x73,0x74,0x06,0x3a,0x06,0x45,0x54,0x3a,0x0b,0x40,0x70,0x69,0x74,0x63,0x68,0x69,0x69,0x3a,0x0c,0x40,0x76,0x6f,0x6c,0x75,0x6d,0x65,0x69,0x55))
  205(0,bytes(0x04,0x08,0x6f,0x3a,0x13,0x52,0x50,0x47,0x3a,0x3a,0x4d,0x6f,0x76,0x65,0x52,0x6f,0x75,0x74,0x65,0x09,0x3a,0x0c,0x40,0x72,0x65,0x70,0x65,0x61,0x74,0x46,0x3a,0x0f,0x40,0x73,0x6b,0x69,0x70,0x70,0x61,0x62,0x6c,0x65,0x46,0x3a,0x0a,0x40,0x77,0x61,0x69,0x74,0x54,0x3a,0x0a,0x40,0x6c,0x69,0x73,0x74,0x5b,0x0b,0x6f,0x3a,0x15,0x52,0x50,0x47,0x3a,0x3a,0x4d,0x6f,0x76,0x65,0x43,0x6f,0x6d,0x6d,0x61,0x6e,0x64,0x07,0x3a,0x0a,0x40,0x63,0x6f,0x64,0x65,0x69,0x29,0x3a,0x10,0x40,0x70,0x61,0x72,0x61,0x6d,0x65,0x74,0x65,0x72,0x73,0x5b,0x00,0x6f,0x3b,0x0a,0x07,0x3b,0x0b,0x69,0x16,0x3b,0x0c,0x5b,0x00,0x6f,0x3b,0x0a,0x07,0x3b,0x0b,0x69,0x14,0x3b,0x0c,0x5b,0x06,0x69,0x08,0x6f,0x3b,0x0a,0x07,0x3b,0x0b,0x69,0x17,0x3b,0x0c,0x5b,0x00,0x6f,0x3b,0x0a,0x07,0x3b,0x0b,0x69,0x14,0x3b,0x0c,0x5b,0x06,0x69,0x08,0x6f,0x3b,0x0a,0x07,0x3b,0x0b,0x69,0x00,0x3b,0x0c,0x5b,0x00))
  ChangeSelfSwitch("A",0)
  ChangeInventoryArmor(302,0,0,1,false)
  0()
 PAGE   2
  // condition: self-switch A is ON
  0()



EVENT   9
 PAGE   1
  250(bytes(0x04,0x08,0x6f,0x3a,0x0c,0x52,0x50,0x47,0x3a,0x3a,0x53,0x45,0x08,0x3a,0x0a,0x40,0x6e,0x61,0x6d,0x65,0x49,0x22,0x0a,0x43,0x68,0x65,0x73,0x74,0x06,0x3a,0x06,0x45,0x54,0x3a,0x0b,0x40,0x70,0x69,0x74,0x63,0x68,0x69,0x69,0x3a,0x0c,0x40,0x76,0x6f,0x6c,0x75,0x6d,0x65,0x69,0x55))
  205(0,bytes(0x04,0x08,0x6f,0x3a,0x13,0x52,0x50,0x47,0x3a,0x3a,0x4d,0x6f,0x76,0x65,0x52,0x6f,0x75,0x74,0x65,0x09,0x3a,0x0c,0x40,0x72,0x65,0x70,0x65,0x61,0x74,0x46,0x3a,0x0f,0x40,0x73,0x6b,0x69,0x70,0x70,0x61,0x62,0x6c,0x65,0x46,0x3a,0x0a,0x40,0x77,0x61,0x69,0x74,0x54,0x3a,0x0a,0x40,0x6c,0x69,0x73,0x74,0x5b,0x0b,0x6f,0x3a,0x15,0x52,0x50,0x47,0x3a,0x3a,0x4d,0x6f,0x76,0x65,0x43,0x6f,0x6d,0x6d,0x61,0x6e,0x64,0x07,0x3a,0x0a,0x40,0x63,0x6f,0x64,0x65,0x69,0x29,0x3a,0x10,0x40,0x70,0x61,0x72,0x61,0x6d,0x65,0x74,0x65,0x72,0x73,0x5b,0x00,0x6f,0x3b,0x0a,0x07,0x3b,0x0b,0x69,0x16,0x3b,0x0c,0x5b,0x00,0x6f,0x3b,0x0a,0x07,0x3b,0x0b,0x69,0x14,0x3b,0x0c,0x5b,0x06,0x69,0x08,0x6f,0x3b,0x0a,0x07,0x3b,0x0b,0x69,0x17,0x3b,0x0c,0x5b,0x00,0x6f,0x3b,0x0a,0x07,0x3b,0x0b,0x69,0x14,0x3b,0x0c,0x5b,0x06,0x69,0x08,0x6f,0x3b,0x0a,0x07,0x3b,0x0b,0x69,0x00,0x3b,0x0c,0x5b,0x00))
  ChangeSelfSwitch("A",0)
  ChangeInventoryArmor(1017,0,0,1,false)
  0()
 PAGE   2
  // condition: self-switch A is ON
  0()



EVENT   10
 PAGE   1
  250(bytes(0x04,0x08,0x6f,0x3a,0x0c,0x52,0x50,0x47,0x3a,0x3a,0x53,0x45,0x08,0x3a,0x0a,0x40,0x6e,0x61,0x6d,0x65,0x49,0x22,0x0a,0x43,0x68,0x65,0x73,0x74,0x06,0x3a,0x06,0x45,0x54,0x3a,0x0b,0x40,0x70,0x69,0x74,0x63,0x68,0x69,0x69,0x3a,0x0c,0x40,0x76,0x6f,0x6c,0x75,0x6d,0x65,0x69,0x55))
  205(0,bytes(0x04,0x08,0x6f,0x3a,0x13,0x52,0x50,0x47,0x3a,0x3a,0x4d,0x6f,0x76,0x65,0x52,0x6f,0x75,0x74,0x65,0x09,0x3a,0x0c,0x40,0x72,0x65,0x70,0x65,0x61,0x74,0x46,0x3a,0x0f,0x40,0x73,0x6b,0x69,0x70,0x70,0x61,0x62,0x6c,0x65,0x46,0x3a,0x0a,0x40,0x77,0x61,0x69,0x74,0x54,0x3a,0x0a,0x40,0x6c,0x69,0x73,0x74,0x5b,0x0b,0x6f,0x3a,0x15,0x52,0x50,0x47,0x3a,0x3a,0x4d,0x6f,0x76,0x65,0x43,0x6f,0x6d,0x6d,0x61,0x6e,0x64,0x07,0x3a,0x0a,0x40,0x63,0x6f,0x64,0x65,0x69,0x29,0x3a,0x10,0x40,0x70,0x61,0x72,0x61,0x6d,0x65,0x74,0x65,0x72,0x73,0x5b,0x00,0x6f,0x3b,0x0a,0x07,0x3b,0x0b,0x69,0x16,0x3b,0x0c,0x5b,0x00,0x6f,0x3b,0x0a,0x07,0x3b,0x0b,0x69,0x14,0x3b,0x0c,0x5b,0x06,0x69,0x08,0x6f,0x3b,0x0a,0x07,0x3b,0x0b,0x69,0x17,0x3b,0x0c,0x5b,0x00,0x6f,0x3b,0x0a,0x07,0x3b,0x0b,0x69,0x14,0x3b,0x0c,0x5b,0x06,0x69,0x08,0x6f,0x3b,0x0a,0x07,0x3b,0x0b,0x69,0x00,0x3b,0x0c,0x5b,0x00))
  ChangeSelfSwitch("A",0)
  ChangeInventoryArmor(167,0,0,1,false)
  0()
 PAGE   2
  // condition: self-switch A is ON
  0()



EVENT   11
 PAGE   1
  250(bytes(0x04,0x08,0x6f,0x3a,0x0c,0x52,0x50,0x47,0x3a,0x3a,0x53,0x45,0x08,0x3a,0x0a,0x40,0x6e,0x61,0x6d,0x65,0x49,0x22,0x0a,0x43,0x68,0x65,0x73,0x74,0x06,0x3a,0x06,0x45,0x54,0x3a,0x0b,0x40,0x70,0x69,0x74,0x63,0x68,0x69,0x69,0x3a,0x0c,0x40,0x76,0x6f,0x6c,0x75,0x6d,0x65,0x69,0x55))
  205(0,bytes(0x04,0x08,0x6f,0x3a,0x13,0x52,0x50,0x47,0x3a,0x3a,0x4d,0x6f,0x76,0x65,0x52,0x6f,0x75,0x74,0x65,0x09,0x3a,0x0c,0x40,0x72,0x65,0x70,0x65,0x61,0x74,0x46,0x3a,0x0f,0x40,0x73,0x6b,0x69,0x70,0x70,0x61,0x62,0x6c,0x65,0x46,0x3a,0x0a,0x40,0x77,0x61,0x69,0x74,0x54,0x3a,0x0a,0x40,0x6c,0x69,0x73,0x74,0x5b,0x0b,0x6f,0x3a,0x15,0x52,0x50,0x47,0x3a,0x3a,0x4d,0x6f,0x76,0x65,0x43,0x6f,0x6d,0x6d,0x61,0x6e,0x64,0x07,0x3a,0x0a,0x40,0x63,0x6f,0x64,0x65,0x69,0x29,0x3a,0x10,0x40,0x70,0x61,0x72,0x61,0x6d,0x65,0x74,0x65,0x72,0x73,0x5b,0x00,0x6f,0x3b,0x0a,0x07,0x3b,0x0b,0x69,0x16,0x3b,0x0c,0x5b,0x00,0x6f,0x3b,0x0a,0x07,0x3b,0x0b,0x69,0x14,0x3b,0x0c,0x5b,0x06,0x69,0x08,0x6f,0x3b,0x0a,0x07,0x3b,0x0b,0x69,0x17,0x3b,0x0c,0x5b,0x00,0x6f,0x3b,0x0a,0x07,0x3b,0x0b,0x69,0x14,0x3b,0x0c,0x5b,0x06,0x69,0x08,0x6f,0x3b,0x0a,0x07,0x3b,0x0b,0x69,0x00,0x3b,0x0c,0x5b,0x00))
  ChangeSelfSwitch("A",0)
  ChangeInventoryArmor(264,0,0,1,false)
  0()
 PAGE   2
  // condition: self-switch A is ON
  0()



EVENT   12
 PAGE   1
  250(bytes(0x04,0x08,0x6f,0x3a,0x0c,0x52,0x50,0x47,0x3a,0x3a,0x53,0x45,0x08,0x3a,0x0a,0x40,0x6e,0x61,0x6d,0x65,0x49,0x22,0x0a,0x43,0x68,0x65,0x73,0x74,0x06,0x3a,0x06,0x45,0x54,0x3a,0x0b,0x40,0x70,0x69,0x74,0x63,0x68,0x69,0x69,0x3a,0x0c,0x40,0x76,0x6f,0x6c,0x75,0x6d,0x65,0x69,0x55))
  205(0,bytes(0x04,0x08,0x6f,0x3a,0x13,0x52,0x50,0x47,0x3a,0x3a,0x4d,0x6f,0x76,0x65,0x52,0x6f,0x75,0x74,0x65,0x09,0x3a,0x0c,0x40,0x72,0x65,0x70,0x65,0x61,0x74,0x46,0x3a,0x0f,0x40,0x73,0x6b,0x69,0x70,0x70,0x61,0x62,0x6c,0x65,0x46,0x3a,0x0a,0x40,0x77,0x61,0x69,0x74,0x54,0x3a,0x0a,0x40,0x6c,0x69,0x73,0x74,0x5b,0x0b,0x6f,0x3a,0x15,0x52,0x50,0x47,0x3a,0x3a,0x4d,0x6f,0x76,0x65,0x43,0x6f,0x6d,0x6d,0x61,0x6e,0x64,0x07,0x3a,0x0a,0x40,0x63,0x6f,0x64,0x65,0x69,0x29,0x3a,0x10,0x40,0x70,0x61,0x72,0x61,0x6d,0x65,0x74,0x65,0x72,0x73,0x5b,0x00,0x6f,0x3b,0x0a,0x07,0x3b,0x0b,0x69,0x16,0x3b,0x0c,0x5b,0x00,0x6f,0x3b,0x0a,0x07,0x3b,0x0b,0x69,0x14,0x3b,0x0c,0x5b,0x06,0x69,0x08,0x6f,0x3b,0x0a,0x07,0x3b,0x0b,0x69,0x17,0x3b,0x0c,0x5b,0x00,0x6f,0x3b,0x0a,0x07,0x3b,0x0b,0x69,0x14,0x3b,0x0c,0x5b,0x06,0x69,0x08,0x6f,0x3b,0x0a,0x07,0x3b,0x0b,0x69,0x00,0x3b,0x0c,0x5b,0x00))
  ChangeSelfSwitch("A",0)
  ChangeInventoryArmor(1336,0,0,1,false)
  0()
 PAGE   2
  // condition: self-switch A is ON
  0()



EVENT   13
 PAGE   1
  250(bytes(0x04,0x08,0x6f,0x3a,0x0c,0x52,0x50,0x47,0x3a,0x3a,0x53,0x45,0x08,0x3a,0x0a,0x40,0x6e,0x61,0x6d,0x65,0x49,0x22,0x0a,0x49,0x74,0x65,0x6d,0x31,0x06,0x3a,0x06,0x45,0x54,0x3a,0x0b,0x40,0x70,0x69,0x74,0x63,0x68,0x69,0x69,0x3a,0x0c,0x40,0x76,0x6f,0x6c,0x75,0x6d,0x65,0x69,0x55))
  ChangeSelfSwitch("A",0)
  ChangeInventory_Item(8,0,0,1)
  0()
 PAGE   2
  // condition: self-switch A is ON
  0()



EVENT   14
 PAGE   1
  250(bytes(0x04,0x08,0x6f,0x3a,0x0c,0x52,0x50,0x47,0x3a,0x3a,0x53,0x45,0x08,0x3a,0x0a,0x40,0x6e,0x61,0x6d,0x65,0x49,0x22,0x0a,0x48,0x65,0x61,0x6c,0x37,0x06,0x3a,0x06,0x45,0x54,0x3a,0x0b,0x40,0x70,0x69,0x74,0x63,0x68,0x69,0x69,0x3a,0x0c,0x40,0x76,0x6f,0x6c,0x75,0x6d,0x65,0x69,0x55))
  224(bytes(0x04,0x08,0x75,0x3a,0x0a,0x43,0x6f,0x6c,0x6f,0x72,0x25,0x00,0x00,0x00,0x00,0x00,0xe0,0x6f,0x40,0x00,0x00,0x00,0x00,0x00,0xe0,0x6f,0x40,0x00,0x00,0x00,0x00,0x00,0xe0,0x6f,0x40,0x00,0x00,0x00,0x00,0x00,0xe0,0x6f,0x40),30,true)
  314(0,0)
  ShowMessageFace("",0,0,2,1)
  ShowMessage("The party members have recovered all their HP and MP!")
  0()
